URL,rent,deposit,address,date,line 1,line 2,line 3,line 4,line 5,line 6,line 7,line 8
https://www.wg-gesucht.de/wg-zimmer-in-Munchen-Ludwigsvorstadt-Isarvorstadt.8230705.html,610€, ,Tumblingerstraße 80337 München Ludwigsvorstadt-Isarvorstadt,10.07.2021,11m² Zimmer in 4er WG,,4er WG ( 1 Frau und 2 Männer ),Bewohneralter: 26 bis 38 Jahre,Rauchen auf dem Balkon erlaubt,"Studenten-WG, Berufstätigen-WG, keine Zweck-WG, gemischte WG","Sprache/n: Deutsch, Englisch",Geschlecht egal zwischen 25 und 35 Jahren
https://www.wg-gesucht.de/wg-zimmer-in-Munchen-Maxvorstadt.7235642.html,580€,1950€,Zieblandstraße 27 80798 München Maxvorstadt,01.09.2021,8m² Zimmer in 3er WG,Wohnungsgröße: 80m²,3er WG ( 2 Männer ),Bewohneralter: 27 bis 29 Jahre,Rauchen nicht erwünscht,"Berufstätigen-WG, keine Zweck-WG, gemischte WG","Sprache/n: Deutsch, Englisch, Italienisch",Frau zwischen 22 und 40 Jahren
https://www.wg-gesucht.de/wg-zimmer-in-Munchen-Pasing-Obermenzing.8125289.html,550€,500€,Thuillestraße 42 81247 München Pasing-Obermenzing,13.06.2021,16m² Zimmer in 2er WG,Wohnungsgröße: 80m²,2er WG ( 1 Mann ),Bewohneralter: 20 bis 40 Jahre,Rauchen nicht erwünscht,"Studenten-WG, Berufstätigen-WG, keine Zweck-WG, gemischte WG","Sprache/n: Deutsch, Englisch",Frau zwischen 20 und 40 Jahren
https://www.wg-gesucht.de/wg-zimmer-in-Munchen-Forstenried-Furstenried.7890774.html,590€,1650€,Hunkelestrasse 32 81476 München Forstenried-Fürstenried,01.08.2021,10m² Zimmer in 7er WG,,7er WG ( 3 Frauen und 3 Männer ),Bewohneralter: 20 bis 32 Jahre,Rauchen nicht erwünscht,"Berufstätigen-WG, keine Zweck-WG, gemischte WG","Sprache/n: Deutsch, Englisch, Französisch",Geschlecht egal zwischen 20 und 32 Jahren
https://www.wg-gesucht.de/wg-zimmer-in-Munchen-Ramersdorf-Perlach.8080788.html,980€,1580€,Balanstr. / Plassenburgstr. 81549 München Ramersdorf-Perlach,15.07.2021,22m² Zimmer in 3er WG,Wohnungsgröße: 150m²,3er WG ( 1 Frau ),,Rauchen nicht erwünscht,"Zweck-WG, Studenten-WG, Frauen-WG, Business-WG, Berufstätigen-WG, Senioren-WG, WG mit Kindern, gemischte WG, LGBTQIA+, Internationals welcome, funktionale WG","Sprache/n: Deutsch, Englisch",Geschlecht egal
https://www.wg-gesucht.de/wg-zimmer-in-Munchen-Schwabing-Freimann.5058099.html,200€,150€,Leopoldstr. 49 80802 München Schwabing-Freimann,15.12.2021,12m² Zimmer in 7er WG,Wohnungsgröße: 200m²,7er WG ( 6 Männer ),Bewohneralter: 19 bis 23 Jahre,Rauchen überall erlaubt,"Studenten-WG, Verbindung",Sprache/n: Deutsch,Mann zwischen 18 und 25 Jahren
https://www.wg-gesucht.de/wg-zimmer-in-Munchen-Altstadt-Lehel.3727038.html,300€,300€,Münzstraße 8 80331 München Altstadt-Lehel,01.08.2021,14m² Zimmer in 8er WG,,8er WG ( 6 Männer ),Bewohneralter: 19 bis 23 Jahre,Rauchen auf dem Balkon erlaubt,"Studenten-WG, Verbindung, keine Zweck-WG",Sprache/n: Deutsch,Mann zwischen 18 und 25 Jahren
https://www.wg-gesucht.de/wg-zimmer-in-Munchen-Schwabing.8714691.html,490€, ,Moltkestrasse 80803 München Schwabing,15.06.2021,15m² Zimmer in 2er WG,Wohnungsgröße: 60m²,2er WG ( 1 Frau ),,"Zweck-WG, Senioren-WG",Sprache/n: Deutsch,Frau, 
https://www.wg-gesucht.de/wg-zimmer-in-Munchen-Obergiesing.3742407.html,700€,0€,Frasdorferstr.9 81549 München Obergiesing,15.06.2021,16m² Zimmer in 3er WG,Wohnungsgröße: 120m²,3er WG ( 1 Frau und 1 Mann ),,Rauchen auf dem Balkon erlaubt,"Studenten-WG, Berufstätigen-WG, gemischte WG, Mehrgenerationen","Sprache/n: Deutsch, Englisch",Frau
https://www.wg-gesucht.de/wg-zimmer-in-Munchen-Hadern.8717055.html,650€,1000€,guadinistr 137 81435 München Hadern,12.06.2021,16m² Zimmer in 4er WG,Wohnungsgröße: 83m²,4er WG ( 3 Männer ),Bewohneralter: 18 bis 30 Jahre,"Internationals welcome, inklusive WG","Sprache/n: Deutsch, Englisch, Chinesisch",Geschlecht egal zwischen 18 und 35 Jahren, 
https://www.wg-gesucht.de/wg-zimmer-in-Munchen-Berg-am-Laim.8720619.html,590€,1180€,Ampfingstraße 81671 München Berg am Laim,01.07.2021,10m² Zimmer in 5er WG,Wohnungsgröße: 85m²,5er WG ( 2 Frauen ),Bewohneralter: 18 bis 30 Jahre,Rauchen nicht erwünscht,"Studenten-WG, Frauen-WG, keine Zweck-WG, LGBTQIA+, Internationals welcome","Sprache/n: Deutsch, Englisch, Spanisch, Italienisch",Frau zwischen 18 und 30 Jahren
https://www.wg-gesucht.de/wg-zimmer-in-Munchen-Trudering.8715669.html,868€,1500€,Brachsenstraße 81825 München Trudering,01.07.2021,23m² Zimmer in 2er WG,Wohnungsgröße: 85m²,2er WG ( 1 Mann ),Bewohneralter: bis 45 Jahre,"Berufstätigen-WG, gemischte WG, Internationals welcome","Sprache/n: Deutsch, Englisch, Spanisch",Geschlecht egal, 
https://www.wg-gesucht.de/wg-zimmer-in-Munchen-Maxvorstadt.4604402.html,250€,600€,Königinstr. 20 80539 München Maxvorstadt,12.06.2021,24m² Zimmer in 5er WG,,5er WG ( 4 Männer ),Bewohneralter: 18 bis 24 Jahre,Rauchen auf dem Balkon erlaubt,"Studenten-WG, Verbindung",Sprache/n: Deutsch,Mann zwischen 18 und 24 Jahren
https://www.wg-gesucht.de/wg-zimmer-in-Munchen-Maxvorstadt.4355014.html,250€,600€,Königinstraße 20 80539 München Maxvorstadt,12.06.2021,20m² Zimmer in 4er WG,,4er WG ( 2 Männer ),Bewohneralter: 18 bis 25 Jahre,Rauchen auf dem Balkon erlaubt,"Studenten-WG, Verbindung",Sprache/n: Deutsch,Mann zwischen 18 und 25 Jahren
https://www.wg-gesucht.de/wg-zimmer-in-Munchen-Maxvorstadt.6892247.html,250€,600€,Königinstr. 20 80539 München Maxvorstadt,12.06.2021,20m² Zimmer in 7er WG,,7er WG ( 5 Männer ),Bewohneralter: 18 bis 23 Jahre,Rauchen auf dem Balkon erlaubt,Studenten-WG,Sprache/n: Deutsch,Mann zwischen 18 und 23 Jahren
https://www.wg-gesucht.de/wg-zimmer-in-Munchen-Moosach.8708308.html,600€,1200€,Dieselstraße 5 80993 München Moosach,01.07.2021,14m² Zimmer in 4er WG,Wohnungsgröße: 85m²,4er WG ( 2 Frauen und 1 Mann ),Bewohneralter: 24 bis 27 Jahre,Rauchen auf dem Balkon erlaubt,"Studenten-WG, Berufstätigen-WG, keine Zweck-WG, gemischte WG","Sprache/n: Deutsch, Englisch",Geschlecht egal zwischen 22 und 30 Jahren
https://www.wg-gesucht.de/wg-zimmer-in-Munchen-Bogenhausen.4938051.html,570€,1300€,Vollmannstraße 38 81927 München Bogenhausen,01.10.2021,18m² Zimmer in 7er WG,Wohnungsgröße: 190m²,7er WG ( 1 Frau und 5 Männer ),Bewohneralter: 26 bis 49 Jahre,Rauchen auf dem Balkon erlaubt,"Berufstätigen-WG, gemischte WG","Sprache/n: Deutsch, Englisch, Französisch",Geschlecht egal zwischen 25 und 49 Jahren
https://www.wg-gesucht.de/wg-zimmer-in-Munchen-Moosach.8723662.html,600€,1200€,Dieselstraße 5 80993 München Moosach,01.07.2021,14m² Zimmer in 4er WG,Wohnungsgröße: 85m²,4er WG ( 2 Frauen und 1 Mann ),Bewohneralter: 24 bis 27 Jahre,Rauchen auf dem Balkon erlaubt,"Studenten-WG, Berufstätigen-WG, keine Zweck-WG, gemischte WG","Sprache/n: Deutsch, Englisch",Geschlecht egal zwischen 21 und 35 Jahren
https://www.wg-gesucht.de/wg-zimmer-in-Munchen-Neuhausen-Nymphenburg.8602139.html,585€,1000€,Hirschgartenallee 20 80639 München Neuhausen-Nymphenburg,12.06.2021,15m² Zimmer in 3er WG,Wohnungsgröße: 100m²,3er WG ( 2 Männer ),Bewohneralter: 20 bis 35 Jahre,Rauchen nicht erwünscht,"Studenten-WG, Berufstätigen-WG, gemischte WG","Sprache/n: Deutsch, Englisch, Spanisch",Geschlecht egal zwischen 20 und 35 Jahren
https://www.wg-gesucht.de/wg-zimmer-in-Munchen-Trudering.8723773.html,700€,1400€,Spieljochstraße 81825 München Trudering,12.06.2021,20m² Zimmer in 7er WG,,7er WG ( 4 Frauen und 2 Männer ),Bewohneralter: 18 bis 22 Jahre,Rauchen auf dem Balkon erlaubt,"Studenten-WG, keine Zweck-WG, gemischte WG","Sprache/n: Deutsch, Englisch",Geschlecht egal zwischen 18 und 24 Jahren
https://www.wg-gesucht.de/wg-zimmer-in-Munchen-Haar.8699737.html,495€,495€,Bahnhofplatz 8 85540 München Haar,12.06.2021,15m² Zimmer in 10er WG,Wohnungsgröße: 300m²,10er WG ( 3 Frauen und 6 Männer ),Bewohneralter: 20 bis 40 Jahre,Rauchen nicht erwünscht,"Studenten-WG, Berufstätigen-WG, keine Zweck-WG, gemischte WG","Sprache/n: Deutsch, Englisch, Französisch",Geschlecht egal zwischen 20 und 40 Jahren
https://www.wg-gesucht.de/wg-zimmer-in-Munchen-Haar.8678737.html,495€,495€,Bahnhofplatz 8 85540 München Haar,12.06.2021,15m² Zimmer in 11er WG,Wohnungsgröße: 300m²,11er WG ( 3 Frauen und 7 Männer ),Bewohneralter: ab 20 Jahre,Rauchen nicht erwünscht,"Studenten-WG, Berufstätigen-WG, keine Zweck-WG, gemischte WG","Sprache/n: Deutsch, Englisch, Französisch",Geschlecht egal zwischen 20 und 40 Jahren
https://www.wg-gesucht.de/wg-zimmer-in-Munchen-Milbertshofen-Am-Hart.1899377.html,699€,1398€,Wolfoltstr. 80935 München Milbertshofen-Am Hart,01.07.2021,13m² Zimmer in 3er WG,,3er WG ( 2 Männer ),Bewohneralter: 18 bis 25 Jahre,Studenten-WG,,Mann zwischen 18 und 27 Jahren, 
https://www.wg-gesucht.de/wg-zimmer-in-Munchen-Milbertshofen-Am-Hart.1897753.html,739€,1460€,Wolfoltstr. 80935 München Milbertshofen-Am Hart,01.07.2021,17m² Zimmer in 3er WG,,3er WG ( 2 Männer ),Bewohneralter: 18 bis 25 Jahre,Studenten-WG,,Mann zwischen 18 und 25 Jahren, 
https://www.wg-gesucht.de/wg-zimmer-in-Munchen-Milbertshofen-Am-Hart.2783949.html,789€,2118€,Sudetendeutsche Str. 24 80937 München Milbertshofen-Am Hart,01.07.2021,16m² Zimmer in 2er WG,,2er WG ( 1 Mann ),Bewohneralter: 18 bis 30 Jahre,Rauchen nicht erwünscht,"Studenten-WG, Berufstätigen-WG, gemischte WG",,Geschlecht egal zwischen 18 und 30 Jahren
https://www.wg-gesucht.de/wg-zimmer-in-Munchen-Milbertshofen-Am-Hart.3713967.html,699€,1398€,Wolfoltstr. 80935 München Milbertshofen-Am Hart,01.07.2021,14m² Zimmer in 3er WG,,3er WG ( 2 Männer ),Bewohneralter: 18 bis 25 Jahre,Studenten-WG,,Mann zwischen 18 und 27 Jahren, 
https://www.wg-gesucht.de/wg-zimmer-in-Munchen-Feldmoching-Hasenbergl.1610411.html,699€,1398€,Riemerschmidstr. 41 80933 München Feldmoching-Hasenbergl,01.07.2021,16m² Zimmer in 2er WG,,2er WG ( 1 Mann ),Bewohneralter: 27 bis 27 Jahre,Rauchen nicht erwünscht,"Studenten-WG, Berufstätigen-WG",,Mann zwischen 20 und 32 Jahren
https://www.wg-gesucht.de/wg-zimmer-in-Munchen-Maxvorstadt.8577390.html,750€,1000€,Leonrodstrasse 60 80636 München Maxvorstadt,12.06.2021,23m² Zimmer in 3er WG,Wohnungsgröße: 80m²,3er WG ( 1 Frau und 1 Mann ),Bewohneralter: 20 bis 35 Jahre,Rauchen nicht erwünscht,"Studenten-WG, Berufstätigen-WG, gemischte WG","Sprache/n: Deutsch, Englisch, Italienisch",Geschlecht egal zwischen 20 und 40 Jahren
https://www.wg-gesucht.de/wg-zimmer-in-Munchen-Schwabing-Freimann.8157045.html,598€,1195€,Carl-Orff-Bogen 105 80939 München Schwabing-Freimann,01.07.2021,14m² Zimmer in 3er WG,Wohnungsgröße: 140m²,3er WG ( 1 Frau und 1 Mann ),Bewohneralter: 25 bis 26 Jahre,Rauchen nicht erwünscht,"Studenten-WG, Berufstätigen-WG, keine Zweck-WG","Sprache/n: Deutsch, Englisch",Geschlecht egal zwischen 22 und 28 Jahren
https://www.wg-gesucht.de/wg-zimmer-in-Munchen-Schwanthalerhoehe-Laim.6050733.html,499€,1000€,Walter Scott Str. 7 80687 München Schwanthalerhöhe-Laim,01.07.2021,10m² Zimmer in 6er WG,,6er WG ( 2 Frauen und 3 Männer ),Bewohneralter: 19 bis 39 Jahre,Rauchen auf dem Balkon erlaubt,"Studenten-WG, Berufstätigen-WG, gemischte WG","Sprache/n: Deutsch, Englisch, Französisch",Geschlecht egal zwischen 18 und 45 Jahren
https://www.wg-gesucht.de/wg-zimmer-in-Munchen-Aubing-Lochhausen-Langwied.4359654.html,439€,1000€,Kallenbergstr. 28 81245 München Aubing-Lochhausen-Langwied,01.07.2021,9m² Zimmer in 12er WG,Wohnungsgröße: 200m²,12er WG ( 1 Frau und 10 Männer ),Bewohneralter: 18 bis 45 Jahre,Rauchen nicht erwünscht,"Studenten-WG, Berufstätigen-WG, gemischte WG","Sprache/n: Deutsch, Englisch, Spanisch, Französisch",Geschlecht egal zwischen 18 und 45 Jahren
https://www.wg-gesucht.de/wg-zimmer-in-Munchen-Allach-Untermenzing.8408899.html,590€,1180€,München 80997 München Allach-Untermenzing,15.06.2021,18m² Zimmer in 7er WG,Wohnungsgröße: 200m²,7er WG ( 1 Frau und 3 Männer ),Bewohneralter: 20 bis 45 Jahre,Rauchen nicht erwünscht,"Studenten-WG, Berufstätigen-WG, gemischte WG, WG-Neugründung",,Geschlecht egal zwischen 20 und 45 Jahren
https://www.wg-gesucht.de/wg-zimmer-in-Munchen-Allach-Untermenzing.8510262.html,570€,1140€,München 80997 München Allach-Untermenzing,15.06.2021,16m² Zimmer in 7er WG,Wohnungsgröße: 200m²,7er WG ( 1 Frau und 3 Männer ),Bewohneralter: 20 bis 40 Jahre,Rauchen nicht erwünscht,Berufstätigen-WG,Sprache/n: Deutsch,Geschlecht egal zwischen 20 und 40 Jahren
https://www.wg-gesucht.de/wg-zimmer-in-Munchen-Neuhausen-Nymphenburg.8644714.html,795€,1500€,Nibelungenstrasse 80639 München Neuhausen-Nymphenburg,17.06.2021,24m² Zimmer in 3er WG,Wohnungsgröße: 87m²,3er WG ( 2 Frauen ),Bewohneralter: 26 bis 30 Jahre,Rauchen nicht erwünscht,"Studenten-WG, Berufstätigen-WG, gemischte WG, Vegetarisch/Vegan, Internationals welcome, WG-Neugründung","Sprache/n: Deutsch, Englisch",Geschlecht egal zwischen 22 und 37 Jahren
https://www.wg-gesucht.de/wg-zimmer-in-Munchen-Munchen.8704985.html,595€,1200€,Nibelungenstrasse 80639 München München,18.06.2021,11m² Zimmer in 3er WG,Wohnungsgröße: 87m²,3er WG,,Rauchen nicht erwünscht,"Studenten-WG, Frauen-WG, Männer-WG, Berufstätigen-WG, gemischte WG, Vegetarisch/Vegan, Alleinerziehende, Internationals welcome, WG-Neugründung","Sprache/n: Deutsch, Englisch",Geschlecht egal
https://www.wg-gesucht.de/wg-zimmer-in-Munchen-Ludwigsvorstadt-Isarvorstadt.7481257.html,350€,1050€,Bavariaring 47 80336 München Ludwigsvorstadt-Isarvorstadt,12.06.2021,14m² Zimmer in 14er WG,Wohnungsgröße: 300m²,14er WG ( 8 Männer ),Bewohneralter: 18 bis 25 Jahre,Rauchen auf dem Balkon erlaubt,"Studenten-WG, Männer-WG, Verbindung, keine Zweck-WG",Sprache/n: Deutsch,Mann zwischen 18 und 25 Jahren
https://www.wg-gesucht.de/wg-zimmer-in-Munchen-Obergiesing.5130431.html,750€,750€,Zugspitzstraße 81541 München Obergiesing,01.08.2021,17m² Zimmer in 3er WG,,3er WG ( 1 Frau und 1 Mann ),Bewohneralter: 18 bis 35 Jahre,Rauchen nicht erwünscht,"Studenten-WG, Berufstätigen-WG, gemischte WG","Sprache/n: Deutsch, Englisch",Geschlecht egal zwischen 18 und 35 Jahren
https://www.wg-gesucht.de/wg-zimmer-in-Munchen-Haar.8669664.html,500€,500€,Brunnerstr.15 85540 München Haar,01.07.2021,18m² Zimmer in 2er WG,Wohnungsgröße: 45m²,2er WG ( 1 Frau ),Bewohneralter: 18 bis 49 Jahre,Rauchen nicht erwünscht,"Berufstätigen-WG, gemischte WG","Sprache/n: Deutsch, Englisch, Spanisch",Geschlecht egal zwischen 18 und 49 Jahren
https://www.wg-gesucht.de/wg-zimmer-in-Munchen-Munchen-Neuaubing.5175162.html,520€,900€,Neuaubing 81243 München München/Neuaubing,01.07.2021,11m² Zimmer in 4er WG,,4er WG ( 3 Männer ),Bewohneralter: 19 bis 28 Jahre,Rauchen nicht erwünscht,"Studenten-WG, Berufstätigen-WG, gemischte WG",Sprache/n: Deutsch,Geschlecht egal zwischen 18 und 28 Jahren
https://www.wg-gesucht.de/wg-zimmer-in-Munchen-Untergiesing-Harlaching.8620746.html,553€,1000€,Braunstrasse 7 81545 München Untergiesing-Harlaching,12.06.2021,13m² Zimmer in 3er WG,Wohnungsgröße: 100m²,3er WG ( 2 Männer ),Bewohneralter: 20 bis 35 Jahre,"Studenten-WG, Berufstätigen-WG, gemischte WG","Sprache/n: Deutsch, Englisch, Spanisch",Geschlecht egal, 
https://www.wg-gesucht.de/wg-zimmer-in-Munchen-Moosach.8512992.html,540€,500€,Bunzlauerstraße 42 80992 München Moosach,01.07.2021,22m² Zimmer in 3er WG,Wohnungsgröße: 112m²,3er WG ( 2 Männer ),Bewohneralter: 21 bis 37 Jahre,Rauchen auf dem Balkon erlaubt,"Zweck-WG, Studenten-WG, Berufstätigen-WG, keine Zweck-WG, gemischte WG","Sprache/n: Deutsch, Englisch",Geschlecht egal zwischen 20 und 50 Jahren
https://www.wg-gesucht.de/wg-zimmer-in-Munchen-Aubing-Lochhausen-Langwied.3604046.html,500€,800€,Hufschmiedstr. 14 81249 München Aubing-Lochhausen-Langwied,01.09.2021,14m² Zimmer in 8er WG,Wohnungsgröße: 150m²,8er WG ( 4 Frauen und 3 Männer ),Bewohneralter: 18 bis 40 Jahre,Rauchen nicht erwünscht,"Studenten-WG, Berufstätigen-WG, gemischte WG","Sprache/n: Deutsch, Englisch",Geschlecht egal
https://www.wg-gesucht.de/wg-zimmer-in-Munchen-Obergiesing.8066087.html,480€,500€,Untersbergstr. 81539 München Obergiesing,24.06.2021,10m² Zimmer in 4er WG,Wohnungsgröße: 70m²,4er WG ( 2 Frauen und 1 Mann ),Bewohneralter: 35 bis 35 Jahre,Rauchen nicht erwünscht,"Berufstätigen-WG, gemischte WG","Sprache/n: Deutsch, Englisch",Geschlecht egal
https://www.wg-gesucht.de/wg-zimmer-in-Munchen-Bogenhausen.6419356.html,650€,1300€,Oberföhringer Str 5 81925 München Bogenhausen,15.06.2021,16m² Zimmer in 4er WG,Wohnungsgröße: 122m²,4er WG ( 3 Männer ),,"Studenten-WG, gemischte WG","Sprache/n: Deutsch, Englisch",Geschlecht egal zwischen 18 und 30 Jahren, 
https://www.wg-gesucht.de/wg-zimmer-in-Munchen-Schwabing-West.6589425.html,580€,1160€,Schleißheimerstrasse 80797 München Schwabing-West,01.07.2021,10m² Zimmer in 6er WG,Wohnungsgröße: 130m²,6er WG ( 5 Frauen ),Bewohneralter: 18 bis 28 Jahre,Rauchen auf dem Balkon erlaubt,"Studenten-WG, Berufstätigen-WG","Sprache/n: Deutsch, Englisch, Spanisch",Geschlecht egal zwischen 18 und 28 Jahren
https://www.wg-gesucht.de/wg-zimmer-in-Munchen-Neuhausen-Nymphenburg.7149705.html,25€,0€,Bayersdorferstraße 8 80637 München Neuhausen-Nymphenburg,26.06.2021,17m² Zimmer in 3er WG,Wohnungsgröße: 93m²,3er WG ( 2 Frauen ),Bewohneralter: 25 bis 34 Jahre,Rauchen nicht erwünscht,"Berufstätigen-WG, keine Zweck-WG, gemischte WG","Sprache/n: Deutsch, Englisch",Geschlecht egal zwischen 25 und 35 Jahren
https://www.wg-gesucht.de/wg-zimmer-in-Munchen-Au-Haidhausen.8699454.html,924€,1800€,Welfenstraße 8 81541 München Au-Haidhausen,01.07.2021,15m² Zimmer in 3er WG,Wohnungsgröße: 100m²,3er WG ( 2 Männer ),Bewohneralter: 25 bis 27 Jahre,Rauchen auf dem Balkon erlaubt,"Studenten-WG, Berufstätigen-WG, keine Zweck-WG, gemischte WG","Sprache/n: Deutsch, Englisch",Geschlecht egal
https://www.wg-gesucht.de/wg-zimmer-in-Munchen-Trudering.8474413.html,35€,400€,Kilihofstraße 27 81825 München Trudering,01.07.2021,8m² Zimmer in 4er WG,Wohnungsgröße: 128m²,4er WG ( 2 Frauen und 1 Mann ),,Rauchen nicht erwünscht,Berufstätigen-WG,"Sprache/n: Deutsch, Englisch",Geschlecht egal
https://www.wg-gesucht.de/wg-zimmer-in-Munchen-Ludwigsvorstadt-Isarvorstadt.7211990.html,780€,2190€,Häberlstraße 80337 München Ludwigsvorstadt-Isarvorstadt,01.08.2021,17m² Zimmer in 4er WG,Wohnungsgröße: 113m²,4er WG ( 3 Frauen ),Bewohneralter: 19 bis 24 Jahre,Rauchen nicht erwünscht,Studenten-WG,Sprache/n: Deutsch,Frau zwischen 19 und 25 Jahren
https://www.wg-gesucht.de/wg-zimmer-in-Munchen-Trudering.6037468.html,430€,700€,Kilihofstraße 27 81825 München Trudering,01.07.2021,8m² Zimmer in 4er WG,Wohnungsgröße: 128m²,4er WG ( 1 Frau und 2 Männer ),,Rauchen nicht erwünscht,Berufstätigen-WG,"Sprache/n: Deutsch, Englisch",Geschlecht egal
https://www.wg-gesucht.de/wg-zimmer-in-Munchen-Trudering.8528938.html,430€,600€,Kilihofstraße 27 81825 München Trudering,01.07.2021,8m² Zimmer in 3er WG,Wohnungsgröße: 128m²,3er WG ( 1 Frau und 1 Mann ),,Rauchen nicht erwünscht,Berufstätigen-WG,"Sprache/n: Deutsch, Englisch",Geschlecht egal
https://www.wg-gesucht.de/wg-zimmer-in-Munchen-Schwabing-West.8306409.html,750€,1000€,Bauerstraße 80796 München Schwabing-West,12.06.2021,18m² Zimmer in 2er WG,Wohnungsgröße: 65m²,2er WG ( 1 Frau ),Bewohneralter: 29 bis 29 Jahre,Rauchen nicht erwünscht,"Frauen-WG, Berufstätigen-WG, keine Zweck-WG, gemischte WG","Sprache/n: Deutsch, Englisch, Spanisch",Frau zwischen 29 und 39 Jahren
https://www.wg-gesucht.de/wg-zimmer-in-Munchen-Bogenhausen.3063210.html,620€,1000€,Ambergerstraße 81679 München Bogenhausen,01.07.2021,15m² Zimmer in 3er WG,,3er WG ( 1 Frau ),,Rauchen nicht erwünscht,"Zweck-WG, Berufstätigen-WG","Sprache/n: Deutsch, Spanisch, Italienisch",Frau
https://www.wg-gesucht.de/wg-zimmer-in-Munchen-Sendling.8677436.html,500€,0€,Konrad-Celtisstr. 81369 München Sendling,12.06.2021,15m² Zimmer in 2er WG,,2er WG ( 1 Mann ),,Rauchen nicht erwünscht,gemischte WG,Sprache/n: Deutsch,Mann
https://www.wg-gesucht.de/wg-zimmer-in-Munchen-Trudering.6412493.html,650€,600€,Kilihofstraße 27 81825 München Trudering,01.07.2021,14m² Zimmer in 3er WG,Wohnungsgröße: 128m²,3er WG ( 2 Frauen ),,Rauchen nicht erwünscht,Berufstätigen-WG,"Sprache/n: Deutsch, Englisch",Geschlecht egal
https://www.wg-gesucht.de/wg-zimmer-in-Munchen-Feldmoching-Hasenbergl.6658868.html,565€,1200€,Weitlstr. 42 80935 München Feldmoching-Hasenbergl,26.06.2021,11m² Zimmer in 3er WG,,3er WG ( 2 Männer ),Bewohneralter: 20 bis 30 Jahre,Rauchen nicht erwünscht,gemischte WG,"Sprache/n: Deutsch, Englisch",Geschlecht egal zwischen 18 und 35 Jahren
https://www.wg-gesucht.de/wg-zimmer-in-Munchen-Trudering.8097437.html,650€,700€,Kilihofstraße 27 81825 München Trudering,01.07.2021,14m² Zimmer in 3er WG,Wohnungsgröße: 128m²,3er WG ( 1 Frau und 1 Mann ),,Rauchen nicht erwünscht,Berufstätigen-WG,"Sprache/n: Deutsch, Englisch",Geschlecht egal
https://www.wg-gesucht.de/wg-zimmer-in-Munchen-Maxvorstadt.8222948.html,960€,600€,Fürstenstr. 00 80333 München Maxvorstadt,01.08.2021,18m² Zimmer in 2er WG,Wohnungsgröße: 150m²,2er WG ( 1 Frau ),,Rauchen nicht erwünscht,"Business-WG, Berufstätigen-WG","Sprache/n: Deutsch, Englisch, Französisch",Geschlecht egal
https://www.wg-gesucht.de/wg-zimmer-in-Munchen-Unterhaching.7372305.html,660€,1800€,Unterhaching 82008 München Unterhaching,01.07.2021,10m² Zimmer in 2er WG,Wohnungsgröße: 73m²,2er WG ( 1 Frau ),Bewohneralter: 22 bis 22 Jahre,Rauchen auf dem Balkon erlaubt,"Zweck-WG, Studenten-WG, Frauen-WG, Business-WG, Berufstätigen-WG, Azubi-WG, keine Zweck-WG, gemischte WG, Plus-WG, Mehrgenerationen, Vegetarisch/Vegan, LGBTQIA+, Internationals welcome, inklusive WG","Sprache/n: Deutsch, Englisch",Geschlecht egal
https://www.wg-gesucht.de/wg-zimmer-in-Munchen-Ludwigsvorstadt-Isarvorstadt.8723680.html,675€,1400€,Ruppertstraße 80337 München Ludwigsvorstadt-Isarvorstadt,01.07.2021,16m² Zimmer in 2er WG,Wohnungsgröße: 60m²,2er WG ( 1 Mann ),Bewohneralter: ab 47 Jahre,Rauchen nicht erwünscht,"Berufstätigen-WG, keine Zweck-WG","Sprache/n: Deutsch, Englisch",Geschlecht egal zwischen 22 und 40 Jahren
https://www.wg-gesucht.de/wg-zimmer-in-Munchen-Feldmoching-Hasenbergl.4595735.html,470€,0€,Mitteisstr. 80935 München Feldmoching-Hasenbergl,12.06.2021,10m² Zimmer in 3er WG,Wohnungsgröße: 90m²,3er WG ( 2 Männer ),Bewohneralter: 25 bis 30 Jahre,Rauchen nicht erwünscht,"Zweck-WG, Studenten-WG, Berufstätigen-WG",Sprache/n: Deutsch,Mann zwischen 20 und 40 Jahren
https://www.wg-gesucht.de/wg-zimmer-in-Munchen-Hadern.8593688.html,700€,2055€,Guardinistr. 81375 München Hadern,01.07.2021,12m² Zimmer in 4er WG,,4er WG,,Rauchen nicht erwünscht,"Studenten-WG, Berufstätigen-WG, gemischte WG, Internationals welcome, WG-Neugründung",,Geschlecht egal
https://www.wg-gesucht.de/wg-zimmer-in-Munchen-Schwanthalerhoehe-Laim.8716238.html,450€,450€,Fäustlestr. 80339 München Schwanthalerhöhe-Laim,02.08.2021,20m² Zimmer in 3er WG,,3er WG ( 2 Frauen ),Bewohneralter: 24 bis 27 Jahre,Rauchen nicht erwünscht,"Studenten-WG, keine Zweck-WG","Sprache/n: Deutsch, Englisch",Geschlecht egal
https://www.wg-gesucht.de/wg-zimmer-in-Munchen-Neuhausen-Nymphenburg.8710514.html,770€,1965€,Trivastraße 13 80637 München Neuhausen-Nymphenburg,01.07.2021,20m² Zimmer in 3er WG,Wohnungsgröße: 82m²,3er WG ( 2 Frauen ),Bewohneralter: 24 bis 25 Jahre,"Studenten-WG, Berufstätigen-WG, keine Zweck-WG, gemischte WG","Sprache/n: Deutsch, Englisch",Geschlecht egal, 
https://www.wg-gesucht.de/wg-zimmer-in-Munchen-Westpark.8717604.html,600€,250€,Ganghoferstraße 82 81373 München Westpark,01.07.2021,15m² Zimmer in 4er WG,Wohnungsgröße: 110m²,4er WG ( 1 Frau und 2 Männer ),Bewohneralter: 26 bis 28 Jahre,Rauchen auf dem Balkon erlaubt,"Berufstätigen-WG, gemischte WG","Sprache/n: Deutsch, Englisch",Geschlecht egal zwischen 20 und 35 Jahren
https://www.wg-gesucht.de/wg-zimmer-in-Munchen-Au-Haidhausen.5940348.html,740€,1300€,Innere Wiener Straße 81667 München Au-Haidhausen,01.07.2021,15m² Zimmer in 3er WG,Wohnungsgröße: 105m²,3er WG ( 2 Männer ),Bewohneralter: 30 bis 32 Jahre,Rauchen im Zimmer erlaubt,"Studenten-WG, Männer-WG, Berufstätigen-WG, keine Zweck-WG, gemischte WG, Plus-WG, LGBTQIA+, Internationals welcome","Sprache/n: Deutsch, Englisch, Griechisch",Geschlecht egal
https://www.wg-gesucht.de/wg-zimmer-in-Munchen-Solln.7399877.html,650€,1500€,Zeismeringerstraße 26 81477 München Solln,16.06.2021,19m² Zimmer in 3er WG,Wohnungsgröße: 110m²,3er WG ( 2 Männer ),Bewohneralter: 18 bis 30 Jahre,Rauchen auf dem Balkon erlaubt,"Studenten-WG, Berufstätigen-WG","Sprache/n: Deutsch, Englisch",Geschlecht egal zwischen 18 und 30 Jahren
https://www.wg-gesucht.de/wg-zimmer-in-Munchen-Bogenhausen.7098261.html,700€,1500€,Johanneskirchnerstraße 68 81927 München Bogenhausen,17.06.2021,20m² Zimmer in 2er WG,Wohnungsgröße: 65m²,2er WG ( 1 Mann ),,Rauchen nicht erwünscht,"Studenten-WG, Berufstätigen-WG, gemischte WG","Sprache/n: Deutsch, Englisch",Geschlecht egal zwischen 18 und 30 Jahren
https://www.wg-gesucht.de/wg-zimmer-in-Munchen-Obergiesing.6045940.html,600€,1500€,Wagingerstraße 1 81545 München Obergiesing,16.06.2021,18m² Zimmer in 6er WG,Wohnungsgröße: 190m²,6er WG ( 5 Männer ),Bewohneralter: 18 bis 30 Jahre,Rauchen auf dem Balkon erlaubt,"Studenten-WG, Männer-WG, Business-WG","Sprache/n: Deutsch, Englisch",Geschlecht egal zwischen 18 und 30 Jahren
https://www.wg-gesucht.de/wg-zimmer-in-Munchen-Pasing-Obermenzing.6517902.html,625€,1500€,Bauseweinalle 26 81247 München Pasing-Obermenzing,16.06.2021,20m² Zimmer in 6er WG,Wohnungsgröße: 220m²,6er WG ( 1 Frau und 4 Männer ),Bewohneralter: 18 bis 30 Jahre,"Studenten-WG, Berufstätigen-WG, gemischte WG","Sprache/n: Deutsch, Englisch, Spanisch",Geschlecht egal zwischen 18 und 30 Jahren, 
https://www.wg-gesucht.de/wg-zimmer-in-Munchen-Forstenried-Furstenried.8513283.html,540€,450€,"Engadiner Straße, 8 81475 München Forstenried-Fürstenried",12.06.2021,14m² Zimmer in 3er WG,Wohnungsgröße: 75m²,3er WG ( 2 Männer ),Bewohneralter: ab 24 Jahre,Rauchen auf dem Balkon erlaubt,"Studenten-WG, Berufstätigen-WG, keine Zweck-WG",Sprache/n: Deutsch,Geschlecht egal
https://www.wg-gesucht.de/wg-zimmer-in-Munchen-Maxvorstadt.8542292.html,500€,1500€,Amalienstraße 9 80799 München Maxvorstadt,16.06.2021,13m² Zimmer in 2er WG,Wohnungsgröße: 47m²,2er WG ( 1 Mann ),Bewohneralter: 18 bis 30 Jahre,Rauchen nicht erwünscht,"Studenten-WG, Berufstätigen-WG, gemischte WG, WG-Neugründung","Sprache/n: Deutsch, Englisch",Geschlecht egal zwischen 18 und 30 Jahren
https://www.wg-gesucht.de/wg-zimmer-in-Munchen-Neuhausen-Nymphenburg.7956885.html,700€,1500€,Saportastraße 2 80637 München Neuhausen-Nymphenburg,16.06.2021,25m² Zimmer in 3er WG,,3er WG ( 1 Frau und 1 Mann ),Bewohneralter: 18 bis 30 Jahre,Rauchen nicht erwünscht,"Studenten-WG, Berufstätigen-WG, gemischte WG","Sprache/n: Deutsch, Englisch, Italienisch",Geschlecht egal zwischen 18 und 30 Jahren
https://www.wg-gesucht.de/wg-zimmer-in-Munchen-Obergiesing.8607839.html,700€,1500€,Kesselbergstrasse 4 81539 München Obergiesing,16.06.2021,25m² Zimmer in 4er WG,Wohnungsgröße: 113m²,4er WG ( 2 Frauen und 1 Mann ),Bewohneralter: 18 bis 25 Jahre,"Studenten-WG, Berufstätigen-WG, keine Zweck-WG, gemischte WG","Sprache/n: Deutsch, Englisch",Geschlecht egal zwischen 18 und 30 Jahren, 
https://www.wg-gesucht.de/wg-zimmer-in-Munchen-Obergiesing.8610439.html,750€,1500€,Kesselbergstrasse 4 81539 München Obergiesing,15.06.2021,20m² Zimmer in 2er WG,Wohnungsgröße: 75m²,2er WG ( 1 Mann ),,Rauchen auf dem Balkon erlaubt,"Studenten-WG, Berufstätigen-WG, gemischte WG","Sprache/n: Deutsch, Englisch",Geschlecht egal
https://www.wg-gesucht.de/wg-zimmer-in-Munchen-Moosach.4880504.html,730€,800€,Riesstr.66 80993 München Moosach,20.06.2021,12m² Zimmer in 3er WG,Wohnungsgröße: 70m²,3er WG ( 1 Mann ),Bewohneralter: 25 bis 40 Jahre,Rauchen nicht erwünscht,"Business-WG, Berufstätigen-WG, keine Zweck-WG","Sprache/n: Deutsch, Englisch",Mann zwischen 25 und 50 Jahren
https://www.wg-gesucht.de/wg-zimmer-in-Munchen-Sendling.8645523.html,840€,1680€,Tübinger Straße 3 80686 München Sendling,12.06.2021,14m² Zimmer in 4er WG,Wohnungsgröße: 90m²,4er WG,,Rauchen auf dem Balkon erlaubt,"Studenten-WG, Berufstätigen-WG, gemischte WG","Sprache/n: Deutsch, Englisch",Geschlecht egal
https://www.wg-gesucht.de/wg-zimmer-in-Munchen-Schwanthalerhoehe-Laim.6602612.html,380€, ,XXXstr. 123 80687 München Schwanthalerhöhe-Laim,01.08.2021,9m² Zimmer in 4er WG,,4er WG ( 1 Frau und 2 Männer ),Bewohneralter: 28 bis 31 Jahre,Rauchen nicht erwünscht,"Berufstätigen-WG, keine Zweck-WG","Sprache/n: Deutsch, Englisch, Niederländisch",Geschlecht egal zwischen 22 und 32 Jahren
https://www.wg-gesucht.de/wg-zimmer-in-Munchen-Sendling.8601032.html,760€,1520€,Tübinger Straße 3 80686 München Sendling,12.06.2021,11m² Zimmer in 4er WG,Wohnungsgröße: 90m²,4er WG,,Rauchen auf dem Balkon erlaubt,"Studenten-WG, Berufstätigen-WG, gemischte WG","Sprache/n: Deutsch, Englisch",Geschlecht egal
https://www.wg-gesucht.de/wg-zimmer-in-Munchen-Maxvorstadt.8082244.html,780€,1560€,Nymphenburger Straße 107a 80636 München Maxvorstadt,01.07.2021,15m² Zimmer in 3er WG,,3er WG,Bewohneralter: 20 bis 35 Jahre,Rauchen nicht erwünscht,"Business-WG, Berufstätigen-WG, gemischte WG, Internationals welcome","Sprache/n: Deutsch, Englisch",Geschlecht egal zwischen 18 und 35 Jahren
https://www.wg-gesucht.de/wg-zimmer-in-Munchen-Au-Haidhausen.8628679.html,730€,1500€,Balanstr 63 81541 München Au-Haidhausen,12.06.2021,17m² Zimmer in 3er WG,Wohnungsgröße: 90m²,3er WG ( 1 Frau und 1 Mann ),,Rauchen nicht erwünscht,"Studenten-WG, Berufstätigen-WG","Sprache/n: Deutsch, Englisch",Geschlecht egal
https://www.wg-gesucht.de/wg-zimmer-in-Munchen-Forstenried-Furstenried.8640006.html,600€,1000€,Steinkirchnerstr 23 81475 München Forstenried-Fürstenried,01.07.2021,15m² Zimmer in 2er WG,Wohnungsgröße: 90m²,2er WG ( 1 Frau ),,Rauchen nicht erwünscht,"Studenten-WG, Berufstätigen-WG, gemischte WG, Internationals welcome, WG-Neugründung","Sprache/n: Deutsch, Englisch",Geschlecht egal
https://www.wg-gesucht.de/wg-zimmer-in-Munchen-Au-Haidhausen.8699219.html,700€,1000€,Berg-am-Laim-Straße 67 81673 München Au-Haidhausen,01.07.2021,13m² Zimmer in 5er WG,Wohnungsgröße: 130m²,5er WG ( 2 Frauen und 2 Männer ),,Rauchen nicht erwünscht,"Studenten-WG, Berufstätigen-WG, gemischte WG, Internationals welcome","Sprache/n: Deutsch, Englisch, Italienisch",Geschlecht egal
https://www.wg-gesucht.de/wg-zimmer-in-Munchen-Au-Haidhausen.8714236.html,685€,1000€,Berg-am-Laim-Straße 67 81673 München Au-Haidhausen,20.06.2021,13m² Zimmer in 4er WG,Wohnungsgröße: 96m²,4er WG ( 2 Frauen und 1 Mann ),,Rauchen nicht erwünscht,"Studenten-WG, Berufstätigen-WG, gemischte WG, Internationals welcome","Sprache/n: Deutsch, Englisch",Geschlecht egal
https://www.wg-gesucht.de/wg-zimmer-in-Munchen-Moosach.8632145.html,680€,1200€,Rathgeberstr. 1A 80997 München Moosach,01.07.2021,15m² Zimmer in 5er WG,Wohnungsgröße: 140m²,5er WG ( 2 Frauen und 1 Mann ),,Rauchen nicht erwünscht,"Studenten-WG, Berufstätigen-WG, Azubi-WG, Internationals welcome","Sprache/n: Deutsch, Englisch, Spanisch, Französisch",Geschlecht egal
https://www.wg-gesucht.de/wg-zimmer-in-Munchen-Au-Haidhausen.7822502.html,870€,1740€,Einsteinstraße 46 80469 München Au-Haidhausen,12.06.2021,17m² Zimmer in 4er WG,,4er WG ( 1 Frau und 2 Männer ),Bewohneralter: 20 bis 35 Jahre,Rauchen nicht erwünscht,"Business-WG, Berufstätigen-WG, gemischte WG, Internationals welcome","Sprache/n: Deutsch, Englisch",Geschlecht egal zwischen 18 und 35 Jahren
https://www.wg-gesucht.de/wg-zimmer-in-Munchen-Ludwigsvorstadt-Isarvorstadt.7917506.html,880€,1760€,Maistraße 10 80337 München Ludwigsvorstadt-Isarvorstadt,01.07.2021,19m² Zimmer in 4er WG,,4er WG,Bewohneralter: 20 bis 35 Jahre,Rauchen nicht erwünscht,"Business-WG, Berufstätigen-WG, gemischte WG, Internationals welcome","Sprache/n: Deutsch, Englisch",Geschlecht egal zwischen 18 und 35 Jahren
https://www.wg-gesucht.de/wg-zimmer-in-Munchen-Maxvorstadt.8715632.html,450€,450€,Luisenstrasse 80798 München Maxvorstadt,01.07.2021,11m² Zimmer in 4er WG,Wohnungsgröße: 75m²,4er WG ( 1 Frau und 2 Männer ),Bewohneralter: 25 bis 34 Jahre,"Berufstätigen-WG, gemischte WG, Internationals welcome","Sprache/n: Deutsch, Englisch, Portugiesisch",Geschlecht egal zwischen 23 und 35 Jahren, 
https://www.wg-gesucht.de/wg-zimmer-in-Munchen-Schwabing-Freimann.706487.html,590€,1200€,Wallnerstr. 18 80939 München Schwabing-Freimann,01.08.2021,22m² Zimmer in 4er WG,,4er WG ( 3 Männer ),Bewohneralter: 18 bis 26 Jahre,Rauchen nicht erwünscht,"Zweck-WG, Studenten-WG, Männer-WG",,Mann zwischen 18 und 26 Jahren
https://www.wg-gesucht.de/wg-zimmer-in-Munchen-Maxvorstadt.8723628.html,720€,1000€,Augustenstraße 75 80333 München Maxvorstadt,30.06.2021,30m² Zimmer in 2er WG,Wohnungsgröße: 65m²,2er WG ( 1 Frau ),Bewohneralter: 18 bis 22 Jahre,Rauchen nicht erwünscht,"Studenten-WG, Frauen-WG, keine Zweck-WG, gemischte WG","Sprache/n: Deutsch, Englisch",Geschlecht egal zwischen 18 und 28 Jahren
https://www.wg-gesucht.de/wg-zimmer-in-Munchen-Sendling.8584970.html,760€,1520€,Tübinger Straße 3 80686 München Sendling,12.06.2021,14m² Zimmer in 4er WG,Wohnungsgröße: 90m²,4er WG,,Rauchen auf dem Balkon erlaubt,"Studenten-WG, Berufstätigen-WG, gemischte WG","Sprache/n: Deutsch, Englisch",Geschlecht egal
https://www.wg-gesucht.de/wg-zimmer-in-Munchen-Westend.8723639.html,600€,250€,Ganghoferstraße 82 81373 München Westend,01.07.2021,15m² Zimmer in 4er WG,Wohnungsgröße: 110m²,4er WG ( 1 Frau und 2 Männer ),Bewohneralter: 27 bis 28 Jahre,Rauchen auf dem Balkon erlaubt,Berufstätigen-WG,"Sprache/n: Deutsch, Englisch",Geschlecht egal zwischen 22 und 35 Jahren
https://www.wg-gesucht.de/wg-zimmer-in-Munchen-Solln.8667245.html,300€,600€,Münsingerstraße 26 81477 München Solln,01.07.2021,6m² Zimmer in 4er WG,Wohnungsgröße: 300m²,4er WG ( 2 Frauen und 1 Mann ),Bewohneralter: 18 bis 45 Jahre,"Studenten-WG, Business-WG, Berufstätigen-WG, keine Zweck-WG, gemischte WG, inklusive WG","Sprache/n: Deutsch, Englisch",Geschlecht egal zwischen 19 und 29 Jahren, 
https://www.wg-gesucht.de/wg-zimmer-in-Munchen-Thalkirchen-Obersendling.8609745.html,600€,1200€,Münsingerstr. 26 81477 München Thalkirchen-Obersendling,01.07.2021,22m² Zimmer in 10er WG,Wohnungsgröße: 300m²,10er WG ( 4 Frauen und 4 Männer ),Bewohneralter: 19 bis 28 Jahre,"Studenten-WG, Berufstätigen-WG, keine Zweck-WG, gemischte WG","Sprache/n: Deutsch, Englisch",Geschlecht egal zwischen 18 und 28 Jahren, 
https://www.wg-gesucht.de/wg-zimmer-in-Munchen-Westpark.8705710.html,470€,1000€,"Säulingstraße, 10 80686 München Westpark",01.07.2021,10m² Zimmer in 2er WG,Wohnungsgröße: 47m²,2er WG ( 1 Frau ),Bewohneralter: ab 30 Jahre,Rauchen nicht erwünscht,gemischte WG,"Sprache/n: Deutsch, Englisch",Frau zwischen 18 und 35 Jahren
https://www.wg-gesucht.de/wg-zimmer-in-Munchen-Thalkirchen-Obersendling.8680367.html,650€,1300€,Münsingerstr 26 81477 München Thalkirchen-Obersendling,01.07.2021,25m² Zimmer in 10er WG,Wohnungsgröße: 300m²,10er WG ( 4 Frauen und 4 Männer ),Bewohneralter: 18 bis 26 Jahre,"Studenten-WG, Berufstätigen-WG, keine Zweck-WG, gemischte WG","Sprache/n: Deutsch, Englisch",Geschlecht egal zwischen 19 und 27 Jahren, 
https://www.wg-gesucht.de/wg-zimmer-in-Munchen-Sendling.8645553.html,760€,1520€,Tübinger Straße 3 80686 München Sendling,12.06.2021,13m² Zimmer in 4er WG,Wohnungsgröße: 90m²,4er WG,,Rauchen auf dem Balkon erlaubt,"Studenten-WG, Berufstätigen-WG, gemischte WG","Sprache/n: Deutsch, Englisch",Geschlecht egal
https://www.wg-gesucht.de/wg-zimmer-in-Munchen-Sendling.8645563.html,800€,1600€,Tübinger Straße 3 80686 München Sendling,12.06.2021,11m² Zimmer in 4er WG,Wohnungsgröße: 90m²,4er WG,,Rauchen auf dem Balkon erlaubt,"Studenten-WG, Berufstätigen-WG, gemischte WG","Sprache/n: Deutsch, Englisch",Geschlecht egal
https://www.wg-gesucht.de/wg-zimmer-in-Munchen-Sendling.8645574.html,760€,1520€,Tübinger Straße 3 80686 München Sendling,12.06.2021,12m² Zimmer in 4er WG,Wohnungsgröße: 90m²,4er WG,,Rauchen auf dem Balkon erlaubt,"Studenten-WG, Berufstätigen-WG, gemischte WG","Sprache/n: Deutsch, Englisch",Geschlecht egal
https://www.wg-gesucht.de/wg-zimmer-in-Munchen-Obergiesing.8721505.html,740€,2082€,Tegernseer Landstr. 2X 81541 München Obergiesing,01.07.2021,31m² Zimmer in 4er WG,Wohnungsgröße: 114m²,4er WG ( 1 Frau ),Bewohneralter: 27 bis 27 Jahre,Rauchen nicht erwünscht,"Berufstätigen-WG, keine Zweck-WG, gemischte WG","Sprache/n: Deutsch, Englisch, Spanisch, Französisch",Geschlecht egal zwischen 24 und 35 Jahren
https://www.wg-gesucht.de/wg-zimmer-in-Munchen-Berg-am-Laim.8462768.html,450€,675€,Praschlerstraße 81673 München Berg am Laim,01.08.2021,7m² Zimmer in 5er WG,Wohnungsgröße: 126m²,5er WG ( 1 Frau und 3 Männer ),Bewohneralter: 25 bis 37 Jahre,Rauchen auf dem Balkon erlaubt,"Berufstätigen-WG, keine Zweck-WG, gemischte WG","Sprache/n: Deutsch, Englisch",Frau zwischen 25 und 39 Jahren
https://www.wg-gesucht.de/wg-zimmer-in-Munchen-Schwabing-West.8711122.html,820€,1570€,Herzogstraße 80803 München Schwabing-West,01.08.2021,22m² Zimmer in 3er WG,Wohnungsgröße: 92m²,3er WG ( 2 Frauen ),Bewohneralter: 25 bis 27 Jahre,Rauchen nicht erwünscht,"Studenten-WG, Berufstätigen-WG, keine Zweck-WG","Sprache/n: Deutsch, Englisch, Italienisch",Geschlecht egal zwischen 25 und 30 Jahren
https://www.wg-gesucht.de/wg-zimmer-in-Munchen-Ludwigsvorstadt-Isarvorstadt.8717041.html,720€,1500€,sommerstr 56 81543 München Ludwigsvorstadt-Isarvorstadt,12.06.2021,16m² Zimmer in 3er WG,Wohnungsgröße: 74m²,3er WG ( 2 Frauen ),Bewohneralter: 19 bis 26 Jahre,"Frauen-WG, Internationals welcome","Sprache/n: Deutsch, Englisch, Russisch, Chinesisch",Frau zwischen 18 und 30 Jahren, 
https://www.wg-gesucht.de/wg-zimmer-in-Munchen-Fasanerie.7881772.html,665€,1950€,Leonhard-Bugl-Str 6 80995 München Fasanerie,01.08.2021,18m² Zimmer in 2er WG,Wohnungsgröße: 80m²,2er WG ( 1 Mann ),Bewohneralter: ab 46 Jahre,Rauchen nicht erwünscht,"Berufstätigen-WG, keine Zweck-WG, gemischte WG","Sprache/n: Deutsch, Englisch",Geschlecht egal zwischen 20 und 45 Jahren
https://www.wg-gesucht.de/wg-zimmer-in-Munchen-Au-Haidhausen.8717370.html,850€,800€,Schornstraße 10 81669 München Au-Haidhausen,15.07.2021,24m² Zimmer in 3er WG,Wohnungsgröße: 100m²,3er WG ( 1 Frau und 1 Mann ),,"Berufstätigen-WG, keine Zweck-WG, gemischte WG","Sprache/n: Deutsch, Englisch",Geschlecht egal zwischen 22 und 40 Jahren, 
https://www.wg-gesucht.de/wg-zimmer-in-Munchen-Altstadt-Lehel.3937252.html,897€,0€,Am Kosttor 3 80331 München Altstadt-Lehel,15.07.2021,24m² Zimmer in 2er WG,Wohnungsgröße: 110m²,2er WG ( 1 Mann ),,Rauchen im Zimmer erlaubt,"Männer-WG, keine Zweck-WG","Sprache/n: Deutsch, Englisch",Mann zwischen 25 und 50 Jahren
https://www.wg-gesucht.de/wg-zimmer-in-Munchen-Feldmoching.6602782.html,590€,1770€,Dülferstr. 56 80995 München Feldmoching,01.07.2021,16m² Zimmer in 7er WG,,7er WG ( 3 Frauen und 3 Männer ),Bewohneralter: 18 bis 26 Jahre,Rauchen nicht erwünscht,"Studenten-WG, keine Zweck-WG, gemischte WG","Sprache/n: Deutsch, Englisch",Geschlecht egal zwischen 18 und 26 Jahren
https://www.wg-gesucht.de/wg-zimmer-in-Munchen-Milbertshofen-Am-Hart.8711530.html,24€,0€,near hirschkäferweg a narrow park 1 80809 München Milbertshofen-Am Hart,13.06.2021,16m² Zimmer in 2er WG,Wohnungsgröße: 36m²,2er WG ( 1 Frau ),,Rauchen nicht erwünscht,"Zweck-WG, Business-WG, Berufstätigen-WG, funktionale WG","Sprache/n: Deutsch, Englisch",Geschlecht egal
https://www.wg-gesucht.de/wg-zimmer-in-Munchen-Milbertshofen-Am-Hart.8167492.html,550€,1100€,Goldmarkstr. 53 80937 München Milbertshofen-Am Hart,01.08.2021,12m² Zimmer in 7er WG,Wohnungsgröße: 130m²,7er WG ( 6 Männer ),,Rauchen nicht erwünscht,"Studenten-WG, Berufstätigen-WG","Sprache/n: Deutsch, Englisch",Mann ab 20 Jahren
https://www.wg-gesucht.de/wg-zimmer-in-Munchen-Sendling.8708136.html,600€,600€,Fallstraße 16 81369 München Sendling,15.07.2021,17m² Zimmer in 2er WG,Wohnungsgröße: 52m²,2er WG ( 1 Frau ),Bewohneralter: bis 30 Jahre,Studenten-WG,"Sprache/n: Deutsch, Italienisch, Englisch",Frau bis 30 Jahren, 
https://www.wg-gesucht.de/wg-zimmer-in-Munchen-Neuhausen-Nymphenburg.8717364.html,765€,1330€,Horemansstraße 26a 80636 München Neuhausen-Nymphenburg,15.07.2021,19m² Zimmer in 3er WG,,3er WG ( 2 Männer ),Bewohneralter: 26 bis 33 Jahre,Berufstätigen-WG,"Sprache/n: Deutsch, Englisch",Geschlecht egal, 
https://www.wg-gesucht.de/wg-zimmer-in-Munchen-Obergiesing.8677787.html,1050€,3150€,Tegernseer Landstraße 36 81541 München Obergiesing,01.07.2021,35m² Zimmer in 4er WG,Wohnungsgröße: 155m²,4er WG,Bewohneralter: 25 bis 30 Jahre,"keine Zweck-WG, gemischte WG","Sprache/n: Deutsch, Englisch",Geschlecht egal zwischen 25 und 30 Jahren, 
https://www.wg-gesucht.de/wg-zimmer-in-Munchen-Trudering.8002646.html,690€,2070€,Rotkehlchenweg 3A 81827 München Trudering,01.07.2021,18m² Zimmer in 5er WG,Wohnungsgröße: 425m²,5er WG ( 1 Frau und 3 Männer ),Bewohneralter: 25 bis 39 Jahre,Rauchen auf dem Balkon erlaubt,Berufstätigen-WG,"Sprache/n: Deutsch, Englisch, Spanisch, Französisch, Italienisch, Russisch",Geschlecht egal
https://www.wg-gesucht.de/wg-zimmer-in-Munchen-Maxvorstadt.7480864.html,770€, ,Luisenstraße 80333 München Maxvorstadt,28.06.2021,28m² Zimmer in 2er WG,Wohnungsgröße: 70m²,2er WG ( 1 Frau ),Bewohneralter: bis 35 Jahre,Rauchen nicht erwünscht,"Zweck-WG, Studenten-WG, Frauen-WG, Berufstätigen-WG, keine Zweck-WG","Sprache/n: Deutsch, Englisch",Frau
https://www.wg-gesucht.de/wg-zimmer-in-Munchen-Neuhausen.8686491.html,750€,1500€,Artilleriestrasse 3 80636 München Neuhausen,01.07.2021,19m² Zimmer in 3er WG,Wohnungsgröße: 90m²,3er WG ( 2 Frauen ),Bewohneralter: 25 bis 50 Jahre,Rauchen im Zimmer erlaubt,Berufstätigen-WG,"Sprache/n: Deutsch, Englisch, Russisch",Geschlecht egal zwischen 25 und 50 Jahren
https://www.wg-gesucht.de/wg-zimmer-in-Munchen-Untergiesing-Harlaching.8708031.html,590€, ,Rotbuchenstraße 81547 München Untergiesing-Harlaching,01.07.2021,14m² Zimmer in 2er WG,,2er WG ( 1 Frau ),Bewohneralter: 21 bis 27 Jahre,Rauchen nicht erwünscht,"Studenten-WG, keine Zweck-WG",Sprache/n: Deutsch,Frau
https://www.wg-gesucht.de/wg-zimmer-in-Munchen-Milbertshofen-Am-Hart.8409592.html,600€,600€,K8 80807 München Milbertshofen-Am Hart,01.07.2021,20m² Zimmer in 3er WG,Wohnungsgröße: 70m²,3er WG ( 1 Frau ),,Rauchen auf dem Balkon erlaubt,Berufstätigen-WG,,Geschlecht egal ab 30 Jahren
