URL,rent,deposit,address,date,line 1,line 2,line 3,line 4,line 5,line 6,line 7,line 8
https://www.wg-gesucht.de/wg-zimmer-in-Nurnberg-Glockenhof.8225554.html,420€,500€,"3, Kapellenstrasse 90478 Nürnberg Glockenhof",25.08.2021,20m² Zimmer in 4er WG,Wohnungsgröße: 100m²,4er WG ( 1 Frau und 2 Männer ),Bewohneralter: 22 bis 33 Jahre,"gemischte WG, LGBTQIA+, Internationals welcome","Sprache/n: Deutsch, Englisch, Französisch",Geschlecht egal ab 23 Jahren, 
https://www.wg-gesucht.de/wg-zimmer-in-Nurnberg-Schoppershof.7524945.html,350€,0€,Bismarkstraße 12 90491 Nürnberg Schoppershof,01.07.2021,24m² Zimmer in 2er WG,Wohnungsgröße: 110m²,2er WG ( 1 Mann ),Bewohneralter: 25 bis 45 Jahre,Rauchen nicht erwünscht,"Studenten-WG, Berufstätigen-WG, gemischte WG, Internationals welcome","Sprache/n: Deutsch, Englisch",Frau zwischen 25 und 49 Jahren
https://www.wg-gesucht.de/wg-zimmer-in-Nurnberg-St-Jobst.6544983.html,300€,0€,Hardenbergstr. 90491 Nürnberg St Jobst,01.07.2021,12m² Zimmer in 2er WG,Wohnungsgröße: 65m²,2er WG ( 1 Mann ),,Rauchen auf dem Balkon erlaubt,"Studenten-WG, Berufstätigen-WG, gemischte WG","Sprache/n: Deutsch, Englisch",Geschlecht egal
https://www.wg-gesucht.de/wg-zimmer-in-Nurnberg-Glockenhof.6910422.html,364€,0€,Holzgartenstraße 90461 Nürnberg Glockenhof,14.06.2021,19m² Zimmer in 2er WG,Wohnungsgröße: 60m²,2er WG ( 1 Frau ),,Rauchen auf dem Balkon erlaubt,"Studenten-WG, Frauen-WG, keine Zweck-WG","Sprache/n: Deutsch, Englisch",Frau zwischen 20 und 30 Jahren
https://www.wg-gesucht.de/wg-zimmer-in-Nurnberg-Woehrd.7299553.html,420€,600€,Georg-Strobel-Strasse 79 90489 Nürnberg Wöhrd,01.08.2021,18m² Zimmer in 4er WG,Wohnungsgröße: 106m²,4er WG ( 1 Frau und 1 Mann ),Bewohneralter: 21 bis 28 Jahre,Rauchen im Zimmer erlaubt,"Studenten-WG, Berufstätigen-WG, keine Zweck-WG, gemischte WG",Sprache/n: Deutsch,Geschlecht egal zwischen 21 und 28 Jahren
https://www.wg-gesucht.de/wg-zimmer-in-Nurnberg-Gostenhof.3659107.html,400€,500€,Glockendonstrasse 90429 Nürnberg Gostenhof,01.07.2021,21m² Zimmer in 2er WG,Wohnungsgröße: 94m²,2er WG ( 1 Frau ),,Rauchen nicht erwünscht,"Frauen-WG, Berufstätigen-WG",Sprache/n: Deutsch,Frau zwischen 28 und 55 Jahren
https://www.wg-gesucht.de/wg-zimmer-in-Nurnberg-moebliert-Naehe-Hbf-ruhige-Nebenst-.6621688.html,445€,445€,Ammanstr. 90459 Nürnberg möbliert/Nähe Hbf/ruhige Nebenst.,01.07.2021,25m² Zimmer in 4er WG,,4er WG ( 3 Frauen ),Bewohneralter: 18 bis 28 Jahre,Rauchen nicht erwünscht,"Studenten-WG, Berufstätigen-WG","Sprache/n: Deutsch, Englisch",Frau zwischen 18 und 28 Jahren
https://www.wg-gesucht.de/wg-zimmer-in-Nurnberg-St-Johannis.8002981.html,325€, ,Äußere Großweidenmühlstraße 28 90419 Nürnberg St Johannis,01.07.2021,16m² Zimmer in 4er WG,Wohnungsgröße: 100m²,4er WG ( 2 Frauen und 1 Mann ),Bewohneralter: 25 bis 28 Jahre,Rauchen nicht erwünscht,"Studenten-WG, keine Zweck-WG, gemischte WG","Sprache/n: Deutsch, Englisch, Spanisch, Französisch",Geschlecht egal zwischen 22 und 30 Jahren
https://www.wg-gesucht.de/wg-zimmer-in-Nurnberg-Maxfeld.7447092.html,345€,400€,Berckhauserstraße 34 90409 Nürnberg Maxfeld,01.07.2021,16m² Zimmer in 4er WG,,4er WG ( 2 Frauen und 1 Mann ),Bewohneralter: 24 bis 28 Jahre,Rauchen auf dem Balkon erlaubt,"Studenten-WG, Berufstätigen-WG, keine Zweck-WG, gemischte WG","Sprache/n: Deutsch, Englisch",Mann zwischen 25 und 32 Jahren
https://www.wg-gesucht.de/wg-zimmer-in-Nurnberg-Rennweg.8716029.html,499€, ,Berliner Platz 90489 Nürnberg Rennweg,25.06.2021,22m² Zimmer in 2er WG,Wohnungsgröße: 100m²,2er WG ( 1 Mann ),Bewohneralter: ab 23 Jahre,Rauchen auf dem Balkon erlaubt,Berufstätigen-WG,"Sprache/n: Deutsch, Englisch, Portugiesisch",Geschlecht egal zwischen 18 und 30 Jahren
https://www.wg-gesucht.de/wg-zimmer-in-Nurnberg-Nurnberg.8666656.html,425€,850€,Fichtestraße 55 90489 Nürnberg Nürnberg,14.06.2021,20m² Zimmer in 3er WG,,3er WG ( 2 Männer ),Bewohneralter: 22 bis 23 Jahre,Rauchen nicht erwünscht,"Studenten-WG, Berufstätigen-WG, gemischte WG","Sprache/n: Deutsch, Englisch",Geschlecht egal zwischen 18 und 30 Jahren
https://www.wg-gesucht.de/wg-zimmer-in-Nurnberg-Gostenhof.8332741.html,450€,970€,Petzoltstraße 6 90443 Nürnberg Gostenhof,01.07.2021,26m² Zimmer in 5er WG,Wohnungsgröße: 164m²,5er WG ( 2 Frauen und 2 Männer ),Bewohneralter: 25 bis 32 Jahre,Rauchen auf dem Balkon erlaubt,"Berufstätigen-WG, keine Zweck-WG, Internationals welcome","Sprache/n: Deutsch, Englisch",Geschlecht egal zwischen 25 und 40 Jahren
https://www.wg-gesucht.de/wg-zimmer-in-Nurnberg-Nordstadt.8659194.html,440€,900€,Äußerer Laufer Platz 90403 Nürnberg Nordstadt,14.06.2021,20m² Zimmer in 3er WG,Wohnungsgröße: 80m²,3er WG ( 1 Frau ),,Rauchen auf dem Balkon erlaubt,"Studenten-WG, Berufstätigen-WG, keine Zweck-WG, gemischte WG","Sprache/n: Deutsch, Englisch",Geschlecht egal
https://www.wg-gesucht.de/wg-zimmer-in-Nurnberg-St-Johannis.8723622.html,350€,742€,Bucher Straße 90419 Nürnberg St Johannis,01.09.2021,17m² Zimmer in 4er WG,Wohnungsgröße: 109m²,4er WG ( 3 Frauen ),Bewohneralter: 22 bis 24 Jahre,Rauchen nicht erwünscht,"Studenten-WG, Frauen-WG, keine Zweck-WG","Sprache/n: Deutsch, Englisch",Frau zwischen 20 und 28 Jahren
https://www.wg-gesucht.de/wg-zimmer-in-Nurnberg-Woehrd.8094652.html,366€,632€,Sulzbacher Straße 90489 Nürnberg Wöhrd,01.08.2021,19m² Zimmer in 3er WG,Wohnungsgröße: 77m²,3er WG ( 2 Frauen ),Bewohneralter: 24 bis 28 Jahre,Rauchen auf dem Balkon erlaubt,"Studenten-WG, keine Zweck-WG, Vegetarisch/Vegan, LGBTQIA+",Sprache/n: Deutsch,Geschlecht egal zwischen 22 und 30 Jahren
https://www.wg-gesucht.de/wg-zimmer-in-Nurnberg-Gostenhof.3388668.html,475€,900€,Müllnerstr. 22 90429 Nürnberg Gostenhof,01.09.2021,28m² Zimmer in 2er WG,,2er WG ( 1 Frau ),Bewohneralter: 61 bis 61 Jahre,Rauchen auf dem Balkon erlaubt,Berufstätigen-WG,Sprache/n: Deutsch,Geschlecht egal
https://www.wg-gesucht.de/wg-zimmer-in-Nurnberg-Sofort-FREI-auch-jetzt-schon.5923236.html,235€,200€,Stübacher Straße 90431 Nürnberg Sofort FREI/auch jetzt schon,01.07.2021,10m² Zimmer in 4er WG,,4er WG ( 1 Frau und 2 Männer ),Bewohneralter: 22 bis 35 Jahre,Rauchen nicht erwünscht,"Zweck-WG, Berufstätigen-WG, gemischte WG",Sprache/n: Deutsch,Geschlecht egal zwischen 22 und 35 Jahren
https://www.wg-gesucht.de/wg-zimmer-in-Nurnberg-Glockenhof.5135370.html,350€,600€,Walter-Meckauer - Str.13 90478 Nürnberg Glockenhof,14.06.2021,18m² Zimmer in 2er WG,,2er WG ( 1 Frau ),,Rauchen nicht erwünscht,"Studenten-WG, Frauen-WG, Berufstätigen-WG, Internationals welcome","Sprache/n: Deutsch, Englisch, Spanisch, Französisch, Polnisch, Portugiesisch, Italienisch, Russisch, Schwedisch, Tschechisch",Frau
https://www.wg-gesucht.de/wg-zimmer-in-Nurnberg-Grossreuth-h-d-Veste.7093561.html,605€,800€,Schleifweg 57 90409 Nürnberg Großreuth h.d.Veste,01.08.2021,25m² Zimmer in 5er WG,Wohnungsgröße: 250m²,5er WG ( 4 Männer ),Bewohneralter: 23 bis 32 Jahre,Rauchen auf dem Balkon erlaubt,"Studenten-WG, Berufstätigen-WG, keine Zweck-WG, gemischte WG","Sprache/n: Deutsch, Englisch",Geschlecht egal
https://www.wg-gesucht.de/wg-zimmer-in-Nurnberg-Schoppershof.8499073.html,425€,1000€,Welserstraße 64 90489 Nürnberg Schoppershof,14.06.2021,12m² Zimmer in 7er WG,Wohnungsgröße: 151m²,7er WG,,Rauchen nicht erwünscht,"Studenten-WG, Berufstätigen-WG, gemischte WG","Sprache/n: Deutsch, Englisch",Geschlecht egal
https://www.wg-gesucht.de/wg-zimmer-in-Nurnberg-Werderau.8401487.html,460€,1000€,Spießstraße 29 90441 Nürnberg Werderau,14.06.2021,15m² Zimmer in 3er WG,Wohnungsgröße: 80m²,3er WG,,Rauchen nicht erwünscht,"Studenten-WG, Berufstätigen-WG, keine Zweck-WG, gemischte WG","Sprache/n: Deutsch, Englisch",Geschlecht egal
https://www.wg-gesucht.de/wg-zimmer-in-Nurnberg-Unterasbach-Faber-Castell-Playmobil.8598101.html,390€,500€,Nähe S-Bahn Unterasbach 90522 Nürnberg Unterasbach/Faber Castell/ Playmobil,15.07.2021,35m² Zimmer in 2er WG,Wohnungsgröße: 100m²,2er WG ( 1 Frau ),,Rauchen nicht erwünscht,"Frauen-WG, Business-WG, Berufstätigen-WG, gemischte WG, Vegetarisch/Vegan",Sprache/n: Deutsch,Geschlecht egal zwischen 20 und 55 Jahren
https://www.wg-gesucht.de/wg-zimmer-in-Nurnberg-Mitte.7306568.html,630€,1000€,Am Plärrer 90429 Nürnberg Mitte,01.08.2021,30m² Zimmer in 2er WG,Wohnungsgröße: 40m²,2er WG,,Rauchen nicht erwünscht,"Zweck-WG, Studenten-WG, Frauen-WG, Berufstätigen-WG, keine Zweck-WG, gemischte WG","Sprache/n: Deutsch, Englisch, Chinesisch",Geschlecht egal
https://www.wg-gesucht.de/wg-zimmer-in-Nurnberg-Werderau.8175462.html,460€,1000€,Spießstraße 29 90441 Nürnberg Werderau,14.06.2021,14m² Zimmer in 4er WG,Wohnungsgröße: 90m²,4er WG,,Rauchen nicht erwünscht,gemischte WG,"Sprache/n: Deutsch, Englisch",Geschlecht egal zwischen 18 und 40 Jahren
https://www.wg-gesucht.de/wg-zimmer-in-Nurnberg-Schoppershof.8717107.html,335€,665€,Welserstraße 32 90489 Nürnberg Schoppershof,15.06.2021,18m² Zimmer in 3er WG,Wohnungsgröße: 76m²,3er WG ( 2 Frauen ),Bewohneralter: 21 bis 22 Jahre,"Studenten-WG, Frauen-WG",,Frau zwischen 22 und 26 Jahren, 
https://www.wg-gesucht.de/wg-zimmer-in-Nurnberg-Lorenz.8658251.html,409€,600€,Vordere Sterngasse 8-10 90402 Nürnberg Lorenz,01.08.2021,18m² Zimmer in 10er WG,,10er WG ( 5 Frauen und 4 Männer ),Bewohneralter: 20 bis 25 Jahre,Rauchen auf dem Balkon erlaubt,"Studenten-WG, keine Zweck-WG","Sprache/n: Deutsch, Englisch",Mann zwischen 18 und 28 Jahren
https://www.wg-gesucht.de/wg-zimmer-in-Nurnberg-Veilhof.8547236.html,450€,500€,Bartholomäusstr. 58 90489 Nürnberg Veilhof,14.06.2021,14m² Zimmer in 2er WG,Wohnungsgröße: 72m²,2er WG ( 1 Mann ),Bewohneralter: ab 28 Jahre,Rauchen auf dem Balkon erlaubt,"Studenten-WG, Berufstätigen-WG",Sprache/n: Deutsch,Geschlecht egal zwischen 20 und 35 Jahren
https://www.wg-gesucht.de/wg-zimmer-in-Nurnberg-Hummelstein.8700819.html,330€,900€,Hummelsteiner Weg 41 90459 Nürnberg Hummelstein,15.06.2021,10m² Zimmer in 3er WG,Wohnungsgröße: 61m²,3er WG ( 2 Männer ),Bewohneralter: 20 bis 23 Jahre,Rauchen auf dem Balkon erlaubt,"Studenten-WG, Berufstätigen-WG, keine Zweck-WG, gemischte WG","Sprache/n: Deutsch, Englisch",Geschlecht egal zwischen 18 und 30 Jahren
https://www.wg-gesucht.de/wg-zimmer-in-Nurnberg-Lorenz.8442073.html,329€,600€,Vordere Sterngasse 10 90402 Nürnberg Lorenz,01.08.2021,10m² Zimmer in 17er WG,Wohnungsgröße: 441m²,17er WG ( 8 Frauen und 8 Männer ),Bewohneralter: 18 bis 25 Jahre,Rauchen auf dem Balkon erlaubt,"Studenten-WG, keine Zweck-WG, gemischte WG","Sprache/n: Deutsch, Englisch, Spanisch, Französisch, Portugiesisch",Frau zwischen 18 und 25 Jahren
https://www.wg-gesucht.de/wg-zimmer-in-Nurnberg-Lorenz.8451788.html,349€,600€,Vordere Sterngasse 10 90402 Nürnberg Lorenz,01.08.2021,14m² Zimmer in 17er WG,Wohnungsgröße: 441m²,17er WG ( 8 Frauen und 8 Männer ),Bewohneralter: 19 bis 25 Jahre,Rauchen auf dem Balkon erlaubt,"Studenten-WG, keine Zweck-WG, gemischte WG","Sprache/n: Deutsch, Englisch, Französisch, Spanisch, Portugiesisch",Frau zwischen 18 und 25 Jahren
https://www.wg-gesucht.de/wg-zimmer-in-Nurnberg-Sebald.8352276.html,370€,650€,Hauptmarkt 90403 Nürnberg Sebald,15.08.2021,15m² Zimmer in 2er WG,,2er WG ( 1 Frau ),,Rauchen nicht erwünscht,Studenten-WG,"Sprache/n: Deutsch, Englisch",Frau
https://www.wg-gesucht.de/wg-zimmer-in-Nurnberg-Gostenhof.5677469.html,380€,900€,Maximilianstraße 26 90429 Nürnberg Gostenhof,01.07.2021,17m² Zimmer in 4er WG,Wohnungsgröße: 130m²,4er WG ( 2 Frauen und 1 Mann ),Bewohneralter: 28 bis 36 Jahre,Rauchen auf dem Balkon erlaubt,"Berufstätigen-WG, keine Zweck-WG, gemischte WG","Sprache/n: Deutsch, Englisch",Mann zwischen 25 und 36 Jahren
https://www.wg-gesucht.de/wg-zimmer-in-Nurnberg-Maxfeld.8677764.html,350€,450€,Rollnerstr 40 90408 Nürnberg Maxfeld,14.06.2021,15m² Zimmer in 4er WG,Wohnungsgröße: 120m²,4er WG ( 3 Männer ),Bewohneralter: 22 bis 25 Jahre,Rauchen auf dem Balkon erlaubt,"Studenten-WG, Berufstätigen-WG, keine Zweck-WG, gemischte WG, Internationals welcome",,Geschlecht egal bis 33 Jahren
https://www.wg-gesucht.de/wg-zimmer-in-Nurnberg-St-Peter.8147050.html,335€,600€,Burgerstraße 90478 Nürnberg St Peter,01.07.2021,12m² Zimmer in 3er WG,Wohnungsgröße: 75m²,3er WG ( 2 Frauen ),Bewohneralter: 21 bis 23 Jahre,Rauchen nicht erwünscht,"Studenten-WG, Berufstätigen-WG, gemischte WG","Sprache/n: Deutsch, Englisch",Geschlecht egal zwischen 20 und 29 Jahren
https://www.wg-gesucht.de/wg-zimmer-in-Nurnberg-Lorenz.8351905.html,476€,949€,Vordere Ledergasse 90403 Nürnberg Lorenz,01.08.2021,29m² Zimmer in 4er WG,Wohnungsgröße: 204m²,4er WG ( 1 Frau und 2 Männer ),Bewohneralter: 25 bis 39 Jahre,Rauchen auf dem Balkon erlaubt,"Berufstätigen-WG, keine Zweck-WG, gemischte WG",Sprache/n: Deutsch,Geschlecht egal zwischen 23 und 40 Jahren
https://www.wg-gesucht.de/wg-zimmer-in-Nurnberg-Steinbuhl.5895791.html,360€,200€,Gugelstraße 90459 Nürnberg Steinbühl,15.07.2021,20m² Zimmer in 3er WG,,3er WG ( 2 Männer ),Bewohneralter: 22 bis 30 Jahre,Rauchen nicht erwünscht,"Zweck-WG, Berufstätigen-WG, gemischte WG","Sprache/n: Deutsch, Englisch",Geschlecht egal zwischen 22 und 30 Jahren
https://www.wg-gesucht.de/wg-zimmer-in-Nurnberg-Leyh.5895732.html,362€,200€,Stübacher Straße 90431 Nürnberg Leyh,01.08.2021,30m² Zimmer in 2er WG,,2er WG ( 1 Mann ),Bewohneralter: 22 bis 35 Jahre,Rauchen nicht erwünscht,"Zweck-WG, Berufstätigen-WG, gemischte WG",Sprache/n: Deutsch,Geschlecht egal zwischen 22 und 35 Jahren
https://www.wg-gesucht.de/wg-zimmer-in-Nurnberg-Gostenhof.6544683.html,385€,745€,Schreyerstr. 14 90443 Nürnberg Gostenhof,01.07.2021,15m² Zimmer in 3er WG,Wohnungsgröße: 114m²,3er WG ( 1 Frau und 1 Mann ),Bewohneralter: 21 bis 28 Jahre,Rauchen auf dem Balkon erlaubt,"Studenten-WG, Berufstätigen-WG, keine Zweck-WG",Sprache/n: Deutsch,Geschlecht egal zwischen 21 und 32 Jahren
https://www.wg-gesucht.de/wg-zimmer-in-Nurnberg-Tullnau.8391926.html,450€,800€,Marthastr. 28 90482 Nürnberg Tullnau,01.08.2021,25m² Zimmer in 2er WG,Wohnungsgröße: 60m²,2er WG ( 1 Frau ),,Rauchen nicht erwünscht,"Zweck-WG, Studenten-WG, Berufstätigen-WG, keine Zweck-WG, gemischte WG, Internationals welcome","Sprache/n: Deutsch, Englisch",Geschlecht egal
https://www.wg-gesucht.de/wg-zimmer-in-Nurnberg-St-Peter.8673113.html,430€,500€,Dürrenhofstr. 90478 Nürnberg St. Peter,01.07.2021,20m² Zimmer in 2er WG,Wohnungsgröße: 60m²,2er WG ( 1 Mann ),Bewohneralter: 30 bis 30 Jahre,Rauchen auf dem Balkon erlaubt,"Berufstätigen-WG, keine Zweck-WG, gemischte WG, Internationals welcome","Sprache/n: Deutsch, Englisch",Geschlecht egal zwischen 21 und 35 Jahren
https://www.wg-gesucht.de/wg-zimmer-in-Nurnberg-Gostenhof.8698546.html,460€,500€,Voltastrasse 46 90459 Nürnberg Gostenhof,01.08.2021,20m² Zimmer in 3er WG,,3er WG ( 2 Männer ),Bewohneralter: 20 bis 33 Jahre,gemischte WG,"Sprache/n: Deutsch, Englisch, Spanisch, Französisch, Türkisch",Geschlecht egal, 
https://www.wg-gesucht.de/wg-zimmer-in-Nurnberg-Kleinweidenmuhle.6545514.html,339€,768€,Rosenaustraße. 10 90429 Nürnberg Kleinweidenmühle,13.06.2021,16m² Zimmer in 2er WG,Wohnungsgröße: 50m²,2er WG ( 1 Frau ),Bewohneralter: 25 bis 25 Jahre,Rauchen nicht erwünscht,"Zweck-WG, Studenten-WG, Frauen-WG, Berufstätigen-WG","Sprache/n: Deutsch, Englisch, Russisch",Frau zwischen 18 und 48 Jahren
https://www.wg-gesucht.de/wg-zimmer-in-Nurnberg-Rennweg.6867378.html,316€,360€,Fenitzerstr. 90489 Nürnberg Rennweg,01.08.2021,18m² Zimmer in 3er WG,Wohnungsgröße: 90m²,3er WG ( 1 Frau und 1 Mann ),Bewohneralter: 32 bis 38 Jahre,Rauchen nicht erwünscht,gemischte WG,"Sprache/n: Deutsch, Englisch",Geschlecht egal zwischen 25 und 38 Jahren
https://www.wg-gesucht.de/wg-zimmer-in-Nurnberg-Erlenstegen.8726474.html,450€,500€,Erlenstegenstraße 2 90491 Nürnberg Erlenstegen,01.08.2021,20m² Zimmer in 7er WG,Wohnungsgröße: 220m²,7er WG ( 2 Frauen und 2 Männer ),Bewohneralter: 21 bis 34 Jahre,"Studenten-WG, Berufstätigen-WG, Azubi-WG, keine Zweck-WG, gemischte WG, LGBTQIA+, Internationals welcome","Sprache/n: Deutsch, Englisch",Geschlecht egal, 
https://www.wg-gesucht.de/wg-zimmer-in-Nurnberg-St-Johannis.8676704.html,265€,500€,"Äußere Großweidenmühlstraße, 20 90419 Nürnberg St Johannis",01.08.2021,8m² Zimmer in 9er WG,,9er WG ( 2 Frauen und 6 Männer ),Bewohneralter: 20 bis 29 Jahre,Rauchen auf dem Balkon erlaubt,"Studenten-WG, Berufstätigen-WG, keine Zweck-WG, gemischte WG","Sprache/n: Deutsch, Englisch, Spanisch, Französisch",Geschlecht egal zwischen 20 und 38 Jahren
https://www.wg-gesucht.de/wg-zimmer-in-Nurnberg-Reichelsdorf.8605980.html,395€, ,Beim Wahlbaum 37 90453 Nürnberg Reichelsdorf,13.06.2021,17m² Zimmer in 2er WG,,2er WG ( 1 Frau ),Bewohneralter: 27 bis 27 Jahre,Rauchen nicht erwünscht,"Studenten-WG, Berufstätigen-WG","Sprache/n: Deutsch, Englisch",Frau zwischen 22 und 32 Jahren
https://www.wg-gesucht.de/wg-zimmer-in-Nurnberg-St-Johannis.8725774.html,400€,720€,Franzstr. 36 90419 Nürnberg St Johannis,01.07.2021,17m² Zimmer in 2er WG,Wohnungsgröße: 68m²,2er WG ( 1 Mann ),Bewohneralter: 25 bis 30 Jahre,Rauchen im Zimmer erlaubt,"Studenten-WG, keine Zweck-WG","Sprache/n: Deutsch, Englisch",Geschlecht egal zwischen 20 und 30 Jahren
https://www.wg-gesucht.de/wg-zimmer-in-Nurnberg-Galgenhof.8645587.html,390€,390€,Ammanstraße - Galgenhof 90459 Nürnberg Galgenhof,01.07.2021,15m² Zimmer in 4er WG,,4er WG ( 2 Frauen ),Bewohneralter: 18 bis 30 Jahre,Rauchen nicht erwünscht,"Studenten-WG, Internationals welcome","Sprache/n: Deutsch, Englisch",Frau zwischen 18 und 30 Jahren
https://www.wg-gesucht.de/wg-zimmer-in-Nurnberg-Maxfeld.8240007.html,395€,1000€,Pirckheimerstr. 78a 90409 Nürnberg Maxfeld,01.08.2021,18m² Zimmer in 3er WG,Wohnungsgröße: 67m²,3er WG ( 1 Mann ),Bewohneralter: 24 bis 24 Jahre,Rauchen nicht erwünscht,"Studenten-WG, Berufstätigen-WG, gemischte WG",,Geschlecht egal bis 29 Jahren
https://www.wg-gesucht.de/wg-zimmer-in-Nurnberg-Woehrd.8232617.html,350€,1000€,Felseckerstr. 35 90489 Nürnberg Wöhrd,14.06.2021,21m² Zimmer in 3er WG,Wohnungsgröße: 62m²,3er WG ( 1 Mann ),Bewohneralter: 24 bis 24 Jahre,Rauchen nicht erwünscht,"Studenten-WG, Berufstätigen-WG, keine Zweck-WG, gemischte WG",,Geschlecht egal bis 30 Jahren
https://www.wg-gesucht.de/wg-zimmer-in-Nurnberg-Maxfeld.7486428.html,359€,1000€,Labenwolfstraße 18 90409 Nürnberg Maxfeld,14.06.2021,14m² Zimmer in 4er WG,Wohnungsgröße: 93m²,4er WG ( 1 Mann ),Bewohneralter: ab 21 Jahre,Rauchen nicht erwünscht,"Studenten-WG, Berufstätigen-WG, gemischte WG",,Geschlecht egal bis 30 Jahren
https://www.wg-gesucht.de/wg-zimmer-in-Nurnberg-Gostenhof.5591449.html,425€, ,Fürther Straße 99 90429 Nürnberg Gostenhof,01.07.2021,17m² Zimmer in 3er WG,Wohnungsgröße: 80m²,3er WG ( 1 Frau ),Bewohneralter: 23 bis 23 Jahre,"Studenten-WG, Berufstätigen-WG, keine Zweck-WG, gemischte WG, LGBTQIA+, Internationals welcome","Sprache/n: Deutsch, Englisch, Französisch, Italienisch",Geschlecht egal, 
https://www.wg-gesucht.de/wg-zimmer-in-Nurnberg-Schoppershof.8726475.html,299€, ,Äußere Bayreuther Straße 53A 90409 Nürnberg Schoppershof,01.08.2021,12m² Zimmer in 6er WG,,6er WG ( 4 Männer ),Bewohneralter: 19 bis 27 Jahre,"Studenten-WG, Berufstätigen-WG, keine Zweck-WG, gemischte WG","Sprache/n: Deutsch, Englisch",Geschlecht egal zwischen 18 und 30 Jahren, 
https://www.wg-gesucht.de/wg-zimmer-in-Nurnberg-Steinbuhl.8682650.html,275€,600€,Gibitzenhofstraße 90443 Nürnberg Steinbühl,13.06.2021,12m² Zimmer in 3er WG,Wohnungsgröße: 75m²,3er WG ( 2 Männer ),Bewohneralter: 23 bis 24 Jahre,"Studenten-WG, Berufstätigen-WG, keine Zweck-WG","Sprache/n: Deutsch, Englisch",Geschlecht egal zwischen 20 und 27 Jahren, 
https://www.wg-gesucht.de/wg-zimmer-in-Nurnberg-Erlenstegen.8726282.html,450€,500€,Erlenstegenstraße 2 90491 Nürnberg Erlenstegen,01.08.2021,22m² Zimmer in 7er WG,Wohnungsgröße: 220m²,7er WG ( 2 Frauen und 2 Männer ),Bewohneralter: 21 bis 34 Jahre,"Studenten-WG, Berufstätigen-WG, Azubi-WG, keine Zweck-WG, gemischte WG, LGBTQIA+, Internationals welcome","Sprache/n: Deutsch, Englisch",Geschlecht egal, 
https://www.wg-gesucht.de/wg-zimmer-in-Nurnberg-Unterasbach.7280885.html,350€,500€,nahe S-Bahn Unterasbach 90522 Nürnberg Unterasbach,01.08.2021,25m² Zimmer in 2er WG,Wohnungsgröße: 180m²,2er WG ( 1 Frau ),,Rauchen nicht erwünscht,"Frauen-WG, Business-WG, Berufstätigen-WG, gemischte WG","Sprache/n: Deutsch, Englisch",Geschlecht egal zwischen 20 und 55 Jahren
https://www.wg-gesucht.de/wg-zimmer-in-Nurnberg-St-Johannis.8664900.html,690€,1200€,Kirchenweg 90419 Nürnberg St Johannis,01.07.2021,20m² Zimmer in 3er WG,Wohnungsgröße: 270m²,3er WG ( 1 Frau und 1 Mann ),Bewohneralter: 33 bis 33 Jahre,Rauchen auf dem Balkon erlaubt,"Berufstätigen-WG, keine Zweck-WG, Vegetarisch/Vegan, LGBTQIA+","Sprache/n: Deutsch, Englisch",Geschlecht egal zwischen 25 und 38 Jahren
https://www.wg-gesucht.de/wg-zimmer-in-Nurnberg-Leyh.7855615.html,490€,760€,Sigmundstr. 95 90431 Nürnberg Leyh,01.07.2021,23m² Zimmer in 3er WG,Wohnungsgröße: 73m²,3er WG ( 2 Männer ),,Rauchen nicht erwünscht,"Studenten-WG, Berufstätigen-WG, gemischte WG",Sprache/n: Deutsch,Geschlecht egal zwischen 18 und 35 Jahren
https://www.wg-gesucht.de/wg-zimmer-in-Nurnberg-Leyh.7855753.html,380€,560€,Sigmundstr. 95 90431 Nürnberg Leyh,01.07.2021,14m² Zimmer in 3er WG,Wohnungsgröße: 73m²,3er WG ( 1 Frau und 1 Mann ),,Rauchen nicht erwünscht,"Studenten-WG, Berufstätigen-WG",Sprache/n: Deutsch,Geschlecht egal zwischen 18 und 30 Jahren
https://www.wg-gesucht.de/wg-zimmer-in-Nurnberg-Galgenhof.6539398.html,360€,660€,Bulmannstr 37 90459 Nürnberg Galgenhof,01.08.2021,18m² Zimmer in 4er WG,Wohnungsgröße: 125m²,4er WG ( 2 Frauen und 1 Mann ),Bewohneralter: 26 bis 31 Jahre,Rauchen auf dem Balkon erlaubt,"Studenten-WG, Berufstätigen-WG, keine Zweck-WG, gemischte WG","Sprache/n: Deutsch, Englisch",Geschlecht egal zwischen 25 und 35 Jahren
https://www.wg-gesucht.de/wg-zimmer-in-Nurnberg-Steinbuhl.3046507.html,337€,200€,Landgrabenstrasse 90443 Nürnberg Steinbühl,01.10.2021,13m² Zimmer in 3er WG,,3er WG ( 2 Männer ),Bewohneralter: bis 33 Jahre,Rauchen nicht erwünscht,"Zweck-WG, Berufstätigen-WG, gemischte WG",Sprache/n: Deutsch,Geschlecht egal bis 33 Jahren
https://www.wg-gesucht.de/wg-zimmer-in-Nurnberg-Naehe-HBF-U-Bahn-3min-zu-Fuss.7792220.html,365€,200€,Kopernikussstraße Südstadt 90459 Nürnberg Nähe HBF U-Bahn 3min zu Fuss,01.01.2022,13m² Zimmer in 2er WG,Wohnungsgröße: 44m²,2er WG ( 1 Mann ),Bewohneralter: 20 bis 33 Jahre,Rauchen nicht erwünscht,"Zweck-WG, Berufstätigen-WG, gemischte WG","Sprache/n: Deutsch, Englisch",Geschlecht egal zwischen 20 und 33 Jahren
https://www.wg-gesucht.de/wg-zimmer-in-Nurnberg-Nurnberg.8726305.html,340€,500€,Sudetendeutschestraße 90480 Nürnberg Nürnberg,15.08.2021,13m² Zimmer in 3er WG,Wohnungsgröße: 100m²,3er WG ( 1 Frau und 1 Mann ),Bewohneralter: 24 bis 25 Jahre,Rauchen nicht erwünscht,"Studenten-WG, Berufstätigen-WG, keine Zweck-WG, gemischte WG",Sprache/n: Deutsch,Geschlecht egal
