URL,rent,deposit,address,date,line 1,line 2,line 3,line 4,line 5,line 6,line 7,line 8
https://www.wg-gesucht.de/wg-zimmer-in-Nurnberg-Gostenhof.5677469.html,380€,900€,Maximilianstraße 26 90429 Nürnberg Gostenhof,01.07.2021,17m² Zimmer in 4er WG,Wohnungsgröße: 130m²,4er WG ( 2 Frauen und 1 Mann ),Bewohneralter: 28 bis 36 Jahre,Rauchen auf dem Balkon erlaubt,"Berufstätigen-WG, keine Zweck-WG, gemischte WG","Sprache/n: Deutsch, Englisch",Mann zwischen 25 und 36 Jahren
https://www.wg-gesucht.de/wg-zimmer-in-Nurnberg-Mitte.8064425.html,400€,800€,Am Plärrer 12 90429 Nürnberg Mitte,01.09.2021,21m² Zimmer in 3er WG,Wohnungsgröße: 89m²,3er WG ( 2 Männer ),Bewohneralter: 25 bis 28 Jahre,Rauchen nicht erwünscht,Studenten-WG,"Sprache/n: Deutsch, Englisch",Geschlecht egal zwischen 20 und 30 Jahren
https://www.wg-gesucht.de/wg-zimmer-in-Nurnberg-Naehe-Bahnhof-Opernhaus.5614098.html,330€,780€,Alexanderstr. 6 90459 Nürnberg Nähe Bahnhof/ Opernhaus,01.07.2021,10m² Zimmer in 5er WG,Wohnungsgröße: 110m²,5er WG ( 1 Frau und 3 Männer ),Bewohneralter: 22 bis 30 Jahre,Rauchen auf dem Balkon erlaubt,"Berufstätigen-WG, gemischte WG","Sprache/n: Deutsch, Englisch, Französisch",Geschlecht egal zwischen 20 und 35 Jahren
https://www.wg-gesucht.de/wg-zimmer-in-Nurnberg-St-Johannis.8723622.html,350€,742€,Bucher Straße 90419 Nürnberg St Johannis,01.09.2021,17m² Zimmer in 4er WG,Wohnungsgröße: 109m²,4er WG ( 3 Frauen ),Bewohneralter: 22 bis 24 Jahre,Rauchen nicht erwünscht,"Studenten-WG, Frauen-WG, keine Zweck-WG","Sprache/n: Deutsch, Englisch",Frau zwischen 20 und 28 Jahren
https://www.wg-gesucht.de/wg-zimmer-in-Nurnberg-St-Johannis.8458459.html,440€,1035€,Bucher Str. 20a 90408 Nürnberg St Johannis,01.09.2021,22m² Zimmer in 3er WG,Wohnungsgröße: 120m²,3er WG ( 2 Männer ),Bewohneralter: 28 bis 29 Jahre,Rauchen nicht erwünscht,"Berufstätigen-WG, keine Zweck-WG, gemischte WG","Sprache/n: Deutsch, Englisch",Geschlecht egal zwischen 25 und 35 Jahren
https://www.wg-gesucht.de/wg-zimmer-in-Nurnberg-Glockenhof.8720692.html,247€,297€,Heideloffplatz 5 90478 Nürnberg Glockenhof,01.07.2021,11m² Zimmer in 8er WG,,8er WG ( 7 Frauen ),Bewohneralter: 20 bis 33 Jahre,Rauchen auf dem Balkon erlaubt,"Zweck-WG, Studenten-WG, Frauen-WG, Wohnheim, Internationals welcome","Sprache/n: Deutsch, Englisch, Türkisch, Russisch",Frau zwischen 18 und 35 Jahren
https://www.wg-gesucht.de/wg-zimmer-in-Nurnberg-Gostenhof.8587952.html,340€,340€,Fürther Straße 93 90429 Nürnberg Gostenhof,01.08.2021,20m² Zimmer in 2er WG,Wohnungsgröße: 60m²,2er WG,,keine Zweck-WG,,Geschlecht egal, 
https://www.wg-gesucht.de/wg-zimmer-in-Nurnberg-Glockenhof.8714636.html,363€,700€,Dürrenhofstraße 90478 Nürnberg Glockenhof,15.07.2021,18m² Zimmer in 4er WG,Wohnungsgröße: 80m²,4er WG ( 1 Frau und 2 Männer ),Bewohneralter: 25 bis 32 Jahre,Rauchen auf dem Balkon erlaubt,"Studenten-WG, keine Zweck-WG, gemischte WG","Sprache/n: Deutsch, Englisch, Spanisch",Geschlecht egal zwischen 23 und 35 Jahren
https://www.wg-gesucht.de/wg-zimmer-in-Nurnberg-Langwasser.6431126.html,400€,500€,"Leobschützer Straße, 51 90473 Nürnberg Langwasser",01.07.2021,14m² Zimmer in 3er WG,Wohnungsgröße: 120m²,3er WG ( 1 Frau und 1 Mann ),Bewohneralter: 23 bis 26 Jahre,Rauchen auf dem Balkon erlaubt,"Berufstätigen-WG, keine Zweck-WG, gemischte WG",Sprache/n: Deutsch,Geschlecht egal zwischen 23 und 33 Jahren
https://www.wg-gesucht.de/wg-zimmer-in-Nurnberg-Rennweg.8720535.html,350€,600€,Rennweg 68 90489 Nürnberg Rennweg,01.09.2021,11m² Zimmer in 3er WG,Wohnungsgröße: 110m²,3er WG ( 1 Mann ),Bewohneralter: 30 bis 30 Jahre,Rauchen nicht erwünscht,"Berufstätigen-WG, keine Zweck-WG, gemischte WG",Sprache/n: Deutsch,Geschlecht egal zwischen 18 und 35 Jahren
https://www.wg-gesucht.de/wg-zimmer-in-Nurnberg-Loher-Moos.1503442.html,420€,520€,Heimstättenstraße 23 90411 Nürnberg Loher Moos,01.09.2021,20m² Zimmer in 3er WG,,3er WG ( 2 Männer ),Bewohneralter: bis 99 Jahre,Rauchen überall erlaubt,"Studenten-WG, Berufstätigen-WG, gemischte WG, Mehrgenerationen, Internationals welcome",Sprache/n: Deutsch,Geschlecht egal bis 99 Jahren
https://www.wg-gesucht.de/wg-zimmer-in-Nurnberg-Rennweg.8709270.html,405€,700€,Rennweg 68 90489 Nürnberg Rennweg,01.08.2021,15m² Zimmer in 3er WG,Wohnungsgröße: 110m²,3er WG ( 1 Mann ),Bewohneralter: 30 bis 30 Jahre,Rauchen nicht erwünscht,"Berufstätigen-WG, keine Zweck-WG, gemischte WG",Sprache/n: Deutsch,Geschlecht egal zwischen 18 und 35 Jahren
https://www.wg-gesucht.de/wg-zimmer-in-Nurnberg-Hummelstein.8700819.html,330€,900€,Hummelsteiner Weg 41 90459 Nürnberg Hummelstein,15.06.2021,10m² Zimmer in 3er WG,Wohnungsgröße: 61m²,3er WG ( 2 Männer ),Bewohneralter: 20 bis 23 Jahre,Rauchen auf dem Balkon erlaubt,"Studenten-WG, Berufstätigen-WG, keine Zweck-WG, gemischte WG","Sprache/n: Deutsch, Englisch",Geschlecht egal zwischen 18 und 30 Jahren
https://www.wg-gesucht.de/wg-zimmer-in-Nurnberg-Lorenz.8351905.html,476€,949€,Vordere Ledergasse 90403 Nürnberg Lorenz,01.08.2021,29m² Zimmer in 4er WG,Wohnungsgröße: 204m²,4er WG ( 1 Frau und 2 Männer ),Bewohneralter: 25 bis 39 Jahre,Rauchen auf dem Balkon erlaubt,"Berufstätigen-WG, keine Zweck-WG, gemischte WG",Sprache/n: Deutsch,Geschlecht egal zwischen 23 und 40 Jahren
https://www.wg-gesucht.de/wg-zimmer-in-Nurnberg-Sundersbuhl.8716130.html,290€,580€,Rothenburgerstr. 90439 Nürnberg Sündersbühl,13.06.2021,13m² Zimmer in 3er WG,Wohnungsgröße: 65m²,3er WG ( 2 Männer ),Bewohneralter: 20 bis 30 Jahre,Rauchen nicht erwünscht,"Studenten-WG, Berufstätigen-WG, gemischte WG","Sprache/n: Deutsch, Englisch, Arabisch, Italienisch",Geschlecht egal zwischen 20 und 30 Jahren
https://www.wg-gesucht.de/wg-zimmer-in-Nurnberg-St-Leonhard.8646296.html,335€,500€,Hermannstraße 90439 Nürnberg St Leonhard,01.07.2021,12m² Zimmer in 3er WG,,3er WG ( 2 Frauen ),Bewohneralter: 25 bis 35 Jahre,Rauchen auf dem Balkon erlaubt,"Studenten-WG, Frauen-WG, Berufstätigen-WG, keine Zweck-WG, gemischte WG, Vegetarisch/Vegan, LGBTQIA+",Sprache/n: Deutsch,Frau zwischen 25 und 35 Jahren
https://www.wg-gesucht.de/wg-zimmer-in-Nurnberg-St-Leonhard.8714005.html,180€, ,Schwabacherstraße 90439 Nürnberg St Leonhard,15.07.2021,15m² Zimmer in 5er WG,Wohnungsgröße: 100m²,5er WG ( 1 Frau und 3 Männer ),Bewohneralter: 23 bis 29 Jahre,Rauchen auf dem Balkon erlaubt,"Studenten-WG, keine Zweck-WG, Vegetarisch/Vegan, LGBTQIA+, Internationals welcome","Sprache/n: Deutsch, Englisch, Spanisch",Geschlecht egal zwischen 18 und 35 Jahren
https://www.wg-gesucht.de/wg-zimmer-in-Nurnberg-Gostenhof.3659107.html,400€,500€,Glockendonstrasse 90429 Nürnberg Gostenhof,01.07.2021,21m² Zimmer in 2er WG,Wohnungsgröße: 94m²,2er WG ( 1 Frau ),,Rauchen nicht erwünscht,"Frauen-WG, Berufstätigen-WG",Sprache/n: Deutsch,Frau zwischen 28 und 55 Jahren
https://www.wg-gesucht.de/wg-zimmer-in-Nurnberg-Maxfeld.7447092.html,345€,400€,Berckhauserstraße 34 90409 Nürnberg Maxfeld,01.07.2021,16m² Zimmer in 4er WG,,4er WG ( 2 Frauen und 1 Mann ),Bewohneralter: 24 bis 28 Jahre,Rauchen auf dem Balkon erlaubt,"Studenten-WG, Berufstätigen-WG, keine Zweck-WG, gemischte WG","Sprache/n: Deutsch, Englisch",Mann zwischen 25 und 32 Jahren
https://www.wg-gesucht.de/wg-zimmer-in-Nurnberg-Gleisshammer.3770606.html,350€,450€,Schultheissallee 90478 Nürnberg Gleißhammer,13.06.2021,16m² Zimmer in 5er WG,Wohnungsgröße: 126m²,5er WG ( 4 Frauen ),Bewohneralter: 18 bis 32 Jahre,Rauchen nicht erwünscht,"Studenten-WG, Frauen-WG, Wohnheim, Berufstätigen-WG","Sprache/n: Deutsch, Arabisch, Französisch",Frau zwischen 18 und 35 Jahren
https://www.wg-gesucht.de/wg-zimmer-in-Nurnberg-Gleisshammer.7972703.html,400€,450€,Schultheissallee 90478 Nürnberg Gleißhammer,13.06.2021,23m² Zimmer in 5er WG,Wohnungsgröße: 126m²,5er WG ( 4 Frauen ),Bewohneralter: 18 bis 35 Jahre,Rauchen nicht erwünscht,"Studenten-WG, Frauen-WG, LGBTQIA+","Sprache/n: Deutsch, Englisch",Frau zwischen 18 und 35 Jahren
https://www.wg-gesucht.de/wg-zimmer-in-Nurnberg-Schoppershof.7524945.html,350€,0€,Bismarkstraße 12 90491 Nürnberg Schoppershof,01.07.2021,25m² Zimmer in 2er WG,Wohnungsgröße: 110m²,2er WG ( 1 Mann ),Bewohneralter: 25 bis 45 Jahre,Rauchen nicht erwünscht,"Studenten-WG, Berufstätigen-WG, gemischte WG, Internationals welcome","Sprache/n: Deutsch, Englisch",Frau zwischen 25 und 49 Jahren
https://www.wg-gesucht.de/wg-zimmer-in-Nurnberg-Maxfeld.8677764.html,350€,450€,Rollnerstr 40 90408 Nürnberg Maxfeld,13.06.2021,15m² Zimmer in 4er WG,Wohnungsgröße: 120m²,4er WG ( 3 Männer ),Bewohneralter: 22 bis 25 Jahre,Rauchen auf dem Balkon erlaubt,"Studenten-WG, Berufstätigen-WG, keine Zweck-WG, gemischte WG, Internationals welcome",,Geschlecht egal bis 33 Jahren
https://www.wg-gesucht.de/wg-zimmer-in-Nurnberg-Nurnberg.8666656.html,425€,850€,Fichtestraße 55 90489 Nürnberg Nürnberg,12.06.2021,20m² Zimmer in 3er WG,,3er WG ( 2 Männer ),Bewohneralter: 22 bis 23 Jahre,Rauchen nicht erwünscht,"Studenten-WG, Berufstätigen-WG, gemischte WG","Sprache/n: Deutsch, Englisch",Geschlecht egal zwischen 18 und 30 Jahren
https://www.wg-gesucht.de/wg-zimmer-in-Nurnberg-Neuselsbrunn.7968620.html,350€,1000€,Neuselsbrunn 53 90471 Nürnberg Neuselsbrunn,01.09.2021,15m² Zimmer in 3er WG,Wohnungsgröße: 68m²,3er WG ( 1 Frau und 1 Mann ),,Rauchen nicht erwünscht,"Studenten-WG, Berufstätigen-WG",Sprache/n: Deutsch,Geschlecht egal
https://www.wg-gesucht.de/wg-zimmer-in-Nurnberg-St-Johannis.3804962.html,450€,900€,Rieterstraße 90419 Nürnberg St Johannis,01.07.2021,25m² Zimmer in 5er WG,Wohnungsgröße: 180m²,5er WG ( 2 Frauen und 2 Männer ),Bewohneralter: 29 bis 64 Jahre,Rauchen auf dem Balkon erlaubt,"Berufstätigen-WG, keine Zweck-WG, gemischte WG","Sprache/n: Deutsch, Englisch",Frau zwischen 30 und 64 Jahren
https://www.wg-gesucht.de/wg-zimmer-in-Nurnberg-Nordostbahnhof.5436756.html,388€,625€,Merianstraße 38 90409 Nürnberg Nordostbahnhof,01.09.2021,14m² Zimmer in 4er WG,Wohnungsgröße: 135m²,4er WG ( 2 Frauen und 1 Mann ),Bewohneralter: 19 bis 40 Jahre,Rauchen auf dem Balkon erlaubt,"Studenten-WG, keine Zweck-WG, gemischte WG","Sprache/n: Deutsch, Englisch, Spanisch, Französisch, Ungarisch",Frau zwischen 18 und 40 Jahren
https://www.wg-gesucht.de/wg-zimmer-in-Nurnberg-Nordostbahnhof.8184787.html,435€,900€,Äußere Bayreuther Straße 119 90409 Nürnberg Nordostbahnhof,01.07.2021,20m² Zimmer in 3er WG,Wohnungsgröße: 114m²,3er WG ( 2 Männer ),Bewohneralter: 28 bis 32 Jahre,keine Zweck-WG,"Sprache/n: Deutsch, Englisch, Spanisch",Geschlecht egal zwischen 25 und 35 Jahren, 
https://www.wg-gesucht.de/wg-zimmer-in-Nurnberg-Woehrd.8043941.html,400€,750€,Schranke 10 90489 Nürnberg Wöhrd,13.06.2021,14m² Zimmer in 3er WG,,3er WG ( 2 Frauen ),Bewohneralter: 23 bis 28 Jahre,Rauchen nicht erwünscht,Berufstätigen-WG,,Geschlecht egal zwischen 22 und 35 Jahren
https://www.wg-gesucht.de/wg-zimmer-in-Nurnberg-Woehrd.8719033.html,488€, ,Bartholomäusstraße 64 90489 Nürnberg Wöhrd,01.09.2021,13m² Zimmer in 2er WG,,2er WG ( 1 Mann ),Bewohneralter: 22 bis 27 Jahre,Studenten-WG,,Geschlecht egal, 
https://www.wg-gesucht.de/wg-zimmer-in-Nurnberg-Tafelhof.4448190.html,295€,750€,Humboldtstr 156 90459 Nürnberg Tafelhof,15.06.2021,12m² Zimmer in 4er WG,,4er WG ( 1 Frau und 2 Männer ),Bewohneralter: 20 bis 30 Jahre,"Studenten-WG, Berufstätigen-WG, gemischte WG","Sprache/n: Deutsch, Englisch",Geschlecht egal zwischen 20 und 30 Jahren, 
https://www.wg-gesucht.de/wg-zimmer-in-Nurnberg-Glockenhof.8610710.html,305€,750€,Keplerstr. 9 90478 Nürnberg Glockenhof,15.06.2021,15m² Zimmer in 3er WG,Wohnungsgröße: 83m²,3er WG ( 2 Männer ),Bewohneralter: 20 bis 30 Jahre,"Studenten-WG, Berufstätigen-WG, gemischte WG","Sprache/n: Deutsch, Englisch",Mann zwischen 20 und 30 Jahren, 
https://www.wg-gesucht.de/wg-zimmer-in-Nurnberg-Gaerten-b-Woehrd.8675548.html,450€,1000€,Adamstr. 90489 Nürnberg Gärten b.Wöhrd,12.06.2021,20m² Zimmer in 2er WG,,2er WG ( 1 Mann ),Bewohneralter: bis 29 Jahre,"Zweck-WG, Studenten-WG, Azubi-WG, keine Zweck-WG, LGBTQIA+, Internationals welcome","Sprache/n: Deutsch, Englisch, Spanisch",Geschlecht egal, 
https://www.wg-gesucht.de/wg-zimmer-in-Nurnberg-Woehrd.8714245.html,370€, ,Emilienstraße 90489 Nürnberg Wöhrd,01.07.2021,26m² Zimmer in 4er WG,,4er WG ( 1 Frau und 2 Männer ),,Rauchen nicht erwünscht,"Berufstätigen-WG, gemischte WG","Sprache/n: Deutsch, Englisch",Geschlecht egal zwischen 18 und 99 Jahren
https://www.wg-gesucht.de/wg-zimmer-in-Nurnberg-Erlenstegen.7489848.html,395€,790€,Bismarckstr. 90491 Nürnberg Erlenstegen,01.08.2021,20m² Zimmer in 2er WG,Wohnungsgröße: 53m²,2er WG ( 1 Frau ),,Rauchen nicht erwünscht,"Studenten-WG, Frauen-WG, Berufstätigen-WG, keine Zweck-WG, gemischte WG",Sprache/n: Deutsch,Frau
https://www.wg-gesucht.de/wg-zimmer-in-Nurnberg-Lorenz.8442073.html,329€,600€,Vordere Sterngasse 10 90402 Nürnberg Lorenz,01.08.2021,10m² Zimmer in 17er WG,Wohnungsgröße: 441m²,17er WG ( 8 Frauen und 8 Männer ),Bewohneralter: 18 bis 25 Jahre,Rauchen auf dem Balkon erlaubt,"Studenten-WG, keine Zweck-WG, gemischte WG","Sprache/n: Deutsch, Englisch, Spanisch, Französisch, Portugiesisch",Frau zwischen 18 und 25 Jahren
https://www.wg-gesucht.de/wg-zimmer-in-Nurnberg-Lorenz.8451788.html,349€,600€,Vordere Sterngasse 10 90402 Nürnberg Lorenz,01.08.2021,14m² Zimmer in 17er WG,Wohnungsgröße: 441m²,17er WG ( 8 Frauen und 8 Männer ),Bewohneralter: 19 bis 25 Jahre,Rauchen auf dem Balkon erlaubt,"Studenten-WG, keine Zweck-WG, gemischte WG","Sprache/n: Deutsch, Englisch, Französisch, Spanisch, Portugiesisch",Frau zwischen 18 und 25 Jahren
https://www.wg-gesucht.de/wg-zimmer-in-Nurnberg-Bleiweiss.6096018.html,315€,500€,Ottilienstraße 8 90461 Nürnberg Bleiweiß,12.06.2021,16m² Zimmer in 4er WG,Wohnungsgröße: 116m²,4er WG ( 1 Frau und 2 Männer ),Bewohneralter: 25 bis 44 Jahre,Rauchen nicht erwünscht,"Studenten-WG, Berufstätigen-WG, gemischte WG",,Geschlecht egal
https://www.wg-gesucht.de/wg-zimmer-in-Nurnberg-Maxfeld.7486428.html,359€,1000€,Labenwolfstraße 18 90409 Nürnberg Maxfeld,12.06.2021,20m² Zimmer in 4er WG,Wohnungsgröße: 93m²,4er WG,,Rauchen nicht erwünscht,"Studenten-WG, Berufstätigen-WG, gemischte WG",,Geschlecht egal bis 30 Jahren
https://www.wg-gesucht.de/wg-zimmer-in-Nurnberg-Woehrd.8232617.html,350€,1000€,Felseckerstr. 35 90489 Nürnberg Wöhrd,12.06.2021,21m² Zimmer in 3er WG,Wohnungsgröße: 62m²,3er WG ( 1 Mann ),Bewohneralter: 24 bis 24 Jahre,Rauchen nicht erwünscht,"Studenten-WG, Berufstätigen-WG, keine Zweck-WG, gemischte WG",,Geschlecht egal bis 30 Jahren
https://www.wg-gesucht.de/wg-zimmer-in-Nurnberg-Maxfeld.8240007.html,395€,1000€,Pirckheimerstr. 78a 90409 Nürnberg Maxfeld,01.08.2021,18m² Zimmer in 3er WG,Wohnungsgröße: 67m²,3er WG ( 1 Mann ),Bewohneralter: 24 bis 24 Jahre,Rauchen nicht erwünscht,"Studenten-WG, Berufstätigen-WG, gemischte WG",,Geschlecht egal bis 29 Jahren
https://www.wg-gesucht.de/wg-zimmer-in-Nurnberg-Rennweg.8088467.html,316€,425€,Ludwig-Feuerbach-Straße 90489 Nürnberg Rennweg,12.06.2021,18m² Zimmer in 4er WG,Wohnungsgröße: 100m²,4er WG ( 2 Frauen und 1 Mann ),Bewohneralter: 23 bis 26 Jahre,Rauchen nicht erwünscht,"Studenten-WG, Berufstätigen-WG, keine Zweck-WG, gemischte WG","Sprache/n: Deutsch, Spanisch",Geschlecht egal zwischen 21 und 30 Jahren
https://www.wg-gesucht.de/wg-zimmer-in-Nurnberg-Woehrd.8221619.html,386€, ,Sulzbacher Str. 90489 Nürnberg Wöhrd,01.08.2021,20m² Zimmer in 7er WG,Wohnungsgröße: 300m²,7er WG ( 3 Frauen und 3 Männer ),Bewohneralter: 25 bis 35 Jahre,"keine Zweck-WG, gemischte WG","Sprache/n: Deutsch, Englisch",Geschlecht egal zwischen 25 und 40 Jahren, 
https://www.wg-gesucht.de/wg-zimmer-in-Nurnberg-St-Johannis.6785392.html,290€,850€,Juvenellstr.18 90419 Nürnberg St Johannis,12.06.2021,15m² Zimmer in 2er WG,Wohnungsgröße: 60m²,2er WG ( 1 Mann ),Bewohneralter: ab 32 Jahre,gemischte WG,"Sprache/n: Deutsch, Englisch, Französisch",Mann zwischen 25 und 38 Jahren, 
https://www.wg-gesucht.de/wg-zimmer-in-Nurnberg-Lorenz.8724353.html,450€, ,Neue Gasse 5 90403 Nürnberg Lorenz,01.07.2021,14m² Zimmer in 2er WG,Wohnungsgröße: 63m²,2er WG ( 1 Frau ),Bewohneralter: 18 bis 30 Jahre,Rauchen auf dem Balkon erlaubt,"Business-WG, LGBTQIA+, Internationals welcome","Sprache/n: Englisch, Spanisch, Deutsch",Geschlecht egal zwischen 18 und 30 Jahren
https://www.wg-gesucht.de/wg-zimmer-in-Nurnberg-Nordstadt.8659194.html,440€,900€,Äußerer Laufer Platz 90403 Nürnberg Nordstadt,14.06.2021,20m² Zimmer in 3er WG,Wohnungsgröße: 80m²,3er WG ( 1 Frau ),,Rauchen auf dem Balkon erlaubt,"Studenten-WG, Berufstätigen-WG, keine Zweck-WG, gemischte WG","Sprache/n: Deutsch, Englisch",Geschlecht egal
https://www.wg-gesucht.de/wg-zimmer-in-Nurnberg-Woehrd.8694928.html,420€,760€,Georg-Strobel-Straße 10A 90489 Nürnberg Wöhrd,01.07.2021,20m² Zimmer in 9er WG,,9er WG ( 3 Frauen und 4 Männer ),Bewohneralter: 22 bis 26 Jahre,Rauchen auf dem Balkon erlaubt,"Studenten-WG, Berufstätigen-WG, keine Zweck-WG, gemischte WG","Sprache/n: Deutsch, Englisch",Geschlecht egal zwischen 20 und 26 Jahren
https://www.wg-gesucht.de/wg-zimmer-in-Nurnberg-Woehrd.8694850.html,340€,690€,Georg-Strobel-Straße 10a 90489 Nürnberg Wöhrd,01.08.2021,11m² Zimmer in 9er WG,,9er WG ( 3 Frauen und 4 Männer ),Bewohneralter: 22 bis 26 Jahre,Rauchen auf dem Balkon erlaubt,"Studenten-WG, Berufstätigen-WG, keine Zweck-WG, gemischte WG","Sprache/n: Deutsch, Englisch",Geschlecht egal zwischen 20 und 26 Jahren
https://www.wg-gesucht.de/wg-zimmer-in-Nurnberg-Gibitzenhof.4506000.html,480€,0€,Platenstrasse 14 90441 Nürnberg Gibitzenhof,12.06.2021,19m² Zimmer in 2er WG,Wohnungsgröße: 76m²,2er WG ( 1 Mann ),Bewohneralter: 37 bis 37 Jahre,Rauchen auf dem Balkon erlaubt,"Zweck-WG, Berufstätigen-WG, gemischte WG","Sprache/n: Deutsch, Englisch, Spanisch",Geschlecht egal zwischen 20 und 45 Jahren
https://www.wg-gesucht.de/wg-zimmer-in-Nurnberg-Gibitzenhof.3508874.html,370€,0€,Platenstrasse 14 90441 Nürnberg Gibitzenhof,12.06.2021,10m² Zimmer in 2er WG,Wohnungsgröße: 70m²,2er WG ( 1 Mann ),Bewohneralter: 37 bis 37 Jahre,Rauchen auf dem Balkon erlaubt,"Zweck-WG, Berufstätigen-WG, gemischte WG","Sprache/n: Deutsch, Englisch",Geschlecht egal zwischen 20 und 50 Jahren
https://www.wg-gesucht.de/wg-zimmer-in-Nurnberg-Erlenstegen.8724109.html,284€,500€,Erlenstegenstr. 2 90491 Nürnberg Erlenstegen,01.08.2021,9m² Zimmer in 7er WG,Wohnungsgröße: 220m²,7er WG ( 2 Frauen und 2 Männer ),Bewohneralter: 21 bis 34 Jahre,Rauchen auf dem Balkon erlaubt,"Studenten-WG, keine Zweck-WG, gemischte WG, LGBTQIA+, Internationals welcome","Sprache/n: Deutsch, Englisch",Geschlecht egal
https://www.wg-gesucht.de/wg-zimmer-in-Nurnberg-Gostenhof.8722140.html,350€,825€,Fürther Straße 76 90429 Nürnberg Gostenhof,01.08.2021,23m² Zimmer in 3er WG,,3er WG ( 1 Frau ),Bewohneralter: ab 26 Jahre,"Studenten-WG, Berufstätigen-WG, keine Zweck-WG","Sprache/n: Deutsch, Englisch",Geschlecht egal, 
https://www.wg-gesucht.de/wg-zimmer-in-Nurnberg-Gaerten-h-d-Veste.8699676.html,341€,690€,Pirckheimerstraße 135 90409 Nürnberg Gärten h d Veste,01.07.2021,12m² Zimmer in 6er WG,Wohnungsgröße: 128m²,6er WG ( 3 Frauen und 2 Männer ),Bewohneralter: 22 bis 26 Jahre,Rauchen nicht erwünscht,"Studenten-WG, Berufstätigen-WG, keine Zweck-WG, gemischte WG",Sprache/n: Deutsch,Mann zwischen 20 und 28 Jahren
https://www.wg-gesucht.de/wg-zimmer-in-Nurnberg-Rennweg.6867378.html,316€,360€,Fenitzerstr. 90489 Nürnberg Rennweg,01.08.2021,18m² Zimmer in 3er WG,Wohnungsgröße: 90m²,3er WG ( 1 Frau und 1 Mann ),Bewohneralter: 32 bis 38 Jahre,Rauchen nicht erwünscht,gemischte WG,"Sprache/n: Deutsch, Englisch",Geschlecht egal zwischen 25 und 38 Jahren
https://www.wg-gesucht.de/wg-zimmer-in-Nurnberg-Gaerten-h-d-Veste.8715418.html,357€,600€,Harrichstraße 15 90408 Nürnberg Gärten h.d.Veste,01.07.2021,21m² Zimmer in 2er WG,Wohnungsgröße: 82m²,2er WG ( 1 Mann ),Bewohneralter: bis 25 Jahre,Rauchen auf dem Balkon erlaubt,"Studenten-WG, Berufstätigen-WG, gemischte WG","Sprache/n: Deutsch, Englisch",Geschlecht egal
https://www.wg-gesucht.de/wg-zimmer-in-Nurnberg-Sebald.5420048.html,349€,837€,Innenstadt / Zentrum 1 90403 Nürnberg Sebald,01.07.2021,13m² Zimmer in 5er WG,Wohnungsgröße: 100m²,5er WG ( 2 Frauen und 2 Männer ),Bewohneralter: 23 bis 32 Jahre,Rauchen überall erlaubt,"Studenten-WG, Berufstätigen-WG, keine Zweck-WG, gemischte WG","Sprache/n: Deutsch, Englisch, Spanisch, Französisch, Italienisch",Geschlecht egal zwischen 18 und 39 Jahren
https://www.wg-gesucht.de/wg-zimmer-in-Nurnberg-St-Leonhard.4685135.html,355€,600€,Finkenstraße 18 90439 Nürnberg St Leonhard,15.06.2021,13m² Zimmer in 4er WG,Wohnungsgröße: 89m²,4er WG ( 2 Frauen und 1 Mann ),Bewohneralter: 23 bis 29 Jahre,"Studenten-WG, Berufstätigen-WG, gemischte WG","Sprache/n: Deutsch, Englisch, Spanisch",Geschlecht egal zwischen 18 und 35 Jahren, 
https://www.wg-gesucht.de/wg-zimmer-in-Nurnberg-Gostenhof.8723969.html,361€,875€,Eberhardshofstr. 1 90429 Nürnberg Gostenhof,01.09.2021,15m² Zimmer in 3er WG,Wohnungsgröße: 90m²,3er WG ( 2 Männer ),Bewohneralter: 25 bis 26 Jahre,Rauchen nicht erwünscht,"Studenten-WG, keine Zweck-WG","Sprache/n: Deutsch, Englisch",Geschlecht egal zwischen 18 und 35 Jahren
https://www.wg-gesucht.de/wg-zimmer-in-Nurnberg-Galgenhof.8645587.html,390€,390€,Ammanstraße - Galgenhof 90459 Nürnberg Galgenhof,01.07.2021,15m² Zimmer in 4er WG,,4er WG ( 2 Frauen ),Bewohneralter: 18 bis 30 Jahre,Rauchen nicht erwünscht,"Studenten-WG, Internationals welcome","Sprache/n: Deutsch, Englisch",Frau zwischen 18 und 30 Jahren
https://www.wg-gesucht.de/wg-zimmer-in-Nurnberg-Glockenhof.8090963.html,485€,1200€,Glockenhofstr. 44 90478 Nürnberg Glockenhof,01.09.2021,18m² Zimmer in 2er WG,Wohnungsgröße: 49m²,2er WG ( 1 Frau ),Bewohneralter: 23 bis 28 Jahre,Rauchen nicht erwünscht,"Studenten-WG, Berufstätigen-WG, keine Zweck-WG, gemischte WG","Sprache/n: Deutsch, Englisch",Geschlecht egal zwischen 22 und 32 Jahren
https://www.wg-gesucht.de/wg-zimmer-in-Nurnberg-Gostenhof.7874395.html,325€,500€,Roonstraße 90429 Nürnberg Gostenhof,15.07.2021,22m² Zimmer in 5er WG,Wohnungsgröße: 160m²,5er WG ( 3 Frauen und 1 Mann ),Bewohneralter: 22 bis 29 Jahre,Rauchen auf dem Balkon erlaubt,"keine Zweck-WG, gemischte WG, LGBTQIA+","Sprache/n: Deutsch, Englisch",Geschlecht egal zwischen 25 und 35 Jahren
