URL,rent,deposit,address,date,line 1,line 2,line 3,line 4,line 5,line 6,line 7,line 8
https://www.wg-gesucht.de/wg-zimmer-in-Nurnberg-Schoppershof.7524945.html,350€,0€,Bismarkstraße 12 90491 Nürnberg Schoppershof,01.07.2021,24m² Zimmer in 2er WG,Wohnungsgröße: 110m²,2er WG ( 1 Mann ),Bewohneralter: 25 bis 45 Jahre,Rauchen nicht erwünscht,"Studenten-WG, Berufstätigen-WG, gemischte WG, Internationals welcome","Sprache/n: Deutsch, Englisch",Frau zwischen 25 und 49 Jahren
https://www.wg-gesucht.de/wg-zimmer-in-Nurnberg-Galgenhof.7372591.html,280€,560€,Pillenreuterstraße 90459 Nürnberg Galgenhof,15.06.2021,12m² Zimmer in 3er WG,,3er WG ( 2 Männer ),Bewohneralter: 22 bis 23 Jahre,Rauchen auf dem Balkon erlaubt,keine Zweck-WG,,Geschlecht egal zwischen 22 und 32 Jahren
https://www.wg-gesucht.de/wg-zimmer-in-Nurnberg-Gostenhof.5677469.html,380€,900€,Maximilianstraße 26 90429 Nürnberg Gostenhof,01.07.2021,17m² Zimmer in 4er WG,Wohnungsgröße: 130m²,4er WG ( 2 Frauen und 1 Mann ),Bewohneralter: 28 bis 36 Jahre,Rauchen auf dem Balkon erlaubt,"Berufstätigen-WG, keine Zweck-WG, gemischte WG","Sprache/n: Deutsch, Englisch",Mann zwischen 25 und 36 Jahren
https://www.wg-gesucht.de/wg-zimmer-in-Nurnberg-St-Johannis.8676704.html,265€,500€,"Äußere Großweidenmühlstraße, 20 90419 Nürnberg St Johannis",01.08.2021,8m² Zimmer in 9er WG,,9er WG ( 2 Frauen und 6 Männer ),Bewohneralter: 20 bis 29 Jahre,Rauchen auf dem Balkon erlaubt,"Studenten-WG, Berufstätigen-WG, keine Zweck-WG, gemischte WG","Sprache/n: Deutsch, Englisch, Spanisch, Französisch",Geschlecht egal zwischen 20 und 38 Jahren
https://www.wg-gesucht.de/wg-zimmer-in-Nurnberg-Gleisshammer.7972703.html,400€,450€,Schultheissallee 90478 Nürnberg Gleißhammer,14.06.2021,23m² Zimmer in 5er WG,Wohnungsgröße: 126m²,5er WG ( 4 Frauen ),Bewohneralter: 18 bis 35 Jahre,Rauchen nicht erwünscht,"Studenten-WG, Frauen-WG, LGBTQIA+","Sprache/n: Deutsch, Englisch",Frau zwischen 18 und 35 Jahren
https://www.wg-gesucht.de/wg-zimmer-in-Nurnberg-Gleisshammer.3770606.html,350€,450€,Schultheissallee 90478 Nürnberg Gleißhammer,14.06.2021,16m² Zimmer in 5er WG,Wohnungsgröße: 126m²,5er WG ( 4 Frauen ),Bewohneralter: 18 bis 32 Jahre,Rauchen nicht erwünscht,"Studenten-WG, Frauen-WG, Wohnheim, Berufstätigen-WG","Sprache/n: Deutsch, Arabisch, Französisch",Frau zwischen 18 und 35 Jahren
https://www.wg-gesucht.de/wg-zimmer-in-Nurnberg-Schweinau.7990717.html,370€,740€,Turnerheimstr. 8 90441 Nürnberg Schweinau,01.07.2021,19m² Zimmer in 3er WG,Wohnungsgröße: 60m²,3er WG ( 2 Frauen ),Bewohneralter: 18 bis 27 Jahre,Rauchen nicht erwünscht,"Zweck-WG, Studenten-WG, gemischte WG","Sprache/n: Deutsch, Englisch, Französisch",Geschlecht egal
https://www.wg-gesucht.de/wg-zimmer-in-Nurnberg-Maxfeld.8728385.html,525€,1500€,Tuchergartenstraße 4 90409 Nürnberg Maxfeld,01.07.2021,20m² Zimmer in 5er WG,Wohnungsgröße: 150m²,5er WG ( 1 Frau und 3 Männer ),Bewohneralter: 21 bis 25 Jahre,Rauchen auf dem Balkon erlaubt,"Studenten-WG, Berufstätigen-WG, keine Zweck-WG, gemischte WG","Sprache/n: Deutsch, Englisch",Geschlecht egal zwischen 21 und 31 Jahren
https://www.wg-gesucht.de/wg-zimmer-in-Nurnberg-Sundersbuhl.8716130.html,290€,580€,Rothenburgerstr. 90439 Nürnberg Sündersbühl,14.06.2021,13m² Zimmer in 3er WG,Wohnungsgröße: 65m²,3er WG ( 2 Männer ),Bewohneralter: 20 bis 30 Jahre,Rauchen nicht erwünscht,"Studenten-WG, Berufstätigen-WG, gemischte WG","Sprache/n: Deutsch, Englisch, Arabisch, Italienisch",Geschlecht egal zwischen 20 und 30 Jahren
https://www.wg-gesucht.de/wg-zimmer-in-Nurnberg-Glockenhof.8564610.html,450€,300€,Hartmannstr. 90478 Nürnberg Glockenhof,01.10.2021,14m² Zimmer in 2er WG,Wohnungsgröße: 60m²,2er WG ( 1 Frau ),Bewohneralter: 24 bis 26 Jahre,Rauchen nicht erwünscht,"Zweck-WG, Studenten-WG, Frauen-WG, Berufstätigen-WG, keine Zweck-WG, gemischte WG","Sprache/n: Deutsch, Englisch",Geschlecht egal
https://www.wg-gesucht.de/wg-zimmer-in-Nurnberg-Gostenhof.3659107.html,400€,500€,Glockendonstrasse 90429 Nürnberg Gostenhof,01.07.2021,21m² Zimmer in 2er WG,Wohnungsgröße: 94m²,2er WG ( 1 Frau ),,Rauchen nicht erwünscht,"Frauen-WG, Berufstätigen-WG",Sprache/n: Deutsch,Frau zwischen 28 und 55 Jahren
https://www.wg-gesucht.de/wg-zimmer-in-Nurnberg-St-Jobst.8665924.html,420€, ,Äußere Bayreuther Straße 100 90491 Nürnberg St Jobst,01.07.2021,37m² Zimmer in 2er WG,Wohnungsgröße: 78m²,2er WG ( 1 Mann ),Bewohneralter: ab 24 Jahre,Rauchen nicht erwünscht,"Studenten-WG, Berufstätigen-WG, keine Zweck-WG","Sprache/n: Deutsch, Englisch",Mann zwischen 18 und 27 Jahren
https://www.wg-gesucht.de/wg-zimmer-in-Nurnberg-Glockenhof.8714636.html,363€,700€,Dürrenhofstraße 90478 Nürnberg Glockenhof,15.07.2021,18m² Zimmer in 4er WG,Wohnungsgröße: 80m²,4er WG ( 1 Frau und 2 Männer ),Bewohneralter: 25 bis 32 Jahre,Rauchen auf dem Balkon erlaubt,"Studenten-WG, keine Zweck-WG, gemischte WG","Sprache/n: Deutsch, Englisch, Spanisch",Geschlecht egal zwischen 23 und 35 Jahren
https://www.wg-gesucht.de/wg-zimmer-in-Nurnberg-Bleiweiss.8705755.html,419€,900€,Wodanstraße 50 90461 Nürnberg Bleiweiß,01.07.2021,22m² Zimmer in 3er WG,Wohnungsgröße: 110m²,3er WG ( 2 Männer ),,Rauchen auf dem Balkon erlaubt,"Zweck-WG, Berufstätigen-WG, gemischte WG","Sprache/n: Deutsch, Englisch",Geschlecht egal
https://www.wg-gesucht.de/wg-zimmer-in-Nurnberg-Glockenhof.8090963.html,485€,1200€,Glockenhofstr. 44 90478 Nürnberg Glockenhof,01.09.2021,18m² Zimmer in 2er WG,Wohnungsgröße: 49m²,2er WG ( 1 Frau ),Bewohneralter: 23 bis 28 Jahre,Rauchen nicht erwünscht,"Studenten-WG, Berufstätigen-WG, keine Zweck-WG, gemischte WG","Sprache/n: Deutsch, Englisch",Geschlecht egal zwischen 22 und 32 Jahren
https://www.wg-gesucht.de/wg-zimmer-in-Nurnberg-Galgenhof.8337513.html,380€,820€,Dallingerstraße 90459 Nürnberg Galgenhof,01.09.2021,16m² Zimmer in 3er WG,Wohnungsgröße: 74m²,3er WG ( 2 Frauen ),Bewohneralter: 21 bis 22 Jahre,Rauchen nicht erwünscht,"Studenten-WG, keine Zweck-WG","Sprache/n: Deutsch, Englisch",Geschlecht egal zwischen 19 und 27 Jahren
https://www.wg-gesucht.de/wg-zimmer-in-Nurnberg-St-Jobst.8728143.html,400€,900€,Äußere Sulzbacherstr. 90491 Nürnberg St Jobst,01.09.2021,24m² Zimmer in 3er WG,Wohnungsgröße: 80m²,3er WG ( 2 Frauen ),Bewohneralter: 21 bis 23 Jahre,Rauchen auf dem Balkon erlaubt,"Studenten-WG, keine Zweck-WG, gemischte WG, Internationals welcome","Sprache/n: Deutsch, Englisch",Geschlecht egal zwischen 18 und 40 Jahren
https://www.wg-gesucht.de/wg-zimmer-in-Nurnberg-Hummelstein.8669110.html,250€, ,Kleesstr. 41 90461 Nürnberg Hummelstein,14.06.2021,8m² Zimmer in 4er WG,Wohnungsgröße: 72m²,4er WG ( 1 Mann ),,Rauchen nicht erwünscht,"Studenten-WG, Berufstätigen-WG, keine Zweck-WG, gemischte WG, WG-Neugründung",,Geschlecht egal
https://www.wg-gesucht.de/wg-zimmer-in-Nurnberg-Hummelstein.8578286.html,350€,500€,Kleestr. 41 90461 Nürnberg Hummelstein,14.06.2021,14m² Zimmer in 4er WG,Wohnungsgröße: 72m²,4er WG ( 1 Mann ),,Rauchen nicht erwünscht,"Studenten-WG, Frauen-WG, Berufstätigen-WG, keine Zweck-WG, gemischte WG, WG-Neugründung",,Geschlecht egal
https://www.wg-gesucht.de/wg-zimmer-in-Nurnberg-Hummelstein.8578145.html,350€,500€,Kleestr. 41 90461 Nürnberg Hummelstein,14.06.2021,14m² Zimmer in 4er WG,Wohnungsgröße: 72m²,4er WG ( 1 Mann ),,Rauchen nicht erwünscht,"Studenten-WG, Frauen-WG, Berufstätigen-WG, keine Zweck-WG, gemischte WG",,Geschlecht egal
https://www.wg-gesucht.de/wg-zimmer-in-Nurnberg-Gaerten-h-d-Veste.7259766.html,350€,500€,Pirckheimerstr. 54 90408 Nürnberg Gärten h.d.Veste,01.09.2021,14m² Zimmer in 4er WG,Wohnungsgröße: 97m²,4er WG ( 1 Frau und 1 Mann ),,Rauchen nicht erwünscht,"Zweck-WG, Studenten-WG, Berufstätigen-WG, keine Zweck-WG, gemischte WG",,Geschlecht egal
https://www.wg-gesucht.de/wg-zimmer-in-Nurnberg-Lorenz.8351905.html,476€,949€,Vordere Ledergasse 90403 Nürnberg Lorenz,01.08.2021,29m² Zimmer in 4er WG,Wohnungsgröße: 204m²,4er WG ( 1 Frau und 2 Männer ),Bewohneralter: 25 bis 39 Jahre,Rauchen auf dem Balkon erlaubt,"Berufstätigen-WG, keine Zweck-WG, gemischte WG",Sprache/n: Deutsch,Geschlecht egal zwischen 23 und 40 Jahren
https://www.wg-gesucht.de/wg-zimmer-in-Nurnberg-Nurnberg.8666656.html,425€,850€,Fichtestraße 55 90489 Nürnberg Nürnberg,14.06.2021,20m² Zimmer in 3er WG,,3er WG ( 2 Männer ),Bewohneralter: 22 bis 23 Jahre,Rauchen nicht erwünscht,"Studenten-WG, Berufstätigen-WG, gemischte WG","Sprache/n: Deutsch, Englisch",Geschlecht egal zwischen 18 und 30 Jahren
https://www.wg-gesucht.de/wg-zimmer-in-Nurnberg-moebliert-Naehe-Hbf-ruhige-Nebenst-.6621688.html,445€,445€,Ammanstr. 90459 Nürnberg möbliert/Nähe Hbf/ruhige Nebenst.,01.07.2021,25m² Zimmer in 4er WG,,4er WG ( 3 Frauen ),Bewohneralter: 18 bis 28 Jahre,Rauchen nicht erwünscht,"Studenten-WG, Berufstätigen-WG","Sprache/n: Deutsch, Englisch",Frau zwischen 18 und 28 Jahren
https://www.wg-gesucht.de/wg-zimmer-in-Nurnberg-Woehrd.8727800.html,378€,780€,Georg-Strobel-Straße 90489 Nürnberg Wöhrd,01.09.2021,16m² Zimmer in 2er WG,,2er WG ( 1 Frau ),Bewohneralter: ab 21 Jahre,Rauchen nicht erwünscht,"Studenten-WG, Berufstätigen-WG","Sprache/n: Deutsch, Englisch",Geschlecht egal zwischen 18 und 25 Jahren
https://www.wg-gesucht.de/wg-zimmer-in-Nurnberg-Woehrd.8043941.html,395€,750€,Schranke 10 90489 Nürnberg Wöhrd,14.06.2021,14m² Zimmer in 3er WG,,3er WG ( 2 Frauen ),Bewohneralter: 23 bis 28 Jahre,Rauchen nicht erwünscht,Berufstätigen-WG,,Geschlecht egal zwischen 22 und 35 Jahren
https://www.wg-gesucht.de/wg-zimmer-in-Nurnberg-Erlenstegen.8727928.html,430€, ,Beethovenstr 1 Nürnberg Erlenstegen,14.06.2021,14m² Zimmer in 8er WG,Wohnungsgröße: 240m²,8er WG ( 4 Männer ),Bewohneralter: 18 bis 23 Jahre,"Studenten-WG, Azubi-WG, keine Zweck-WG",,Geschlecht egal zwischen 18 und 30 Jahren, 
https://www.wg-gesucht.de/wg-zimmer-in-Nurnberg-Hummelstein.8727848.html,400€,1000€,Galvanistraße 12 90459 Nürnberg Hummelstein,01.08.2021,15m² Zimmer in 3er WG,,3er WG ( 1 Mann ),,"Studenten-WG, Berufstätigen-WG","Sprache/n: Deutsch, Englisch, Spanisch",Geschlecht egal, 
https://www.wg-gesucht.de/wg-zimmer-in-Nurnberg-Woehrd.8727694.html,445€,740€,Nunnenbeckstr. 90489 Nürnberg Wöhrd,14.06.2021,14m² Zimmer in 2er WG,Wohnungsgröße: 58m²,2er WG ( 1 Frau ),Bewohneralter: 25 bis 25 Jahre,"Studenten-WG, Berufstätigen-WG, keine Zweck-WG, gemischte WG","Sprache/n: Deutsch, Englisch",Geschlecht egal, 
https://www.wg-gesucht.de/wg-zimmer-in-Nurnberg-Woehrd.6434524.html,322€,440€,Siebmacherstraße 2 90489 Nürnberg Wöhrd,01.09.2021,17m² Zimmer in 3er WG,Wohnungsgröße: 80m²,3er WG ( 2 Männer ),Bewohneralter: 30 bis 36 Jahre,Rauchen auf dem Balkon erlaubt,"Studenten-WG, Berufstätigen-WG, keine Zweck-WG",Sprache/n: Deutsch,Geschlecht egal zwischen 28 und 38 Jahren
https://www.wg-gesucht.de/wg-zimmer-in-Nurnberg-St-Johannis.8723622.html,350€,742€,Bucher Straße 90419 Nürnberg St Johannis,01.09.2021,17m² Zimmer in 4er WG,Wohnungsgröße: 109m²,4er WG ( 3 Frauen ),Bewohneralter: 22 bis 24 Jahre,Rauchen nicht erwünscht,"Studenten-WG, Frauen-WG, keine Zweck-WG","Sprache/n: Deutsch, Englisch",Frau zwischen 20 und 28 Jahren
https://www.wg-gesucht.de/wg-zimmer-in-Nurnberg-Galgenhof.8661542.html,375€,650€,Peter-Henlein-Str. 86 90459 Nürnberg Galgenhof,14.06.2021,20m² Zimmer in 3er WG,,3er WG ( 1 Frau und 1 Mann ),Bewohneralter: 28 bis 31 Jahre,Rauchen auf dem Balkon erlaubt,keine Zweck-WG,"Sprache/n: Deutsch, Englisch, Spanisch",Geschlecht egal
https://www.wg-gesucht.de/wg-zimmer-in-Nurnberg-moebliert-Naehe-Hbf-ruhige-Nebenstr.6802143.html,390€,390€,Ammanstr. 90459 Nürnberg möbliert/Nähe Hbf/ruhige Nebenstr,01.08.2021,18m² Zimmer in 4er WG,,4er WG ( 2 Frauen ),Bewohneralter: 18 bis 25 Jahre,Rauchen nicht erwünscht,Studenten-WG,"Sprache/n: Deutsch, Englisch",Frau zwischen 18 und 25 Jahren
https://www.wg-gesucht.de/wg-zimmer-in-Nurnberg-Unterasbach-Faber-Castell-Playmobil.8598101.html,390€,500€,Nähe S-Bahn Unterasbach 90522 Nürnberg Unterasbach/Faber Castell/ Playmobil,15.07.2021,35m² Zimmer in 2er WG,Wohnungsgröße: 100m²,2er WG ( 1 Frau ),,Rauchen nicht erwünscht,"Frauen-WG, Business-WG, Berufstätigen-WG, gemischte WG, Vegetarisch/Vegan",Sprache/n: Deutsch,Geschlecht egal zwischen 20 und 55 Jahren
https://www.wg-gesucht.de/wg-zimmer-in-Nurnberg-Galgenhof.8715727.html,380€,380€,Hummelsteiner Weg 20 90459 Nürnberg Galgenhof,01.07.2021,17m² Zimmer in 3er WG,,3er WG ( 1 Frau ),,"Studenten-WG, keine Zweck-WG","Sprache/n: Deutsch, Englisch",Geschlecht egal, 
https://www.wg-gesucht.de/wg-zimmer-in-Nurnberg-Galgenhof.8484037.html,320€,335€,Karl-Bröger-Straße 22 90459 Nürnberg Galgenhof,01.07.2021,16m² Zimmer in 3er WG,,3er WG ( 1 Frau ),,"Studenten-WG, keine Zweck-WG","Sprache/n: Deutsch, Englisch",Geschlecht egal, 
https://www.wg-gesucht.de/wg-zimmer-in-Nurnberg-St-Johannis.8458459.html,440€,1035€,Bucher Str. 20a 90408 Nürnberg St Johannis,01.09.2021,22m² Zimmer in 3er WG,Wohnungsgröße: 120m²,3er WG ( 2 Männer ),Bewohneralter: 28 bis 29 Jahre,Rauchen nicht erwünscht,"Berufstätigen-WG, keine Zweck-WG, gemischte WG","Sprache/n: Deutsch, Englisch",Geschlecht egal zwischen 25 und 35 Jahren
https://www.wg-gesucht.de/wg-zimmer-in-Nurnberg-Galgenhof.8386100.html,280€,310€,Bulmannstraße 7 90459 Nürnberg Galgenhof,01.07.2021,17m² Zimmer in 3er WG,,3er WG ( 1 Frau ),,"Studenten-WG, keine Zweck-WG","Sprache/n: Deutsch, Englisch, Spanisch",Geschlecht egal, 
https://www.wg-gesucht.de/wg-zimmer-in-Nurnberg-Maxfeld.7486428.html,359€,1000€,Labenwolfstraße 18 90409 Nürnberg Maxfeld,14.06.2021,14m² Zimmer in 4er WG,Wohnungsgröße: 93m²,4er WG ( 1 Mann ),Bewohneralter: ab 21 Jahre,Rauchen nicht erwünscht,"Studenten-WG, Berufstätigen-WG, gemischte WG",,Geschlecht egal bis 30 Jahren
https://www.wg-gesucht.de/wg-zimmer-in-Nurnberg-Woehrd.8232617.html,350€,1000€,Felseckerstr. 35 90489 Nürnberg Wöhrd,14.06.2021,21m² Zimmer in 3er WG,Wohnungsgröße: 62m²,3er WG ( 1 Mann ),Bewohneralter: 24 bis 24 Jahre,Rauchen nicht erwünscht,"Studenten-WG, Berufstätigen-WG, keine Zweck-WG, gemischte WG",,Geschlecht egal bis 30 Jahren
https://www.wg-gesucht.de/wg-zimmer-in-Nurnberg-Maxfeld.8240007.html,395€,1000€,Pirckheimerstr. 78a 90409 Nürnberg Maxfeld,01.08.2021,18m² Zimmer in 3er WG,Wohnungsgröße: 67m²,3er WG ( 1 Mann ),Bewohneralter: 24 bis 24 Jahre,Rauchen nicht erwünscht,"Studenten-WG, Berufstätigen-WG, gemischte WG",,Geschlecht egal bis 29 Jahren
https://www.wg-gesucht.de/wg-zimmer-in-Nurnberg-Glockenhof.8225554.html,420€,500€,"3, Kapellenstrasse 90478 Nürnberg Glockenhof",25.08.2021,20m² Zimmer in 4er WG,Wohnungsgröße: 100m²,4er WG ( 1 Frau und 2 Männer ),Bewohneralter: 22 bis 33 Jahre,"gemischte WG, LGBTQIA+, Internationals welcome","Sprache/n: Deutsch, Englisch, Französisch",Geschlecht egal ab 23 Jahren, 
https://www.wg-gesucht.de/wg-zimmer-in-Nurnberg-St-Jobst.6544983.html,300€,0€,Hardenbergstr. 90491 Nürnberg St Jobst,01.07.2021,12m² Zimmer in 2er WG,Wohnungsgröße: 65m²,2er WG ( 1 Mann ),,Rauchen auf dem Balkon erlaubt,"Studenten-WG, Berufstätigen-WG, gemischte WG","Sprache/n: Deutsch, Englisch",Geschlecht egal
https://www.wg-gesucht.de/wg-zimmer-in-Nurnberg-Glockenhof.6910422.html,364€,0€,Holzgartenstraße 90461 Nürnberg Glockenhof,14.06.2021,19m² Zimmer in 2er WG,Wohnungsgröße: 60m²,2er WG ( 1 Frau ),,Rauchen auf dem Balkon erlaubt,"Studenten-WG, Frauen-WG, keine Zweck-WG","Sprache/n: Deutsch, Englisch",Frau zwischen 20 und 30 Jahren
https://www.wg-gesucht.de/wg-zimmer-in-Nurnberg-Woehrd.7299553.html,420€,600€,Georg-Strobel-Strasse 79 90489 Nürnberg Wöhrd,01.08.2021,18m² Zimmer in 4er WG,Wohnungsgröße: 106m²,4er WG ( 1 Frau und 1 Mann ),Bewohneralter: 21 bis 28 Jahre,Rauchen im Zimmer erlaubt,"Studenten-WG, Berufstätigen-WG, keine Zweck-WG, gemischte WG",Sprache/n: Deutsch,Geschlecht egal zwischen 21 und 28 Jahren
https://www.wg-gesucht.de/wg-zimmer-in-Nurnberg-St-Johannis.8002981.html,325€, ,Äußere Großweidenmühlstraße 28 90419 Nürnberg St Johannis,01.07.2021,16m² Zimmer in 4er WG,Wohnungsgröße: 100m²,4er WG ( 2 Frauen und 1 Mann ),Bewohneralter: 25 bis 28 Jahre,Rauchen nicht erwünscht,"Studenten-WG, keine Zweck-WG, gemischte WG","Sprache/n: Deutsch, Englisch, Spanisch, Französisch",Geschlecht egal zwischen 22 und 30 Jahren
https://www.wg-gesucht.de/wg-zimmer-in-Nurnberg-Maxfeld.7447092.html,345€,400€,Berckhauserstraße 34 90409 Nürnberg Maxfeld,01.07.2021,16m² Zimmer in 4er WG,,4er WG ( 2 Frauen und 1 Mann ),Bewohneralter: 24 bis 28 Jahre,Rauchen auf dem Balkon erlaubt,"Studenten-WG, Berufstätigen-WG, keine Zweck-WG, gemischte WG","Sprache/n: Deutsch, Englisch",Mann zwischen 25 und 32 Jahren
https://www.wg-gesucht.de/wg-zimmer-in-Nurnberg-Rennweg.8716029.html,499€, ,Berliner Platz 90489 Nürnberg Rennweg,25.06.2021,22m² Zimmer in 2er WG,Wohnungsgröße: 100m²,2er WG ( 1 Mann ),Bewohneralter: ab 23 Jahre,Rauchen auf dem Balkon erlaubt,Berufstätigen-WG,"Sprache/n: Deutsch, Englisch, Portugiesisch",Geschlecht egal zwischen 18 und 30 Jahren
https://www.wg-gesucht.de/wg-zimmer-in-Nurnberg-Gostenhof.8332741.html,450€,970€,Petzoltstraße 6 90443 Nürnberg Gostenhof,01.07.2021,26m² Zimmer in 5er WG,Wohnungsgröße: 164m²,5er WG ( 2 Frauen und 2 Männer ),Bewohneralter: 25 bis 32 Jahre,Rauchen auf dem Balkon erlaubt,"Berufstätigen-WG, keine Zweck-WG, Internationals welcome","Sprache/n: Deutsch, Englisch",Geschlecht egal zwischen 25 und 40 Jahren
https://www.wg-gesucht.de/wg-zimmer-in-Nurnberg-Nordstadt.8659194.html,440€,900€,Äußerer Laufer Platz 90403 Nürnberg Nordstadt,14.06.2021,20m² Zimmer in 3er WG,Wohnungsgröße: 80m²,3er WG ( 1 Frau ),,Rauchen auf dem Balkon erlaubt,"Studenten-WG, Berufstätigen-WG, keine Zweck-WG, gemischte WG","Sprache/n: Deutsch, Englisch",Geschlecht egal
https://www.wg-gesucht.de/wg-zimmer-in-Nurnberg-Woehrd.8094652.html,366€,632€,Sulzbacher Straße 90489 Nürnberg Wöhrd,01.08.2021,19m² Zimmer in 3er WG,Wohnungsgröße: 77m²,3er WG ( 2 Frauen ),Bewohneralter: 24 bis 28 Jahre,Rauchen auf dem Balkon erlaubt,"Studenten-WG, keine Zweck-WG, Vegetarisch/Vegan, LGBTQIA+",Sprache/n: Deutsch,Geschlecht egal zwischen 22 und 30 Jahren
https://www.wg-gesucht.de/wg-zimmer-in-Nurnberg-Gostenhof.3388668.html,475€,900€,Müllnerstr. 22 90429 Nürnberg Gostenhof,01.09.2021,28m² Zimmer in 2er WG,,2er WG ( 1 Frau ),Bewohneralter: 61 bis 61 Jahre,Rauchen auf dem Balkon erlaubt,Berufstätigen-WG,Sprache/n: Deutsch,Geschlecht egal
https://www.wg-gesucht.de/wg-zimmer-in-Nurnberg-Sofort-FREI-auch-jetzt-schon.5923236.html,235€,200€,Stübacher Straße 90431 Nürnberg Sofort FREI/auch jetzt schon,01.07.2021,10m² Zimmer in 4er WG,,4er WG ( 1 Frau und 2 Männer ),Bewohneralter: 22 bis 35 Jahre,Rauchen nicht erwünscht,"Zweck-WG, Berufstätigen-WG, gemischte WG",Sprache/n: Deutsch,Geschlecht egal zwischen 22 und 35 Jahren
https://www.wg-gesucht.de/wg-zimmer-in-Nurnberg-Glockenhof.5135370.html,350€,600€,Walter-Meckauer - Str.13 90478 Nürnberg Glockenhof,14.06.2021,18m² Zimmer in 2er WG,,2er WG ( 1 Frau ),,Rauchen nicht erwünscht,"Studenten-WG, Frauen-WG, Berufstätigen-WG, Internationals welcome","Sprache/n: Deutsch, Englisch, Spanisch, Französisch, Polnisch, Portugiesisch, Italienisch, Russisch, Schwedisch, Tschechisch",Frau
https://www.wg-gesucht.de/wg-zimmer-in-Nurnberg-Grossreuth-h-d-Veste.7093561.html,605€,800€,Schleifweg 57 90409 Nürnberg Großreuth h.d.Veste,01.08.2021,25m² Zimmer in 5er WG,Wohnungsgröße: 250m²,5er WG ( 4 Männer ),Bewohneralter: 23 bis 32 Jahre,Rauchen auf dem Balkon erlaubt,"Studenten-WG, Berufstätigen-WG, keine Zweck-WG, gemischte WG","Sprache/n: Deutsch, Englisch",Geschlecht egal
https://www.wg-gesucht.de/wg-zimmer-in-Nurnberg-Schoppershof.8499073.html,425€,1000€,Welserstraße 64 90489 Nürnberg Schoppershof,14.06.2021,12m² Zimmer in 7er WG,Wohnungsgröße: 151m²,7er WG,,Rauchen nicht erwünscht,"Studenten-WG, Berufstätigen-WG, gemischte WG","Sprache/n: Deutsch, Englisch",Geschlecht egal
https://www.wg-gesucht.de/wg-zimmer-in-Nurnberg-Werderau.8401487.html,460€,1000€,Spießstraße 29 90441 Nürnberg Werderau,14.06.2021,15m² Zimmer in 3er WG,Wohnungsgröße: 80m²,3er WG,,Rauchen nicht erwünscht,"Studenten-WG, Berufstätigen-WG, keine Zweck-WG, gemischte WG","Sprache/n: Deutsch, Englisch",Geschlecht egal
https://www.wg-gesucht.de/wg-zimmer-in-Nurnberg-Mitte.7306568.html,630€,1000€,Am Plärrer 90429 Nürnberg Mitte,01.08.2021,30m² Zimmer in 2er WG,Wohnungsgröße: 40m²,2er WG,,Rauchen nicht erwünscht,"Zweck-WG, Studenten-WG, Frauen-WG, Berufstätigen-WG, keine Zweck-WG, gemischte WG","Sprache/n: Deutsch, Englisch, Chinesisch",Geschlecht egal
https://www.wg-gesucht.de/wg-zimmer-in-Nurnberg-Werderau.8175462.html,460€,1000€,Spießstraße 29 90441 Nürnberg Werderau,14.06.2021,14m² Zimmer in 4er WG,Wohnungsgröße: 90m²,4er WG,,Rauchen nicht erwünscht,gemischte WG,"Sprache/n: Deutsch, Englisch",Geschlecht egal zwischen 18 und 40 Jahren
https://www.wg-gesucht.de/wg-zimmer-in-Nurnberg-Schoppershof.8717107.html,335€,665€,Welserstraße 32 90489 Nürnberg Schoppershof,15.06.2021,18m² Zimmer in 3er WG,Wohnungsgröße: 76m²,3er WG ( 2 Frauen ),Bewohneralter: 21 bis 22 Jahre,"Studenten-WG, Frauen-WG",,Frau zwischen 22 und 26 Jahren, 
https://www.wg-gesucht.de/wg-zimmer-in-Nurnberg-Lorenz.8658251.html,409€,600€,Vordere Sterngasse 8-10 90402 Nürnberg Lorenz,01.08.2021,18m² Zimmer in 10er WG,,10er WG ( 5 Frauen und 4 Männer ),Bewohneralter: 20 bis 25 Jahre,Rauchen auf dem Balkon erlaubt,"Studenten-WG, keine Zweck-WG","Sprache/n: Deutsch, Englisch",Mann zwischen 18 und 28 Jahren
https://www.wg-gesucht.de/wg-zimmer-in-Nurnberg-Veilhof.8547236.html,450€,500€,Bartholomäusstr. 58 90489 Nürnberg Veilhof,14.06.2021,14m² Zimmer in 2er WG,Wohnungsgröße: 72m²,2er WG ( 1 Mann ),Bewohneralter: ab 28 Jahre,Rauchen auf dem Balkon erlaubt,"Studenten-WG, Berufstätigen-WG",Sprache/n: Deutsch,Geschlecht egal zwischen 20 und 35 Jahren
https://www.wg-gesucht.de/wg-zimmer-in-Nurnberg-Hummelstein.8700819.html,330€,900€,Hummelsteiner Weg 41 90459 Nürnberg Hummelstein,15.06.2021,10m² Zimmer in 3er WG,Wohnungsgröße: 61m²,3er WG ( 2 Männer ),Bewohneralter: 20 bis 23 Jahre,Rauchen auf dem Balkon erlaubt,"Studenten-WG, Berufstätigen-WG, keine Zweck-WG, gemischte WG","Sprache/n: Deutsch, Englisch",Geschlecht egal zwischen 18 und 30 Jahren
https://www.wg-gesucht.de/wg-zimmer-in-Nurnberg-Lorenz.8442073.html,329€,600€,Vordere Sterngasse 10 90402 Nürnberg Lorenz,01.08.2021,10m² Zimmer in 17er WG,Wohnungsgröße: 441m²,17er WG ( 8 Frauen und 8 Männer ),Bewohneralter: 18 bis 25 Jahre,Rauchen auf dem Balkon erlaubt,"Studenten-WG, keine Zweck-WG, gemischte WG","Sprache/n: Deutsch, Englisch, Spanisch, Französisch, Portugiesisch",Frau zwischen 18 und 25 Jahren
https://www.wg-gesucht.de/wg-zimmer-in-Nurnberg-Lorenz.8451788.html,349€,600€,Vordere Sterngasse 10 90402 Nürnberg Lorenz,01.08.2021,14m² Zimmer in 17er WG,Wohnungsgröße: 441m²,17er WG ( 8 Frauen und 8 Männer ),Bewohneralter: 19 bis 25 Jahre,Rauchen auf dem Balkon erlaubt,"Studenten-WG, keine Zweck-WG, gemischte WG","Sprache/n: Deutsch, Englisch, Französisch, Spanisch, Portugiesisch",Frau zwischen 18 und 25 Jahren
https://www.wg-gesucht.de/wg-zimmer-in-Nurnberg-Sebald.8352276.html,370€,650€,Hauptmarkt 90403 Nürnberg Sebald,15.08.2021,15m² Zimmer in 2er WG,,2er WG ( 1 Frau ),,Rauchen nicht erwünscht,Studenten-WG,"Sprache/n: Deutsch, Englisch",Frau
https://www.wg-gesucht.de/wg-zimmer-in-Nurnberg-Maxfeld.8677764.html,350€,450€,Rollnerstr 40 90408 Nürnberg Maxfeld,14.06.2021,15m² Zimmer in 4er WG,Wohnungsgröße: 120m²,4er WG ( 3 Männer ),Bewohneralter: 22 bis 25 Jahre,Rauchen auf dem Balkon erlaubt,"Studenten-WG, Berufstätigen-WG, keine Zweck-WG, gemischte WG, Internationals welcome",,Geschlecht egal bis 33 Jahren
https://www.wg-gesucht.de/wg-zimmer-in-Nurnberg-St-Peter.8147050.html,335€,600€,Burgerstraße 90478 Nürnberg St Peter,01.07.2021,12m² Zimmer in 3er WG,Wohnungsgröße: 75m²,3er WG ( 2 Frauen ),Bewohneralter: 21 bis 23 Jahre,Rauchen nicht erwünscht,"Studenten-WG, Berufstätigen-WG, gemischte WG","Sprache/n: Deutsch, Englisch",Geschlecht egal zwischen 20 und 29 Jahren
https://www.wg-gesucht.de/wg-zimmer-in-Nurnberg-Steinbuhl.5895791.html,360€,200€,Gugelstraße 90459 Nürnberg Steinbühl,15.07.2021,20m² Zimmer in 3er WG,,3er WG ( 2 Männer ),Bewohneralter: 22 bis 30 Jahre,Rauchen nicht erwünscht,"Zweck-WG, Berufstätigen-WG, gemischte WG","Sprache/n: Deutsch, Englisch",Geschlecht egal zwischen 22 und 30 Jahren
https://www.wg-gesucht.de/wg-zimmer-in-Nurnberg-Leyh.5895732.html,362€,200€,Stübacher Straße 90431 Nürnberg Leyh,01.08.2021,30m² Zimmer in 2er WG,,2er WG ( 1 Mann ),Bewohneralter: 22 bis 35 Jahre,Rauchen nicht erwünscht,"Zweck-WG, Berufstätigen-WG, gemischte WG",Sprache/n: Deutsch,Geschlecht egal zwischen 22 und 35 Jahren
https://www.wg-gesucht.de/wg-zimmer-in-Nurnberg-Gostenhof.6544683.html,385€,745€,Schreyerstr. 14 90443 Nürnberg Gostenhof,01.07.2021,15m² Zimmer in 3er WG,Wohnungsgröße: 114m²,3er WG ( 1 Frau und 1 Mann ),Bewohneralter: 21 bis 28 Jahre,Rauchen auf dem Balkon erlaubt,"Studenten-WG, Berufstätigen-WG, keine Zweck-WG",Sprache/n: Deutsch,Geschlecht egal zwischen 21 und 32 Jahren
https://www.wg-gesucht.de/wg-zimmer-in-Nurnberg-Tullnau.8391926.html,450€,800€,Marthastr. 28 90482 Nürnberg Tullnau,01.08.2021,25m² Zimmer in 2er WG,Wohnungsgröße: 60m²,2er WG ( 1 Frau ),,Rauchen nicht erwünscht,"Zweck-WG, Studenten-WG, Berufstätigen-WG, keine Zweck-WG, gemischte WG, Internationals welcome","Sprache/n: Deutsch, Englisch",Geschlecht egal
https://www.wg-gesucht.de/wg-zimmer-in-Nurnberg-St-Peter.8673113.html,430€,500€,Dürrenhofstr. 90478 Nürnberg St. Peter,01.07.2021,20m² Zimmer in 2er WG,Wohnungsgröße: 60m²,2er WG ( 1 Mann ),Bewohneralter: 30 bis 30 Jahre,Rauchen auf dem Balkon erlaubt,"Berufstätigen-WG, keine Zweck-WG, gemischte WG, Internationals welcome","Sprache/n: Deutsch, Englisch",Geschlecht egal zwischen 21 und 35 Jahren
https://www.wg-gesucht.de/wg-zimmer-in-Nurnberg-Gostenhof.8698546.html,460€,500€,Voltastrasse 46 90459 Nürnberg Gostenhof,01.08.2021,20m² Zimmer in 3er WG,,3er WG ( 2 Männer ),Bewohneralter: 20 bis 33 Jahre,gemischte WG,"Sprache/n: Deutsch, Englisch, Spanisch, Französisch, Türkisch",Geschlecht egal, 
https://www.wg-gesucht.de/wg-zimmer-in-Nurnberg-Kleinweidenmuhle.6545514.html,339€,768€,Rosenaustraße. 10 90429 Nürnberg Kleinweidenmühle,13.06.2021,16m² Zimmer in 2er WG,Wohnungsgröße: 50m²,2er WG ( 1 Frau ),Bewohneralter: 25 bis 25 Jahre,Rauchen nicht erwünscht,"Zweck-WG, Studenten-WG, Frauen-WG, Berufstätigen-WG","Sprache/n: Deutsch, Englisch, Russisch",Frau zwischen 18 und 48 Jahren
https://www.wg-gesucht.de/wg-zimmer-in-Nurnberg-Rennweg.6867378.html,316€,360€,Fenitzerstr. 90489 Nürnberg Rennweg,01.08.2021,18m² Zimmer in 3er WG,Wohnungsgröße: 90m²,3er WG ( 1 Frau und 1 Mann ),Bewohneralter: 32 bis 38 Jahre,Rauchen nicht erwünscht,gemischte WG,"Sprache/n: Deutsch, Englisch",Geschlecht egal zwischen 25 und 38 Jahren
https://www.wg-gesucht.de/wg-zimmer-in-Nurnberg-Erlenstegen.8726474.html,450€,500€,Erlenstegenstraße 2 90491 Nürnberg Erlenstegen,01.08.2021,20m² Zimmer in 7er WG,Wohnungsgröße: 220m²,7er WG ( 2 Frauen und 2 Männer ),Bewohneralter: 21 bis 34 Jahre,"Studenten-WG, Berufstätigen-WG, Azubi-WG, keine Zweck-WG, gemischte WG, LGBTQIA+, Internationals welcome","Sprache/n: Deutsch, Englisch",Geschlecht egal, 
https://www.wg-gesucht.de/wg-zimmer-in-Nurnberg-Reichelsdorf.8605980.html,395€, ,Beim Wahlbaum 37 90453 Nürnberg Reichelsdorf,13.06.2021,17m² Zimmer in 2er WG,,2er WG ( 1 Frau ),Bewohneralter: 27 bis 27 Jahre,Rauchen nicht erwünscht,"Studenten-WG, Berufstätigen-WG","Sprache/n: Deutsch, Englisch",Frau zwischen 22 und 32 Jahren
https://www.wg-gesucht.de/wg-zimmer-in-Nurnberg-St-Johannis.8725774.html,400€,720€,Franzstr. 36 90419 Nürnberg St Johannis,01.07.2021,17m² Zimmer in 2er WG,Wohnungsgröße: 68m²,2er WG ( 1 Mann ),Bewohneralter: 25 bis 30 Jahre,Rauchen im Zimmer erlaubt,"Studenten-WG, keine Zweck-WG","Sprache/n: Deutsch, Englisch",Geschlecht egal zwischen 20 und 30 Jahren
https://www.wg-gesucht.de/wg-zimmer-in-Nurnberg-Galgenhof.8645587.html,390€,390€,Ammanstraße - Galgenhof 90459 Nürnberg Galgenhof,01.07.2021,15m² Zimmer in 4er WG,,4er WG ( 2 Frauen ),Bewohneralter: 18 bis 30 Jahre,Rauchen nicht erwünscht,"Studenten-WG, Internationals welcome","Sprache/n: Deutsch, Englisch",Frau zwischen 18 und 30 Jahren
https://www.wg-gesucht.de/wg-zimmer-in-Nurnberg-Gostenhof.5591449.html,425€, ,Fürther Straße 99 90429 Nürnberg Gostenhof,01.07.2021,17m² Zimmer in 3er WG,Wohnungsgröße: 80m²,3er WG ( 1 Frau ),Bewohneralter: 23 bis 23 Jahre,"Studenten-WG, Berufstätigen-WG, keine Zweck-WG, gemischte WG, LGBTQIA+, Internationals welcome","Sprache/n: Deutsch, Englisch, Französisch, Italienisch",Geschlecht egal, 
https://www.wg-gesucht.de/wg-zimmer-in-Nurnberg-Schoppershof.8726475.html,299€, ,Äußere Bayreuther Straße 53A 90409 Nürnberg Schoppershof,01.08.2021,12m² Zimmer in 6er WG,,6er WG ( 4 Männer ),Bewohneralter: 19 bis 27 Jahre,"Studenten-WG, Berufstätigen-WG, keine Zweck-WG, gemischte WG","Sprache/n: Deutsch, Englisch",Geschlecht egal zwischen 18 und 30 Jahren, 
https://www.wg-gesucht.de/wg-zimmer-in-Nurnberg-Steinbuhl.8682650.html,275€,600€,Gibitzenhofstraße 90443 Nürnberg Steinbühl,13.06.2021,12m² Zimmer in 3er WG,Wohnungsgröße: 75m²,3er WG ( 2 Männer ),Bewohneralter: 23 bis 24 Jahre,"Studenten-WG, Berufstätigen-WG, keine Zweck-WG","Sprache/n: Deutsch, Englisch",Geschlecht egal zwischen 20 und 27 Jahren, 
https://www.wg-gesucht.de/wg-zimmer-in-Nurnberg-Erlenstegen.8726282.html,450€,500€,Erlenstegenstraße 2 90491 Nürnberg Erlenstegen,01.08.2021,22m² Zimmer in 7er WG,Wohnungsgröße: 220m²,7er WG ( 2 Frauen und 2 Männer ),Bewohneralter: 21 bis 34 Jahre,"Studenten-WG, Berufstätigen-WG, Azubi-WG, keine Zweck-WG, gemischte WG, LGBTQIA+, Internationals welcome","Sprache/n: Deutsch, Englisch",Geschlecht egal, 
https://www.wg-gesucht.de/wg-zimmer-in-Nurnberg-Unterasbach.7280885.html,350€,500€,nahe S-Bahn Unterasbach 90522 Nürnberg Unterasbach,01.08.2021,25m² Zimmer in 2er WG,Wohnungsgröße: 180m²,2er WG ( 1 Frau ),,Rauchen nicht erwünscht,"Frauen-WG, Business-WG, Berufstätigen-WG, gemischte WG","Sprache/n: Deutsch, Englisch",Geschlecht egal zwischen 20 und 55 Jahren
https://www.wg-gesucht.de/wg-zimmer-in-Nurnberg-St-Johannis.8664900.html,690€,1200€,Kirchenweg 90419 Nürnberg St Johannis,01.07.2021,20m² Zimmer in 3er WG,Wohnungsgröße: 270m²,3er WG ( 1 Frau und 1 Mann ),Bewohneralter: 33 bis 33 Jahre,Rauchen auf dem Balkon erlaubt,"Berufstätigen-WG, keine Zweck-WG, Vegetarisch/Vegan, LGBTQIA+","Sprache/n: Deutsch, Englisch",Geschlecht egal zwischen 25 und 38 Jahren
https://www.wg-gesucht.de/wg-zimmer-in-Nurnberg-Leyh.7855615.html,490€,760€,Sigmundstr. 95 90431 Nürnberg Leyh,01.07.2021,23m² Zimmer in 3er WG,Wohnungsgröße: 73m²,3er WG ( 2 Männer ),,Rauchen nicht erwünscht,"Studenten-WG, Berufstätigen-WG, gemischte WG",Sprache/n: Deutsch,Geschlecht egal zwischen 18 und 35 Jahren
https://www.wg-gesucht.de/wg-zimmer-in-Nurnberg-Leyh.7855753.html,380€,560€,Sigmundstr. 95 90431 Nürnberg Leyh,01.07.2021,14m² Zimmer in 3er WG,Wohnungsgröße: 73m²,3er WG ( 1 Frau und 1 Mann ),,Rauchen nicht erwünscht,"Studenten-WG, Berufstätigen-WG",Sprache/n: Deutsch,Geschlecht egal zwischen 18 und 30 Jahren
https://www.wg-gesucht.de/wg-zimmer-in-Nurnberg-Galgenhof.6539398.html,360€,660€,Bulmannstr 37 90459 Nürnberg Galgenhof,01.08.2021,18m² Zimmer in 4er WG,Wohnungsgröße: 125m²,4er WG ( 2 Frauen und 1 Mann ),Bewohneralter: 26 bis 31 Jahre,Rauchen auf dem Balkon erlaubt,"Studenten-WG, Berufstätigen-WG, keine Zweck-WG, gemischte WG","Sprache/n: Deutsch, Englisch",Geschlecht egal zwischen 25 und 35 Jahren
https://www.wg-gesucht.de/wg-zimmer-in-Nurnberg-Steinbuhl.3046507.html,337€,200€,Landgrabenstrasse 90443 Nürnberg Steinbühl,01.10.2021,13m² Zimmer in 3er WG,,3er WG ( 2 Männer ),Bewohneralter: bis 33 Jahre,Rauchen nicht erwünscht,"Zweck-WG, Berufstätigen-WG, gemischte WG",Sprache/n: Deutsch,Geschlecht egal bis 33 Jahren
https://www.wg-gesucht.de/wg-zimmer-in-Nurnberg-Naehe-HBF-U-Bahn-3min-zu-Fuss.7792220.html,365€,200€,Kopernikussstraße Südstadt 90459 Nürnberg Nähe HBF U-Bahn 3min zu Fuss,01.01.2022,13m² Zimmer in 2er WG,Wohnungsgröße: 44m²,2er WG ( 1 Mann ),Bewohneralter: 20 bis 33 Jahre,Rauchen nicht erwünscht,"Zweck-WG, Berufstätigen-WG, gemischte WG","Sprache/n: Deutsch, Englisch",Geschlecht egal zwischen 20 und 33 Jahren
https://www.wg-gesucht.de/wg-zimmer-in-Nurnberg-Nurnberg.8726305.html,340€,500€,Sudetendeutschestraße 90480 Nürnberg Nürnberg,15.08.2021,13m² Zimmer in 3er WG,Wohnungsgröße: 100m²,3er WG ( 1 Frau und 1 Mann ),Bewohneralter: 24 bis 25 Jahre,Rauchen nicht erwünscht,"Studenten-WG, Berufstätigen-WG, keine Zweck-WG, gemischte WG",Sprache/n: Deutsch,Geschlecht egal
https://www.wg-gesucht.de/wg-zimmer-in-Nurnberg-Gebersdorf.8083529.html,345€,900€,Glafeystr. 5 90449 Nürnberg Gebersdorf,13.06.2021,10m² Zimmer in 5er WG,Wohnungsgröße: 131m²,5er WG ( 3 Männer ),Bewohneralter: 20 bis 25 Jahre,Rauchen nicht erwünscht,"Zweck-WG, Studenten-WG, Frauen-WG, Männer-WG, Business-WG, Wohnheim, Berufstätigen-WG, Azubi-WG, Verbindung, keine Zweck-WG, gemischte WG, Vegetarisch/Vegan, LGBTQIA+, Internationals welcome, funktionale WG",,Geschlecht egal ab 18 Jahren
https://www.wg-gesucht.de/wg-zimmer-in-Nurnberg-Hummelstein.7845087.html,499€,999€,Schillingstr. 7 90459 Nürnberg Hummelstein,01.07.2021,15m² Zimmer in 5er WG,Wohnungsgröße: 132m²,5er WG ( 1 Frau und 2 Männer ),Bewohneralter: 1 bis 38 Jahre,Rauchen auf dem Balkon erlaubt,"Berufstätigen-WG, WG mit Kindern, keine Zweck-WG, gemischte WG, Mehrgenerationen, Vegetarisch/Vegan, LGBTQIA+","Sprache/n: Deutsch, Englisch",Geschlecht egal zwischen 20 und 46 Jahren
https://www.wg-gesucht.de/wg-zimmer-in-Nurnberg-Erlenstegen.8724109.html,284€,500€,Erlenstegenstr. 2 90491 Nürnberg Erlenstegen,01.08.2021,9m² Zimmer in 7er WG,Wohnungsgröße: 220m²,7er WG ( 2 Frauen und 2 Männer ),Bewohneralter: 21 bis 34 Jahre,Rauchen auf dem Balkon erlaubt,"Studenten-WG, keine Zweck-WG, gemischte WG, LGBTQIA+, Internationals welcome","Sprache/n: Deutsch, Englisch",Geschlecht egal
https://www.wg-gesucht.de/wg-zimmer-in-Nurnberg-Woehrd.8719500.html,430€,625€,Wassertorstraße 15 90489 Nürnberg Wöhrd,01.08.2021,17m² Zimmer in 4er WG,Wohnungsgröße: 96m²,4er WG ( 1 Frau und 2 Männer ),Bewohneralter: 23 bis 27 Jahre,Studenten-WG,Sprache/n: Deutsch,Geschlecht egal zwischen 20 und 29 Jahren, 
https://www.wg-gesucht.de/wg-zimmer-in-Nurnberg-Rennweg.8720535.html,350€,600€,Rennweg 68 90489 Nürnberg Rennweg,01.09.2021,11m² Zimmer in 3er WG,Wohnungsgröße: 110m²,3er WG ( 1 Mann ),Bewohneralter: 30 bis 30 Jahre,Rauchen nicht erwünscht,"Berufstätigen-WG, keine Zweck-WG, gemischte WG",Sprache/n: Deutsch,Geschlecht egal zwischen 18 und 35 Jahren
https://www.wg-gesucht.de/wg-zimmer-in-Nurnberg-Gostenhof.8673167.html,405€,900€,Gostenhofer Haupstraße 90443 Nürnberg Gostenhof,01.08.2021,24m² Zimmer in 5er WG,Wohnungsgröße: 160m²,5er WG ( 2 Frauen und 1 Mann ),Bewohneralter: 21 bis 37 Jahre,Rauchen auf dem Balkon erlaubt,"Studenten-WG, Berufstätigen-WG, keine Zweck-WG, gemischte WG, LGBTQIA+","Sprache/n: Deutsch, Englisch, Arabisch, Kroatisch",Geschlecht egal ab 24 Jahren
https://www.wg-gesucht.de/wg-zimmer-in-Nurnberg-Gostenhof.8726022.html,395€,650€,Roonstraße 26 90429 Nürnberg Gostenhof,15.07.2021,22m² Zimmer in 3er WG,Wohnungsgröße: 110m²,3er WG ( 1 Frau und 1 Mann ),Bewohneralter: 25 bis 26 Jahre,Rauchen überall erlaubt,"Studenten-WG, keine Zweck-WG, gemischte WG","Sprache/n: Deutsch, Englisch",Geschlecht egal zwischen 20 und 35 Jahren
https://www.wg-gesucht.de/wg-zimmer-in-Nurnberg-St-Johannis.3768845.html,365€,500€,Bucherstr. 23 90419 Nürnberg St Johannis,01.08.2021,15m² Zimmer in 7er WG,,7er WG ( 3 Frauen und 2 Männer ),Bewohneralter: 20 bis 30 Jahre,Rauchen auf dem Balkon erlaubt,"Studenten-WG, Berufstätigen-WG, gemischte WG","Sprache/n: Deutsch, Englisch",Geschlecht egal zwischen 18 und 38 Jahren
https://www.wg-gesucht.de/wg-zimmer-in-Nurnberg-St-Johannis.5236422.html,385€,770€,Amalienstr. 90419 Nürnberg St Johannis,01.07.2021,17m² Zimmer in 2er WG,Wohnungsgröße: 65m²,2er WG ( 1 Mann ),Bewohneralter: 20 bis 40 Jahre,Rauchen nicht erwünscht,"Zweck-WG, Studenten-WG, Business-WG, Berufstätigen-WG, Azubi-WG, keine Zweck-WG, gemischte WG","Sprache/n: Deutsch, Englisch",Geschlecht egal zwischen 20 und 40 Jahren
https://www.wg-gesucht.de/wg-zimmer-in-Nurnberg-Hummelstein.6777139.html,273€,534€,Jean-Paul-Platz 4 90461 Nürnberg Hummelstein,01.08.2021,11m² Zimmer in 6er WG,Wohnungsgröße: 152m²,6er WG ( 2 Frauen und 3 Männer ),Bewohneralter: 21 bis 32 Jahre,Rauchen auf dem Balkon erlaubt,"Studenten-WG, Berufstätigen-WG, Azubi-WG, keine Zweck-WG, gemischte WG, LGBTQIA+","Sprache/n: Deutsch, Englisch, Arabisch, Spanisch",Frau zwischen 20 und 32 Jahren
https://www.wg-gesucht.de/wg-zimmer-in-Nurnberg-Woehrd.7812326.html,350€,650€,Felseckerstraße 12 90498 Nürnberg Wöhrd,01.08.2021,14m² Zimmer in 3er WG,Wohnungsgröße: 65m²,3er WG ( 2 Frauen ),Bewohneralter: 22 bis 27 Jahre,Rauchen nicht erwünscht,"Zweck-WG, Studenten-WG, Frauen-WG, Business-WG, Berufstätigen-WG, Azubi-WG, keine Zweck-WG, gemischte WG, Internationals welcome","Sprache/n: Deutsch, Englisch",Frau zwischen 18 und 30 Jahren
https://www.wg-gesucht.de/wg-zimmer-in-Nurnberg.6269870.html,400€,1100€,Johannesgasse 14 2.1 90402 Nürnberg,15.07.2021,20m² Zimmer in 4er WG,Wohnungsgröße: 116m²,4er WG ( 1 Frau und 2 Männer ),Bewohneralter: 25 bis 29 Jahre,"Studenten-WG, gemischte WG","Sprache/n: Deutsch, Englisch",Geschlecht egal zwischen 24 und 33 Jahren, 
https://www.wg-gesucht.de/wg-zimmer-in-Nurnberg-Langwasser.6431126.html,400€,500€,"Leobschützer Straße, 51 90473 Nürnberg Langwasser",01.07.2021,14m² Zimmer in 3er WG,Wohnungsgröße: 120m²,3er WG ( 1 Frau und 1 Mann ),Bewohneralter: 23 bis 26 Jahre,Rauchen auf dem Balkon erlaubt,"Berufstätigen-WG, keine Zweck-WG, gemischte WG",Sprache/n: Deutsch,Geschlecht egal zwischen 23 und 33 Jahren
https://www.wg-gesucht.de/wg-zimmer-in-Nurnberg-St-Leonhard.4685135.html,355€,600€,Finkenstraße 18 90439 Nürnberg St Leonhard,15.06.2021,13m² Zimmer in 4er WG,Wohnungsgröße: 89m²,4er WG ( 2 Frauen und 1 Mann ),Bewohneralter: 23 bis 29 Jahre,"Studenten-WG, Berufstätigen-WG, gemischte WG","Sprache/n: Deutsch, Englisch, Spanisch",Geschlecht egal zwischen 18 und 35 Jahren, 
https://www.wg-gesucht.de/wg-zimmer-in-Nurnberg-Noerdliche-Aussenstadt.8491742.html,385€,500€,Von-Oelhafen-Straße 51 90425 Nürnberg Nördliche Aussenstadt,01.07.2021,18m² Zimmer in 5er WG,Wohnungsgröße: 155m²,5er WG ( 1 Frau und 3 Männer ),Bewohneralter: 20 bis 23 Jahre,Rauchen auf dem Balkon erlaubt,"Studenten-WG, Berufstätigen-WG, gemischte WG","Sprache/n: Deutsch, Englisch",Frau zwischen 20 und 25 Jahren
https://www.wg-gesucht.de/wg-zimmer-in-Nurnberg-St-Johannis.8091556.html,367€,680€,Schniegelinger Straße 116 90425 Nürnberg St Johannis,15.06.2021,16m² Zimmer in 3er WG,Wohnungsgröße: 60m²,3er WG ( 2 Frauen ),Bewohneralter: 19 bis 28 Jahre,Rauchen nicht erwünscht,"Studenten-WG, keine Zweck-WG, gemischte WG, Internationals welcome","Sprache/n: Deutsch, Englisch",Geschlecht egal zwischen 19 und 28 Jahren
https://www.wg-gesucht.de/wg-zimmer-in-Nurnberg-Woehrd.8694850.html,340€,690€,Georg-Strobel-Straße 10a 90489 Nürnberg Wöhrd,01.08.2021,11m² Zimmer in 9er WG,,9er WG ( 3 Frauen und 4 Männer ),Bewohneralter: 22 bis 26 Jahre,Rauchen auf dem Balkon erlaubt,"Studenten-WG, Berufstätigen-WG, keine Zweck-WG, gemischte WG","Sprache/n: Deutsch, Englisch",Geschlecht egal zwischen 20 und 26 Jahren
https://www.wg-gesucht.de/wg-zimmer-in-Nurnberg-Nurnberg.8725664.html,300€,300€,Nansenstrasse 90439 Nürnberg Nürnberg,15.06.2021,15m² Zimmer in 2er WG,Wohnungsgröße: 62m²,2er WG ( 1 Mann ),,"Berufstätigen-WG, gemischte WG",Sprache/n: Deutsch,Frau bis 40 Jahren, 
https://www.wg-gesucht.de/wg-zimmer-in-Nurnberg-Gostenhof.7092368.html,500€,600€,Gostenhofer Hauptstraße 73 90443 Nürnberg Gostenhof,01.08.2021,22m² Zimmer in 5er WG,Wohnungsgröße: 183m²,5er WG ( 1 Frau und 2 Männer ),Bewohneralter: 29 bis 34 Jahre,Rauchen auf dem Balkon erlaubt,"Berufstätigen-WG, keine Zweck-WG, gemischte WG, LGBTQIA+, Internationals welcome","Sprache/n: Deutsch, Englisch, Bosnisch, Kroatisch",Geschlecht egal zwischen 25 und 38 Jahren
https://www.wg-gesucht.de/wg-zimmer-in-Nurnberg-Gaerten-h-d-Veste.8699676.html,341€,690€,Pirckheimerstraße 135 90409 Nürnberg Gärten h d Veste,01.07.2021,12m² Zimmer in 6er WG,Wohnungsgröße: 128m²,6er WG ( 3 Frauen und 2 Männer ),Bewohneralter: 22 bis 26 Jahre,Rauchen nicht erwünscht,"Studenten-WG, Berufstätigen-WG, keine Zweck-WG, gemischte WG",Sprache/n: Deutsch,Mann zwischen 20 und 28 Jahren
https://www.wg-gesucht.de/wg-zimmer-in-Nurnberg-Bleiweiss.7777174.html,550€,1000€,Wodanstraße 64 90461 Nürnberg Bleiweiß,01.09.2021,16m² Zimmer in 3er WG,Wohnungsgröße: 86m²,3er WG ( 2 Frauen ),Bewohneralter: 20 bis 28 Jahre,Rauchen nicht erwünscht,"Studenten-WG, Business-WG, Berufstätigen-WG, keine Zweck-WG, gemischte WG, LGBTQIA+, Internationals welcome","Sprache/n: Deutsch, Englisch, Französisch, Italienisch",Geschlecht egal
https://www.wg-gesucht.de/wg-zimmer-in-Nurnberg-Veilhof.8688468.html,430€,600€,Bartholomäusstraße 29 90489 Nürnberg Veilhof,01.09.2021,15m² Zimmer in 2er WG,Wohnungsgröße: 70m²,2er WG ( 1 Mann ),Bewohneralter: 27 bis 27 Jahre,Rauchen auf dem Balkon erlaubt,"Zweck-WG, Studenten-WG, Männer-WG, Berufstätigen-WG, keine Zweck-WG, gemischte WG, LGBTQIA+","Sprache/n: Deutsch, Englisch",Geschlecht egal zwischen 20 und 30 Jahren
https://www.wg-gesucht.de/wg-zimmer-in-Nurnberg-Gleisshammer.2567375.html,367€,500€,Wodanstraße 65 90461 Nürnberg Gleißhammer,01.10.2021,18m² Zimmer in 2er WG,,2er WG ( 1 Frau ),Bewohneralter: 18 bis 35 Jahre,Rauchen nicht erwünscht,"Studenten-WG, Frauen-WG, Berufstätigen-WG",Sprache/n: Deutsch,Frau zwischen 18 und 35 Jahren
https://www.wg-gesucht.de/wg-zimmer-in-Nurnberg-Sebald.8629576.html,430€, ,"Tetzelgasse, 15 90403 Nürnberg Sebald",21.06.2021,20m² Zimmer in 4er WG,Wohnungsgröße: 140m²,4er WG ( 1 Frau und 2 Männer ),Bewohneralter: 21 bis 27 Jahre,"keine Zweck-WG, gemischte WG","Sprache/n: Deutsch, Englisch",Geschlecht egal zwischen 21 und 29 Jahren, 
https://www.wg-gesucht.de/wg-zimmer-in-Nurnberg-Maxfeld.8485323.html,295€,690€,Maxtorgraben 7 90409 Nürnberg Maxfeld,13.06.2021,10m² Zimmer in 2er WG,Wohnungsgröße: 55m²,2er WG ( 1 Mann ),Bewohneralter: 25 bis 25 Jahre,Rauchen nicht erwünscht,"Studenten-WG, gemischte WG",Sprache/n: Deutsch,Geschlecht egal zwischen 20 und 30 Jahren
https://www.wg-gesucht.de/wg-zimmer-in-Nurnberg-Mitte.8064425.html,400€,800€,Am Plärrer 12 90429 Nürnberg Mitte,01.09.2021,21m² Zimmer in 3er WG,Wohnungsgröße: 89m²,3er WG ( 2 Männer ),Bewohneralter: 25 bis 28 Jahre,Rauchen nicht erwünscht,Studenten-WG,"Sprache/n: Deutsch, Englisch",Geschlecht egal zwischen 20 und 30 Jahren
https://www.wg-gesucht.de/wg-zimmer-in-Nurnberg-Naehe-Bahnhof-Opernhaus.5614098.html,330€,780€,Alexanderstr. 6 90459 Nürnberg Nähe Bahnhof/ Opernhaus,01.07.2021,10m² Zimmer in 5er WG,Wohnungsgröße: 110m²,5er WG ( 1 Frau und 3 Männer ),Bewohneralter: 22 bis 30 Jahre,Rauchen auf dem Balkon erlaubt,"Berufstätigen-WG, gemischte WG","Sprache/n: Deutsch, Englisch, Französisch",Geschlecht egal zwischen 20 und 35 Jahren
https://www.wg-gesucht.de/wg-zimmer-in-Nurnberg-Glockenhof.8720692.html,247€,297€,Heideloffplatz 5 90478 Nürnberg Glockenhof,01.07.2021,11m² Zimmer in 8er WG,,8er WG ( 7 Frauen ),Bewohneralter: 20 bis 33 Jahre,Rauchen auf dem Balkon erlaubt,"Zweck-WG, Studenten-WG, Frauen-WG, Wohnheim, Internationals welcome","Sprache/n: Deutsch, Englisch, Türkisch, Russisch",Frau zwischen 18 und 35 Jahren
https://www.wg-gesucht.de/wg-zimmer-in-Nurnberg-Gostenhof.8587952.html,340€,340€,Fürther Straße 93 90429 Nürnberg Gostenhof,01.08.2021,20m² Zimmer in 2er WG,Wohnungsgröße: 60m²,2er WG,,keine Zweck-WG,,Geschlecht egal, 
https://www.wg-gesucht.de/wg-zimmer-in-Nurnberg-Loher-Moos.1503442.html,420€,520€,Heimstättenstraße 23 90411 Nürnberg Loher Moos,01.09.2021,20m² Zimmer in 3er WG,,3er WG ( 2 Männer ),Bewohneralter: bis 99 Jahre,Rauchen überall erlaubt,"Studenten-WG, Berufstätigen-WG, gemischte WG, Mehrgenerationen, Internationals welcome",Sprache/n: Deutsch,Geschlecht egal bis 99 Jahren
https://www.wg-gesucht.de/wg-zimmer-in-Nurnberg-Rennweg.8709270.html,405€,700€,Rennweg 68 90489 Nürnberg Rennweg,01.08.2021,15m² Zimmer in 3er WG,Wohnungsgröße: 110m²,3er WG ( 1 Mann ),Bewohneralter: 30 bis 30 Jahre,Rauchen nicht erwünscht,"Berufstätigen-WG, keine Zweck-WG, gemischte WG",Sprache/n: Deutsch,Geschlecht egal zwischen 18 und 35 Jahren
https://www.wg-gesucht.de/wg-zimmer-in-Nurnberg-St-Leonhard.8646296.html,335€,500€,Hermannstraße 90439 Nürnberg St Leonhard,01.07.2021,12m² Zimmer in 3er WG,,3er WG ( 2 Frauen ),Bewohneralter: 25 bis 35 Jahre,Rauchen auf dem Balkon erlaubt,"Studenten-WG, Frauen-WG, Berufstätigen-WG, keine Zweck-WG, gemischte WG, Vegetarisch/Vegan, LGBTQIA+",Sprache/n: Deutsch,Frau zwischen 25 und 35 Jahren
https://www.wg-gesucht.de/wg-zimmer-in-Nurnberg-St-Leonhard.8714005.html,180€, ,Schwabacherstraße 90439 Nürnberg St Leonhard,15.07.2021,15m² Zimmer in 5er WG,Wohnungsgröße: 100m²,5er WG ( 1 Frau und 3 Männer ),Bewohneralter: 23 bis 29 Jahre,Rauchen auf dem Balkon erlaubt,"Studenten-WG, keine Zweck-WG, Vegetarisch/Vegan, LGBTQIA+, Internationals welcome","Sprache/n: Deutsch, Englisch, Spanisch",Geschlecht egal zwischen 18 und 35 Jahren
https://www.wg-gesucht.de/wg-zimmer-in-Nurnberg-Neuselsbrunn.7968620.html,350€,1000€,Neuselsbrunn 53 90471 Nürnberg Neuselsbrunn,01.09.2021,15m² Zimmer in 3er WG,Wohnungsgröße: 68m²,3er WG ( 1 Frau und 1 Mann ),,Rauchen nicht erwünscht,"Studenten-WG, Berufstätigen-WG",Sprache/n: Deutsch,Geschlecht egal
https://www.wg-gesucht.de/wg-zimmer-in-Nurnberg-St-Johannis.3804962.html,450€,900€,Rieterstraße 90419 Nürnberg St Johannis,01.07.2021,25m² Zimmer in 5er WG,Wohnungsgröße: 180m²,5er WG ( 2 Frauen und 2 Männer ),Bewohneralter: 29 bis 64 Jahre,Rauchen auf dem Balkon erlaubt,"Berufstätigen-WG, keine Zweck-WG, gemischte WG","Sprache/n: Deutsch, Englisch",Frau zwischen 30 und 64 Jahren
https://www.wg-gesucht.de/wg-zimmer-in-Nurnberg-Nordostbahnhof.5436756.html,388€,625€,Merianstraße 38 90409 Nürnberg Nordostbahnhof,01.09.2021,14m² Zimmer in 4er WG,Wohnungsgröße: 135m²,4er WG ( 2 Frauen und 1 Mann ),Bewohneralter: 19 bis 40 Jahre,Rauchen auf dem Balkon erlaubt,"Studenten-WG, keine Zweck-WG, gemischte WG","Sprache/n: Deutsch, Englisch, Spanisch, Französisch, Ungarisch",Frau zwischen 18 und 40 Jahren
https://www.wg-gesucht.de/wg-zimmer-in-Nurnberg-Nordostbahnhof.8184787.html,435€,900€,Äußere Bayreuther Straße 119 90409 Nürnberg Nordostbahnhof,01.07.2021,20m² Zimmer in 3er WG,Wohnungsgröße: 114m²,3er WG ( 2 Männer ),Bewohneralter: 28 bis 32 Jahre,keine Zweck-WG,"Sprache/n: Deutsch, Englisch, Spanisch",Geschlecht egal zwischen 25 und 35 Jahren, 
https://www.wg-gesucht.de/wg-zimmer-in-Nurnberg-Woehrd.8719033.html,488€, ,Bartholomäusstraße 64 90489 Nürnberg Wöhrd,01.09.2021,13m² Zimmer in 2er WG,,2er WG ( 1 Mann ),Bewohneralter: 22 bis 27 Jahre,Studenten-WG,,Geschlecht egal, 
https://www.wg-gesucht.de/wg-zimmer-in-Nurnberg-Tafelhof.4448190.html,295€,750€,Humboldtstr 156 90459 Nürnberg Tafelhof,15.06.2021,12m² Zimmer in 4er WG,,4er WG ( 1 Frau und 2 Männer ),Bewohneralter: 20 bis 30 Jahre,"Studenten-WG, Berufstätigen-WG, gemischte WG","Sprache/n: Deutsch, Englisch",Geschlecht egal zwischen 20 und 30 Jahren, 
https://www.wg-gesucht.de/wg-zimmer-in-Nurnberg-Glockenhof.8610710.html,305€,750€,Keplerstr. 9 90478 Nürnberg Glockenhof,15.06.2021,15m² Zimmer in 3er WG,Wohnungsgröße: 83m²,3er WG ( 2 Männer ),Bewohneralter: 20 bis 30 Jahre,"Studenten-WG, Berufstätigen-WG, gemischte WG","Sprache/n: Deutsch, Englisch",Mann zwischen 20 und 30 Jahren, 
https://www.wg-gesucht.de/wg-zimmer-in-Nurnberg-Gaerten-b-Woehrd.8675548.html,450€,1000€,Adamstr. 90489 Nürnberg Gärten b.Wöhrd,12.06.2021,20m² Zimmer in 2er WG,,2er WG ( 1 Mann ),Bewohneralter: bis 29 Jahre,"Zweck-WG, Studenten-WG, Azubi-WG, keine Zweck-WG, LGBTQIA+, Internationals welcome","Sprache/n: Deutsch, Englisch, Spanisch",Geschlecht egal, 
https://www.wg-gesucht.de/wg-zimmer-in-Nurnberg-Woehrd.8714245.html,370€, ,Emilienstraße 90489 Nürnberg Wöhrd,01.07.2021,26m² Zimmer in 4er WG,,4er WG ( 1 Frau und 2 Männer ),,Rauchen nicht erwünscht,"Berufstätigen-WG, gemischte WG","Sprache/n: Deutsch, Englisch",Geschlecht egal zwischen 18 und 99 Jahren
https://www.wg-gesucht.de/wg-zimmer-in-Nurnberg-Erlenstegen.7489848.html,395€,790€,Bismarckstr. 90491 Nürnberg Erlenstegen,01.08.2021,20m² Zimmer in 2er WG,Wohnungsgröße: 53m²,2er WG ( 1 Frau ),,Rauchen nicht erwünscht,"Studenten-WG, Frauen-WG, Berufstätigen-WG, keine Zweck-WG, gemischte WG",Sprache/n: Deutsch,Frau
https://www.wg-gesucht.de/wg-zimmer-in-Nurnberg-Bleiweiss.6096018.html,315€,500€,Ottilienstraße 8 90461 Nürnberg Bleiweiß,12.06.2021,16m² Zimmer in 4er WG,Wohnungsgröße: 116m²,4er WG ( 1 Frau und 2 Männer ),Bewohneralter: 25 bis 44 Jahre,Rauchen nicht erwünscht,"Studenten-WG, Berufstätigen-WG, gemischte WG",,Geschlecht egal
https://www.wg-gesucht.de/wg-zimmer-in-Nurnberg-Rennweg.8088467.html,316€,425€,Ludwig-Feuerbach-Straße 90489 Nürnberg Rennweg,12.06.2021,18m² Zimmer in 4er WG,Wohnungsgröße: 100m²,4er WG ( 2 Frauen und 1 Mann ),Bewohneralter: 23 bis 26 Jahre,Rauchen nicht erwünscht,"Studenten-WG, Berufstätigen-WG, keine Zweck-WG, gemischte WG","Sprache/n: Deutsch, Spanisch",Geschlecht egal zwischen 21 und 30 Jahren
https://www.wg-gesucht.de/wg-zimmer-in-Nurnberg-Woehrd.8221619.html,386€, ,Sulzbacher Str. 90489 Nürnberg Wöhrd,01.08.2021,20m² Zimmer in 7er WG,Wohnungsgröße: 300m²,7er WG ( 3 Frauen und 3 Männer ),Bewohneralter: 25 bis 35 Jahre,"keine Zweck-WG, gemischte WG","Sprache/n: Deutsch, Englisch",Geschlecht egal zwischen 25 und 40 Jahren, 
https://www.wg-gesucht.de/wg-zimmer-in-Nurnberg-St-Johannis.6785392.html,290€,850€,Juvenellstr.18 90419 Nürnberg St Johannis,12.06.2021,15m² Zimmer in 2er WG,Wohnungsgröße: 60m²,2er WG ( 1 Mann ),Bewohneralter: ab 32 Jahre,gemischte WG,"Sprache/n: Deutsch, Englisch, Französisch",Mann zwischen 25 und 38 Jahren, 
https://www.wg-gesucht.de/wg-zimmer-in-Nurnberg-Lorenz.8724353.html,450€, ,Neue Gasse 5 90403 Nürnberg Lorenz,01.07.2021,14m² Zimmer in 2er WG,Wohnungsgröße: 63m²,2er WG ( 1 Frau ),Bewohneralter: 18 bis 30 Jahre,Rauchen auf dem Balkon erlaubt,"Business-WG, LGBTQIA+, Internationals welcome","Sprache/n: Englisch, Spanisch, Deutsch",Geschlecht egal zwischen 18 und 30 Jahren
https://www.wg-gesucht.de/wg-zimmer-in-Nurnberg-Woehrd.8694928.html,420€,760€,Georg-Strobel-Straße 10A 90489 Nürnberg Wöhrd,01.07.2021,20m² Zimmer in 9er WG,,9er WG ( 3 Frauen und 4 Männer ),Bewohneralter: 22 bis 26 Jahre,Rauchen auf dem Balkon erlaubt,"Studenten-WG, Berufstätigen-WG, keine Zweck-WG, gemischte WG","Sprache/n: Deutsch, Englisch",Geschlecht egal zwischen 20 und 26 Jahren
https://www.wg-gesucht.de/wg-zimmer-in-Nurnberg-Gibitzenhof.4506000.html,480€,0€,Platenstrasse 14 90441 Nürnberg Gibitzenhof,12.06.2021,19m² Zimmer in 2er WG,Wohnungsgröße: 76m²,2er WG ( 1 Mann ),Bewohneralter: 37 bis 37 Jahre,Rauchen auf dem Balkon erlaubt,"Zweck-WG, Berufstätigen-WG, gemischte WG","Sprache/n: Deutsch, Englisch, Spanisch",Geschlecht egal zwischen 20 und 45 Jahren
https://www.wg-gesucht.de/wg-zimmer-in-Nurnberg-Gibitzenhof.3508874.html,370€,0€,Platenstrasse 14 90441 Nürnberg Gibitzenhof,12.06.2021,10m² Zimmer in 2er WG,Wohnungsgröße: 70m²,2er WG ( 1 Mann ),Bewohneralter: 37 bis 37 Jahre,Rauchen auf dem Balkon erlaubt,"Zweck-WG, Berufstätigen-WG, gemischte WG","Sprache/n: Deutsch, Englisch",Geschlecht egal zwischen 20 und 50 Jahren
https://www.wg-gesucht.de/wg-zimmer-in-Nurnberg-Gostenhof.8722140.html,350€,825€,Fürther Straße 76 90429 Nürnberg Gostenhof,01.08.2021,23m² Zimmer in 3er WG,,3er WG ( 1 Frau ),Bewohneralter: ab 26 Jahre,"Studenten-WG, Berufstätigen-WG, keine Zweck-WG","Sprache/n: Deutsch, Englisch",Geschlecht egal, 
https://www.wg-gesucht.de/wg-zimmer-in-Nurnberg-Gaerten-h-d-Veste.8715418.html,357€,600€,Harrichstraße 15 90408 Nürnberg Gärten h.d.Veste,01.07.2021,21m² Zimmer in 2er WG,Wohnungsgröße: 82m²,2er WG ( 1 Mann ),Bewohneralter: bis 25 Jahre,Rauchen auf dem Balkon erlaubt,"Studenten-WG, Berufstätigen-WG, gemischte WG","Sprache/n: Deutsch, Englisch",Geschlecht egal
https://www.wg-gesucht.de/wg-zimmer-in-Nurnberg-Sebald.5420048.html,349€,837€,Innenstadt / Zentrum 1 90403 Nürnberg Sebald,01.07.2021,13m² Zimmer in 5er WG,Wohnungsgröße: 100m²,5er WG ( 2 Frauen und 2 Männer ),Bewohneralter: 23 bis 32 Jahre,Rauchen überall erlaubt,"Studenten-WG, Berufstätigen-WG, keine Zweck-WG, gemischte WG","Sprache/n: Deutsch, Englisch, Spanisch, Französisch, Italienisch",Geschlecht egal zwischen 18 und 39 Jahren
https://www.wg-gesucht.de/wg-zimmer-in-Nurnberg-Gostenhof.8723969.html,361€,875€,Eberhardshofstr. 1 90429 Nürnberg Gostenhof,01.09.2021,15m² Zimmer in 3er WG,Wohnungsgröße: 90m²,3er WG ( 2 Männer ),Bewohneralter: 25 bis 26 Jahre,Rauchen nicht erwünscht,"Studenten-WG, keine Zweck-WG","Sprache/n: Deutsch, Englisch",Geschlecht egal zwischen 18 und 35 Jahren
https://www.wg-gesucht.de/wg-zimmer-in-Nurnberg-Gostenhof.7874395.html,325€,500€,Roonstraße 90429 Nürnberg Gostenhof,15.07.2021,22m² Zimmer in 5er WG,Wohnungsgröße: 160m²,5er WG ( 3 Frauen und 1 Mann ),Bewohneralter: 22 bis 29 Jahre,Rauchen auf dem Balkon erlaubt,"keine Zweck-WG, gemischte WG, LGBTQIA+","Sprache/n: Deutsch, Englisch",Geschlecht egal zwischen 25 und 35 Jahren
https://www.wg-gesucht.de/wg-zimmer-in-Nurnberg-Nurnberg--Mitte.8648682.html,290€,500€,"Fürther Straße, 174 A 90429 Nürnberg Nürnberg - Mitte",01.07.2021,16m² Zimmer in 2er WG,Wohnungsgröße: 65m²,2er WG ( 1 Frau ),Bewohneralter: 25 bis 60 Jahre,Rauchen nicht erwünscht,gemischte WG,"Sprache/n: Deutsch, Englisch",Geschlecht egal zwischen 25 und 60 Jahren
https://www.wg-gesucht.de/wg-zimmer-in-Nurnberg-Mitte.8669336.html,480€,400€,Rosental 17 90403 Nürnberg Mitte,01.09.2021,20m² Zimmer in 3er WG,Wohnungsgröße: 70m²,3er WG ( 2 Frauen ),Bewohneralter: 21 bis 23 Jahre,Rauchen nicht erwünscht,"Studenten-WG, Frauen-WG, Berufstätigen-WG, LGBTQIA+, Internationals welcome","Sprache/n: Deutsch, Englisch",Frau zwischen 18 und 35 Jahren
https://www.wg-gesucht.de/wg-zimmer-in-Nurnberg-Maxfeld.4350464.html,390€,720€,Friedenstraße 0 90409 Nürnberg Maxfeld,12.06.2021,25m² Zimmer in 4er WG,Wohnungsgröße: 135m²,4er WG ( 1 Frau und 2 Männer ),,Rauchen nicht erwünscht,"Studenten-WG, Berufstätigen-WG, gemischte WG","Sprache/n: Deutsch, Englisch, Chinesisch, Spanisch",Frau
https://www.wg-gesucht.de/wg-zimmer-in-Nurnberg-St-Johannis.8672426.html,272€,500€,Bucher Str 22 90804 Nürnberg St Johannis,01.07.2021,15m² Zimmer in 4er WG,Wohnungsgröße: 109m²,4er WG ( 1 Frau und 2 Männer ),,Rauchen nicht erwünscht,"Berufstätigen-WG, gemischte WG","Sprache/n: Deutsch, Englisch, Italienisch",Geschlecht egal zwischen 20 und 50 Jahren
https://www.wg-gesucht.de/wg-zimmer-in-Nurnberg-Gostenhof.8560732.html,382€,640€,Hessestr. 18 90443 Nürnberg Gostenhof,12.06.2021,16m² Zimmer in 3er WG,Wohnungsgröße: 126m²,3er WG ( 1 Frau und 1 Mann ),Bewohneralter: 27 bis 29 Jahre,Rauchen nicht erwünscht,"Berufstätigen-WG, keine Zweck-WG, gemischte WG","Sprache/n: Deutsch, Englisch, Spanisch",Geschlecht egal zwischen 23 und 33 Jahren
https://www.wg-gesucht.de/wg-zimmer-in-Nurnberg.8706622.html,332€,525€,Wodanstraße 2 90461 Nürnberg,01.07.2021,20m² Zimmer in 4er WG,Wohnungsgröße: 120m²,4er WG ( 3 Frauen ),,Rauchen auf dem Balkon erlaubt,"Studenten-WG, keine Zweck-WG, Vegetarisch/Vegan, LGBTQIA+","Sprache/n: Deutsch, Englisch",Geschlecht egal zwischen 20 und 28 Jahren
https://www.wg-gesucht.de/wg-zimmer-in-Nurnberg-Gostenhof.5406376.html,457€,1005€,Petzoltstraße 6 90443 Nürnberg Gostenhof,01.09.2021,22m² Zimmer in 4er WG,Wohnungsgröße: 148m²,4er WG ( 3 Frauen ),Bewohneralter: 21 bis 34 Jahre,Rauchen auf dem Balkon erlaubt,"keine Zweck-WG, gemischte WG","Sprache/n: Deutsch, Englisch, Französisch",Frau zwischen 20 und 35 Jahren
https://www.wg-gesucht.de/wg-zimmer-in-Nurnberg-Roethenbach-b-Schweinau.8718097.html,400€,1000€,Röthenbacherhauptstr 90449 Nürnberg Röthenbach b.Schweinau,01.07.2021,17m² Zimmer in 2er WG,Wohnungsgröße: 57m²,2er WG ( 1 Mann ),Bewohneralter: 18 bis 35 Jahre,Rauchen nicht erwünscht,"Berufstätigen-WG, gemischte WG",Sprache/n: Deutsch,Geschlecht egal zwischen 18 und 35 Jahren
https://www.wg-gesucht.de/wg-zimmer-in-Nurnberg-Steinbuhl.4550812.html,320€,640€,Heynestrasse 20 90443 Nürnberg Steinbühl,01.07.2021,16m² Zimmer in 3er WG,Wohnungsgröße: 76m²,3er WG ( 1 Frau und 1 Mann ),Bewohneralter: 23 bis 27 Jahre,Rauchen nicht erwünscht,"Studenten-WG, Berufstätigen-WG","Sprache/n: Deutsch, Englisch",Geschlecht egal zwischen 20 und 27 Jahren
https://www.wg-gesucht.de/wg-zimmer-in-Nurnberg-Falkenheim.7293005.html,320€,320€,Saarstr. 90469 Nürnberg Falkenheim,30.12.2021,25m² Zimmer in 3er WG,Wohnungsgröße: 75m²,3er WG ( 2 Frauen ),Bewohneralter: 16 bis 40 Jahre,Rauchen nicht erwünscht,Frauen-WG,Sprache/n: Deutsch,Frau zwischen 18 und 40 Jahren
https://www.wg-gesucht.de/wg-zimmer-in-Nurnberg-Maxfeld.8617060.html,484€,750€,Innere Koberger Str. 90408 Nürnberg Maxfeld,12.06.2021,16m² Zimmer in 2er WG,Wohnungsgröße: 70m²,2er WG ( 1 Frau ),Bewohneralter: ab 38 Jahre,Rauchen auf dem Balkon erlaubt,"Business-WG, Berufstätigen-WG, gemischte WG, LGBTQIA+, Internationals welcome, WG-Neugründung","Sprache/n: Deutsch, Englisch, Spanisch, Französisch",Geschlecht egal zwischen 25 und 99 Jahren
https://www.wg-gesucht.de/wg-zimmer-in-Nurnberg-Woehrd.8423801.html,400€,1000€,Lenbachstraße 3 90489 Nürnberg Wöhrd,12.06.2021,18m² Zimmer in 2er WG,Wohnungsgröße: 58m²,2er WG ( 1 Frau ),Bewohneralter: ab 25 Jahre,Rauchen nicht erwünscht,"Zweck-WG, Studenten-WG, Frauen-WG, keine Zweck-WG, gemischte WG, LGBTQIA+","Sprache/n: Deutsch, Englisch",Geschlecht egal zwischen 19 und 36 Jahren
https://www.wg-gesucht.de/wg-zimmer-in-Nurnberg-Eberhardshof.5442776.html,380€,700€,hans- thoma- str 36 90431 Nürnberg Eberhardshof,01.07.2021,13m² Zimmer in 3er WG,Wohnungsgröße: 70m²,3er WG ( 2 Männer ),,Rauchen nicht erwünscht,"Studenten-WG, Frauen-WG, Männer-WG, Berufstätigen-WG, keine Zweck-WG, Vegetarisch/Vegan, Internationals welcome","Sprache/n: Deutsch, Englisch",Geschlecht egal
https://www.wg-gesucht.de/wg-zimmer-in-Nurnberg-Gibitzenhof.8391959.html,273€,532€,Dr-Luppe-Platz 3 90443 Nürnberg Gibitzenhof,01.07.2021,15m² Zimmer in 3er WG,Wohnungsgröße: 78m²,3er WG ( 1 Frau und 1 Mann ),Bewohneralter: 26 bis 32 Jahre,Rauchen im Zimmer erlaubt,gemischte WG,"Sprache/n: Deutsch, Englisch, Spanisch, Französisch",Geschlecht egal zwischen 20 und 35 Jahren
https://www.wg-gesucht.de/wg-zimmer-in-Nurnberg-Gaerten-h-d-Veste.5606070.html,350€,450€,Innerer Kleinreuther Weg 90408 Nürnberg Gärten h.d.Veste,01.08.2021,13m² Zimmer in 3er WG,Wohnungsgröße: 78m²,3er WG ( 2 Frauen ),Bewohneralter: 23 bis 34 Jahre,Rauchen nicht erwünscht,"Berufstätigen-WG, gemischte WG, funktionale WG","Sprache/n: Deutsch, Englisch, Rumänisch",Frau ab 25 Jahren
https://www.wg-gesucht.de/wg-zimmer-in-Nurnberg-Glockenhof.8620365.html,378€,750€,Keplerstr. 9 90478 Nürnberg Glockenhof,11.06.2021,15m² Zimmer in 3er WG,Wohnungsgröße: 83m²,3er WG ( 2 Männer ),,Rauchen nicht erwünscht,"Studenten-WG, Berufstätigen-WG, keine Zweck-WG, gemischte WG, LGBTQIA+","Sprache/n: Deutsch, Englisch, Chinesisch",Geschlecht egal zwischen 20 und 30 Jahren
https://www.wg-gesucht.de/wg-zimmer-in-Nurnberg-Gibitzenhof.7287473.html,364€,550€,Burgundenstrasse 12 90461 Nürnberg Gibitzenhof,01.08.2021,9m² Zimmer in 3er WG,Wohnungsgröße: 75m²,3er WG ( 2 Männer ),Bewohneralter: 22 bis 30 Jahre,Rauchen nicht erwünscht,"Studenten-WG, Berufstätigen-WG, gemischte WG","Sprache/n: Deutsch, Englisch",Geschlecht egal zwischen 19 und 30 Jahren
https://www.wg-gesucht.de/wg-zimmer-in-Nurnberg-Galgenhof.8714897.html,485€,1290€,Herwigstraße 90459 Nürnberg Galgenhof,01.08.2021,17m² Zimmer in 3er WG,Wohnungsgröße: 110m²,3er WG ( 1 Frau und 1 Mann ),Bewohneralter: 26 bis 28 Jahre,Rauchen auf dem Balkon erlaubt,"Studenten-WG, Berufstätigen-WG, keine Zweck-WG, gemischte WG, WG-Neugründung","Sprache/n: Deutsch, Englisch, Arabisch",Geschlecht egal zwischen 25 und 32 Jahren
https://www.wg-gesucht.de/wg-zimmer-in-Nurnberg-St-Peter.8593472.html,390€,550€,Kirchenstr. 34 90478 Nürnberg St Peter,11.06.2021,18m² Zimmer in 3er WG,Wohnungsgröße: 84m²,3er WG ( 1 Mann ),Bewohneralter: 20 bis 25 Jahre,Rauchen nicht erwünscht,"Studenten-WG, Berufstätigen-WG, Azubi-WG, gemischte WG","Sprache/n: Deutsch, Englisch",Geschlecht egal zwischen 18 und 25 Jahren
https://www.wg-gesucht.de/wg-zimmer-in-Nurnberg-Sudstadt.8705979.html,346€,440€,"Pillenreuther Straße, 37 90459 Nürnberg Südstadt",01.07.2021,14m² Zimmer in 3er WG,Wohnungsgröße: 65m²,3er WG ( 2 Frauen ),Bewohneralter: 19 bis 20 Jahre,Rauchen im Zimmer erlaubt,"Studenten-WG, gemischte WG","Sprache/n: Deutsch, Englisch",Geschlecht egal zwischen 19 und 30 Jahren
https://www.wg-gesucht.de/wg-zimmer-in-Nurnberg-Schniegling.8697206.html,370€,1000€,Schnieglinger Str. 264 90427 Nürnberg Schniegling,01.07.2021,17m² Zimmer in 4er WG,,4er WG ( 2 Frauen und 1 Mann ),Bewohneralter: 27 bis 33 Jahre,Rauchen auf dem Balkon erlaubt,"Berufstätigen-WG, keine Zweck-WG, gemischte WG","Sprache/n: Deutsch, Englisch, Spanisch",Geschlecht egal
https://www.wg-gesucht.de/wg-zimmer-in-Nurnberg-Gaerten-h-d-Veste.8714466.html,332€,566€,Bucherstr. 50 90408 Nürnberg Gärten h.d.Veste,15.07.2021,20m² Zimmer in 3er WG,Wohnungsgröße: 82m²,3er WG ( 2 Frauen ),Bewohneralter: 22 bis 24 Jahre,Rauchen nicht erwünscht,"Studenten-WG, Frauen-WG, Berufstätigen-WG, gemischte WG",Sprache/n: Deutsch,Frau zwischen 18 und 30 Jahren
https://www.wg-gesucht.de/wg-zimmer-in-Nurnberg-Eberhardshof.8544770.html,370€,700€,Hans-Thoma-Str.14 90431 Nürnberg Eberhardshof,11.06.2021,12m² Zimmer in 3er WG,Wohnungsgröße: 70m²,3er WG ( 2 Männer ),,Rauchen nicht erwünscht,"Studenten-WG, Männer-WG, Berufstätigen-WG, Internationals welcome","Sprache/n: Deutsch, Englisch",Mann
https://www.wg-gesucht.de/wg-zimmer-in-Nurnberg-St-Johannis.8599286.html,430€,720€,St.-Johannis-Mühlgasse 2a 90419 Nürnberg St Johannis,11.06.2021,16m² Zimmer in 3er WG,,3er WG ( 2 Frauen ),Bewohneralter: 19 bis 20 Jahre,Rauchen nicht erwünscht,"Studenten-WG, Azubi-WG, keine Zweck-WG, gemischte WG",Sprache/n: Deutsch,Geschlecht egal zwischen 18 und 26 Jahren
https://www.wg-gesucht.de/wg-zimmer-in-Nurnberg-Maxfeld.7925352.html,450€,900€,"Tuchergartenstraße, 14 90409 Nürnberg Maxfeld",15.06.2021,16m² Zimmer in 3er WG,Wohnungsgröße: 75m²,3er WG,,Rauchen auf dem Balkon erlaubt,"Zweck-WG, Studenten-WG, Frauen-WG, Berufstätigen-WG, keine Zweck-WG, gemischte WG","Sprache/n: Deutsch, Englisch",Geschlecht egal
https://www.wg-gesucht.de/wg-zimmer-in-Nurnberg-Leyh.1635876.html,330€,200€,Stübacher str 90431 Nürnberg Leyh,01.08.2021,13m² Zimmer in 2er WG,,2er WG ( 1 Mann ),Bewohneralter: bis 33 Jahre,Rauchen nicht erwünscht,"Zweck-WG, Berufstätigen-WG, gemischte WG",Sprache/n: Deutsch,Geschlecht egal bis 33 Jahren
https://www.wg-gesucht.de/wg-zimmer-in-Nurnberg-Schoppershof.6816669.html,345€,700€,Kasseler Str 2 90491 Nürnberg Schoppershof,01.07.2021,17m² Zimmer in 4er WG,Wohnungsgröße: 105m²,4er WG ( 1 Frau und 2 Männer ),Bewohneralter: 19 bis 30 Jahre,Rauchen nicht erwünscht,gemischte WG,Sprache/n: Deutsch,Geschlecht egal zwischen 21 und 30 Jahren
https://www.wg-gesucht.de/wg-zimmer-in-Nurnberg-Sundersbuhl.8720500.html,360€, ,Holzschuherstraße 19 90439 Nürnberg Sündersbühl,01.08.2021,11m² Zimmer in 3er WG,Wohnungsgröße: 100m²,3er WG ( 2 Frauen ),Bewohneralter: 21 bis 25 Jahre,gemischte WG,"Sprache/n: Deutsch, Englisch",Geschlecht egal, 
