URL,rent,deposit,address,date,line 1,line 2,line 3,line 4,line 5,line 6,line 7,line 8
https://www.wg-gesucht.de/wg-zimmer-in-Nurnberg-Galgenhof.8645587.html,390€,390€,Ammanstraße - Galgenhof 90459 Nürnberg Galgenhof,01.07.2021,15m² Zimmer in 4er WG,,4er WG ( 2 Frauen ),Bewohneralter: 18 bis 30 Jahre,Rauchen nicht erwünscht,"Studenten-WG, Internationals welcome","Sprache/n: Deutsch, Englisch",Frau zwischen 18 und 30 Jahren
https://www.wg-gesucht.de/wg-zimmer-in-Nurnberg-Glockenhof.8090963.html,485€,1200€,Glockenhofstr. 44 90478 Nürnberg Glockenhof,01.09.2021,18m² Zimmer in 2er WG,Wohnungsgröße: 49m²,2er WG ( 1 Frau ),Bewohneralter: 23 bis 28 Jahre,Rauchen nicht erwünscht,"Studenten-WG, Berufstätigen-WG, keine Zweck-WG, gemischte WG","Sprache/n: Deutsch, Englisch",Geschlecht egal zwischen 22 und 32 Jahren
https://www.wg-gesucht.de/wg-zimmer-in-Nurnberg-Gostenhof.7874395.html,325€,500€,Roonstraße 90429 Nürnberg Gostenhof,15.07.2021,22m² Zimmer in 5er WG,Wohnungsgröße: 160m²,5er WG ( 3 Frauen und 1 Mann ),Bewohneralter: 22 bis 29 Jahre,Rauchen auf dem Balkon erlaubt,"keine Zweck-WG, gemischte WG, LGBTQIA+","Sprache/n: Deutsch, Englisch",Geschlecht egal zwischen 25 und 35 Jahren
https://www.wg-gesucht.de/wg-zimmer-in-Nurnberg-Sebald.8699794.html,245€,400€,Burgstraße 90403 Nürnberg Sebald,01.07.2021,12m² Zimmer in 3er WG,Wohnungsgröße: 70m²,3er WG ( 1 Frau und 1 Mann ),Bewohneralter: 24 bis 26 Jahre,"keine Zweck-WG, gemischte WG, LGBTQIA+","Sprache/n: Deutsch, Englisch",Geschlecht egal zwischen 20 und 30 Jahren, 
https://www.wg-gesucht.de/wg-zimmer-in-Nurnberg-Nurnberg--Mitte.8648682.html,290€,500€,"Fürther Straße, 174 A 90429 Nürnberg Nürnberg - Mitte",01.07.2021,16m² Zimmer in 2er WG,Wohnungsgröße: 65m²,2er WG ( 1 Frau ),Bewohneralter: 25 bis 60 Jahre,Rauchen nicht erwünscht,gemischte WG,"Sprache/n: Deutsch, Englisch",Geschlecht egal zwischen 25 und 60 Jahren
