URL,rent,deposit,address,date,line 1,line 2,line 3,line 4,line 5,line 6,line 7,line 8
https://www.wg-gesucht.de/wg-zimmer-in-Wurzburg-Veitshoechheim.3020992.html,410€,780€,Am Schenkenfeld 14 E 97209 Würzburg Veitshöchheim,13.06.2021,18m² Zimmer in 4er WG,Wohnungsgröße: 140m²,4er WG ( 1 Mann ),Bewohneralter: 20 bis 25 Jahre,Rauchen nicht erwünscht,"Studenten-WG, keine Zweck-WG, gemischte WG",Sprache/n: Deutsch,Geschlecht egal zwischen 20 und 25 Jahren
https://www.wg-gesucht.de/wg-zimmer-in-Wurzburg-Sanderau.8365285.html,510€,1020€,Arndtstraße 6 97072 Würzburg Sanderau,01.08.2021,16m² Zimmer in 4er WG,Wohnungsgröße: 90m²,4er WG ( 3 Frauen ),Bewohneralter: 19 bis 23 Jahre,Rauchen nicht erwünscht,"Studenten-WG, Frauen-WG, keine Zweck-WG, LGBTQIA+","Sprache/n: Deutsch, Englisch",Frau zwischen 18 und 28 Jahren
https://www.wg-gesucht.de/wg-zimmer-in-Wurzburg-Frauenland.8726337.html,510€,800€,Doktor-Georg-Fuchs-Straße 22 97074 Würzburg Frauenland,01.08.2021,12m² Zimmer in 3er WG,Wohnungsgröße: 110m²,3er WG ( 2 Frauen ),,Rauchen auf dem Balkon erlaubt,"Frauen-WG, Berufstätigen-WG",,Geschlecht egal zwischen 20 und 30 Jahren
https://www.wg-gesucht.de/wg-zimmer-in-Wurzburg-Sanderau.5024127.html,449€,269€,Neubergstrasse 97072 Würzburg Sanderau,01.07.2021,21m² Zimmer in 2er WG,,2er WG ( 1 Mann ),,Rauchen nicht erwünscht,"Studenten-WG, Männer-WG, Business-WG, Berufstätigen-WG, keine Zweck-WG, Vegetarisch/Vegan",Sprache/n: Deutsch,Mann zwischen 20 und 40 Jahren
https://www.wg-gesucht.de/wg-zimmer-in-Wurzburg-Altstadt.8675131.html,450€,595€,Innerer Graben 15 97070 Würzburg Altstadt,01.08.2021,20m² Zimmer in 2er WG,Wohnungsgröße: 70m²,2er WG ( 1 Mann ),Bewohneralter: ab 41 Jahre,Rauchen auf dem Balkon erlaubt,"Berufstätigen-WG, keine Zweck-WG, gemischte WG",Sprache/n: Deutsch,Geschlecht egal zwischen 20 und 45 Jahren
https://www.wg-gesucht.de/wg-zimmer-in-Wurzburg-Sanderau.8725857.html,295€,200€,Franz-Ludwig-Str.4 97072 Würzburg Sanderau,01.09.2021,18m² Zimmer in 3er WG,Wohnungsgröße: 62m²,3er WG ( 1 Frau ),Bewohneralter: 23 bis 23 Jahre,Rauchen auf dem Balkon erlaubt,"Studenten-WG, Frauen-WG, keine Zweck-WG, gemischte WG, Vegetarisch/Vegan","Sprache/n: Deutsch, Englisch",Geschlecht egal zwischen 19 und 30 Jahren
https://www.wg-gesucht.de/wg-zimmer-in-Wurzburg-Sanderau.8726067.html,255€,185€,Franz-ludwig-str.4 97072 Würzburg Sanderau,01.08.2021,14m² Zimmer in 3er WG,Wohnungsgröße: 62m²,3er WG ( 1 Frau ),Bewohneralter: 23 bis 23 Jahre,Rauchen auf dem Balkon erlaubt,"Studenten-WG, Frauen-WG, keine Zweck-WG, gemischte WG, Vegetarisch/Vegan","Sprache/n: Deutsch, Englisch",Geschlecht egal zwischen 19 und 30 Jahren
https://www.wg-gesucht.de/wg-zimmer-in-Wurzburg-Altstadt.8664974.html,475€, ,Kaiserplatz 97070 Würzburg Altstadt,01.08.2021,20m² Zimmer in 2er WG,Wohnungsgröße: 62m²,2er WG ( 1 Frau ),Bewohneralter: ab 21 Jahre,Studenten-WG,"Sprache/n: Deutsch, Englisch",Frau zwischen 20 und 27 Jahren, 
https://www.wg-gesucht.de/wg-zimmer-in-Wurzburg-Steinbachtal.5384381.html,200€,0€,Mergentheimer Str. 14 97082 Würzburg Steinbachtal,01.07.2021,20m² Zimmer in 6er WG,Wohnungsgröße: 700m²,6er WG ( 3 Männer ),Bewohneralter: 17 bis 30 Jahre,Rauchen auf dem Balkon erlaubt,"Studenten-WG, Männer-WG, Wohnheim, Verbindung, keine Zweck-WG","Sprache/n: Deutsch, Englisch",Mann zwischen 17 und 27 Jahren
https://www.wg-gesucht.de/wg-zimmer-in-Wurzburg-Sanderau.8674326.html,450€,950€,Sieboldstraße 97072 Würzburg Sanderau,01.09.2021,16m² Zimmer in 3er WG,Wohnungsgröße: 75m²,3er WG ( 2 Männer ),Bewohneralter: 22 bis 23 Jahre,Rauchen nicht erwünscht,"Studenten-WG, keine Zweck-WG",Sprache/n: Deutsch,Geschlecht egal zwischen 18 und 25 Jahren
https://www.wg-gesucht.de/wg-zimmer-in-Wurzburg-Lindleinsmuhle.8725517.html,380€,680€,Am Schwarzenberg 35 97078 Würzburg Lindleinsmühle,01.08.2021,15m² Zimmer in 3er WG,Wohnungsgröße: 85m²,3er WG ( 2 Männer ),Bewohneralter: ab 20 Jahre,Rauchen nicht erwünscht,"Studenten-WG, gemischte WG",Sprache/n: Deutsch,Frau zwischen 18 und 23 Jahren
https://www.wg-gesucht.de/wg-zimmer-in-Wurzburg-Sanderau.8710492.html,350€,700€,Hirschberger Straße 5 Würzburg Sanderau,01.07.2021,12m² Zimmer in 3er WG,,3er WG ( 2 Frauen ),Bewohneralter: 23 bis 24 Jahre,Rauchen auf dem Balkon erlaubt,gemischte WG,,Geschlecht egal zwischen 20 und 30 Jahren
https://www.wg-gesucht.de/wg-zimmer-in-Wurzburg-Sanderau.8717542.html,320€,500€,Schillerstr. 11 97072 Würzburg Sanderau,01.08.2021,14m² Zimmer in 3er WG,,3er WG ( 1 Frau und 1 Mann ),,"Studenten-WG, keine Zweck-WG, gemischte WG","Sprache/n: Deutsch, Englisch, Finnisch, Spanisch, Türkisch, Schwedisch",Geschlecht egal, 
https://www.wg-gesucht.de/wg-zimmer-in-Wurzburg-Grombuhl.8069391.html,359€,420€,Petrinistrasse 19 97080 Würzburg Grombühl,15.08.2021,19m² Zimmer in 2er WG,Wohnungsgröße: 55m²,2er WG ( 1 Frau ),Bewohneralter: 19 bis 32 Jahre,Rauchen auf dem Balkon erlaubt,"Studenten-WG, keine Zweck-WG, gemischte WG","Sprache/n: Deutsch, Englisch, Französisch, Italienisch",Geschlecht egal zwischen 20 und 30 Jahren
https://www.wg-gesucht.de/wg-zimmer-in-Wurzburg-Frauenland.5204121.html,170€,340€,Edelstraße 11 97074 Würzburg Frauenland,14.06.2021,18m² Zimmer in 6er WG,,6er WG ( 5 Männer ),Bewohneralter: 18 bis 23 Jahre,Rauchen auf dem Balkon erlaubt,"Studenten-WG, Männer-WG, Wohnheim, Verbindung, keine Zweck-WG",Sprache/n: Deutsch,Mann zwischen 17 und 25 Jahren
https://www.wg-gesucht.de/wg-zimmer-in-Wurzburg-Zellerau.8483641.html,395€,420€,Wilhelm-Dahl-Str. 97082 Würzburg Zellerau,15.06.2021,20m² Zimmer in 2er WG,Wohnungsgröße: 70m²,2er WG ( 1 Mann ),,Rauchen nicht erwünscht,"Berufstätigen-WG, keine Zweck-WG","Sprache/n: Deutsch, Englisch, Französisch",Geschlecht egal zwischen 25 und 40 Jahren
https://www.wg-gesucht.de/wg-zimmer-in-Wurzburg-Altstadt.8703445.html,529€,980€,Ludwigstraße 28 97070 Würzburg Altstadt,01.07.2021,18m² Zimmer in 3er WG,Wohnungsgröße: 77m²,3er WG ( 2 Männer ),Bewohneralter: 22 bis 25 Jahre,Rauchen nicht erwünscht,"Studenten-WG, Berufstätigen-WG, gemischte WG","Sprache/n: Deutsch, Englisch, Spanisch",Geschlecht egal zwischen 18 und 30 Jahren
https://www.wg-gesucht.de/wg-zimmer-in-Wurzburg-Sanderau.8713091.html,449€,269€,Neubergstrasse 97072 Würzburg Sanderau,01.07.2021,21m² Zimmer in 2er WG,,2er WG ( 1 Mann ),,Rauchen nicht erwünscht,"Studenten-WG, Männer-WG, Business-WG, Berufstätigen-WG, keine Zweck-WG, Vegetarisch/Vegan",Sprache/n: Deutsch,Mann zwischen 20 und 40 Jahren
https://www.wg-gesucht.de/wg-zimmer-in-Wurzburg-Altstadt.8710585.html,325€,500€,Theaterstr. 4 97070 Würzburg Altstadt,01.07.2021,18m² Zimmer in 3er WG,Wohnungsgröße: 100m²,3er WG ( 1 Frau und 1 Mann ),Bewohneralter: 22 bis 23 Jahre,Rauchen nicht erwünscht,Studenten-WG,"Sprache/n: Deutsch, Englisch",Geschlecht egal
https://www.wg-gesucht.de/wg-zimmer-in-Wurzburg-Altstadt.8698661.html,425€,250€,Zwinger 12 97070 Würzburg Altstadt,01.07.2021,21m² Zimmer in 3er WG,Wohnungsgröße: 100m²,3er WG ( 1 Frau und 1 Mann ),Bewohneralter: 28 bis 29 Jahre,Rauchen nicht erwünscht,"Studenten-WG, Berufstätigen-WG, keine Zweck-WG, gemischte WG","Sprache/n: Deutsch, Englisch, Italienisch",Geschlecht egal zwischen 25 und 35 Jahren
https://www.wg-gesucht.de/wg-zimmer-in-Wurzburg-Grombuhl.8701631.html,437€,680€,Schiestlstraße 97080 Würzburg Grombühl,01.07.2021,16m² Zimmer in 2er WG,Wohnungsgröße: 56m²,2er WG ( 1 Frau ),Bewohneralter: bis 25 Jahre,Rauchen nicht erwünscht,"Studenten-WG, Frauen-WG","Sprache/n: Deutsch, Englisch",Frau ab 21 Jahren
https://www.wg-gesucht.de/wg-zimmer-in-Wurzburg-Wurzburg.8725873.html,375€, ,Erthalstraße 22A 97074 Würzburg Würzburg,15.07.2021,20m² Zimmer in 3er WG,,3er WG ( 2 Frauen ),Bewohneralter: 20 bis 23 Jahre,"Studenten-WG, keine Zweck-WG",Sprache/n: Deutsch,Geschlecht egal, 
https://www.wg-gesucht.de/wg-zimmer-in-Wurzburg-Zellerau.8725739.html,350€, ,Moltkestraße 2 97082 Würzburg Zellerau,16.08.2021,18m² Zimmer in 3er WG,,3er WG,,Rauchen auf dem Balkon erlaubt,Studenten-WG,,Geschlecht egal zwischen 18 und 30 Jahren
https://www.wg-gesucht.de/wg-zimmer-in-Wurzburg-Altstadt.8717739.html,470€,500€,Rosengasse 97070 Würzburg Altstadt,15.08.2021,18m² Zimmer in 3er WG,Wohnungsgröße: 80m²,3er WG ( 1 Frau und 1 Mann ),Bewohneralter: 21 bis 25 Jahre,"Studenten-WG, keine Zweck-WG, gemischte WG","Sprache/n: Deutsch, Englisch",Geschlecht egal ab 21 Jahren, 
https://www.wg-gesucht.de/wg-zimmer-in-Wurzburg-Grombuhl.8725793.html,270€, ,Lindleinstrasse 97080 Würzburg Grombühl,15.06.2021,16m² Zimmer in 2er WG,Wohnungsgröße: 57m²,2er WG ( 1 Mann ),,"Zweck-WG, Berufstätigen-WG, gemischte WG, Internationals welcome","Sprache/n: Deutsch, Englisch",Geschlecht egal, 
https://www.wg-gesucht.de/wg-zimmer-in-Wurzburg-Grombuhl.8725627.html,300€,510€,Steinheilstraße 24 97080 Würzburg Grombühl,01.07.2021,12m² Zimmer in 4er WG,,4er WG ( 3 Frauen ),Bewohneralter: 22 bis 25 Jahre,Rauchen auf dem Balkon erlaubt,"Studenten-WG, keine Zweck-WG, LGBTQIA+",,Geschlecht egal zwischen 18 und 30 Jahren
https://www.wg-gesucht.de/wg-zimmer-in-Wurzburg-Steinbachtal.6316076.html,215€,300€,Leutfresserweg 97082 Würzburg Steinbachtal,01.07.2021,15m² Zimmer in 6er WG,,6er WG ( 4 Männer ),Bewohneralter: 20 bis 25 Jahre,Rauchen im Zimmer erlaubt,"Studenten-WG, Männer-WG, keine Zweck-WG",,Mann zwischen 18 und 30 Jahren
https://www.wg-gesucht.de/wg-zimmer-in-Wurzburg-Zellerau.8702809.html,310€,555€,Rotenhanstraße 7 97082 Würzburg Zellerau,16.08.2021,11m² Zimmer in 3er WG,,3er WG ( 1 Frau und 1 Mann ),Bewohneralter: 21 bis 24 Jahre,Rauchen nicht erwünscht,Studenten-WG,"Sprache/n: Deutsch, Englisch",Geschlecht egal
https://www.wg-gesucht.de/wg-zimmer-in-Wurzburg-Altstadt.6247616.html,330€,400€,Röntgenring 7 97070 Würzburg Altstadt,15.08.2021,14m² Zimmer in 3er WG,Wohnungsgröße: 76m²,3er WG ( 2 Frauen ),Bewohneralter: 22 bis 27 Jahre,Rauchen nicht erwünscht,"Studenten-WG, Berufstätigen-WG, keine Zweck-WG","Sprache/n: Deutsch, Englisch",Geschlecht egal zwischen 20 und 30 Jahren
https://www.wg-gesucht.de/wg-zimmer-in-Wurzburg-Frauenland.6795869.html,230€,230€,Rottendorferstr. 27 97074 Würzburg Frauenland,13.06.2021,16m² Zimmer in 6er WG,Wohnungsgröße: 300m²,6er WG ( 4 Männer ),Bewohneralter: 19 bis 25 Jahre,Rauchen auf dem Balkon erlaubt,"Studenten-WG, Männer-WG, keine Zweck-WG","Sprache/n: Deutsch, Englisch",Mann zwischen 18 und 26 Jahren
https://www.wg-gesucht.de/wg-zimmer-in-Wurzburg-Frauenland.8725519.html,197€,200€,Martin-Luther Str.13 97072 Würzburg Frauenland,26.07.2021,13m² Zimmer in 16er WG,,16er WG ( 8 Frauen und 7 Männer ),,Rauchen auf dem Balkon erlaubt,"Studenten-WG, gemischte WG","Sprache/n: Deutsch, Englisch",Geschlecht egal
https://www.wg-gesucht.de/wg-zimmer-in-Wurzburg-Altstadt.8660031.html,417€, ,"Neydeckgasse, 1 97082 Würzburg Altstadt",01.08.2021,16m² Zimmer in 2er WG,Wohnungsgröße: 54m²,2er WG ( 1 Frau ),Bewohneralter: ab 21 Jahre,Rauchen nicht erwünscht,"Berufstätigen-WG, keine Zweck-WG, gemischte WG","Sprache/n: Deutsch, Englisch",Frau zwischen 18 und 25 Jahren
https://www.wg-gesucht.de/wg-zimmer-in-Wurzburg-Gerbrunn.8677242.html,250€,250€,Georg-Heppel-Str. 1A 97218 Würzburg Gerbrunn,15.06.2021,12m² Zimmer in 5er WG,,5er WG ( 3 Frauen und 1 Mann ),,"keine Zweck-WG, gemischte WG","Sprache/n: Deutsch, Englisch",Frau bis 30 Jahren, 
https://www.wg-gesucht.de/wg-zimmer-in-Wurzburg-Sanderau.8696074.html,449€,269€,Neubergstrasse 97072 Würzburg Sanderau,01.07.2021,21m² Zimmer in 2er WG,,2er WG ( 1 Mann ),,Rauchen nicht erwünscht,"Studenten-WG, Männer-WG, Business-WG, Berufstätigen-WG, keine Zweck-WG, Vegetarisch/Vegan",Sprache/n: Deutsch,Mann zwischen 20 und 40 Jahren
https://www.wg-gesucht.de/wg-zimmer-in-Wurzburg-Zellerau.8691379.html,435€,800€,Wrederstraße 1 97082 Würzburg Zellerau,13.06.2021,20m² Zimmer in 3er WG,,3er WG ( 2 Frauen ),Bewohneralter: 20 bis 25 Jahre,"Studenten-WG, Berufstätigen-WG, keine Zweck-WG","Sprache/n: Deutsch, Englisch, Spanisch",Geschlecht egal zwischen 20 und 30 Jahren, 
https://www.wg-gesucht.de/wg-zimmer-in-Wurzburg-Frauenland.8711933.html,435€,700€,Johannes-Kepler-Str. 4 97074 Würzburg Frauenland,01.08.2021,16m² Zimmer in 4er WG,,4er WG ( 3 Frauen ),Bewohneralter: 22 bis 24 Jahre,Rauchen nicht erwünscht,"Studenten-WG, Berufstätigen-WG, Azubi-WG, keine Zweck-WG",,Geschlecht egal
https://www.wg-gesucht.de/wg-zimmer-in-Wurzburg-Steinbachtal.5177529.html,180€,360€,Mergentheimerstraße 60 97082 Würzburg Steinbachtal,01.07.2021,15m² Zimmer in 7er WG,Wohnungsgröße: 200m²,7er WG ( 6 Männer ),Bewohneralter: 18 bis 26 Jahre,Rauchen auf dem Balkon erlaubt,"Studenten-WG, Männer-WG, Wohnheim",Sprache/n: Deutsch,Mann zwischen 18 und 26 Jahren
https://www.wg-gesucht.de/wg-zimmer-in-Wurzburg-Zellerau.7101961.html,215€,200€,Fröhlichstraße 10 97082 Würzburg Zellerau,01.07.2021,10m² Zimmer in 4er WG,,4er WG ( 3 Frauen ),Bewohneralter: 24 bis 26 Jahre,Rauchen auf dem Balkon erlaubt,"Studenten-WG, Berufstätigen-WG, keine Zweck-WG, gemischte WG","Sprache/n: Deutsch, Englisch, Spanisch",Geschlecht egal
https://www.wg-gesucht.de/wg-zimmer-in-Wurzburg-Sanderau.8660328.html,380€,930€,Friedenstraße 63 97072 Würzburg Sanderau,13.06.2021,14m² Zimmer in 3er WG,Wohnungsgröße: 85m²,3er WG ( 1 Frau und 1 Mann ),Bewohneralter: 28 bis 28 Jahre,Rauchen auf dem Balkon erlaubt,"Studenten-WG, Berufstätigen-WG, keine Zweck-WG, gemischte WG","Sprache/n: Deutsch, Englisch, Spanisch, Französisch, Italienisch",Geschlecht egal zwischen 24 und 35 Jahren
https://www.wg-gesucht.de/wg-zimmer-in-Wurzburg-Steinbachtal.3937909.html,170€,1€,Mergentheimerstraße 46 97082 Würzburg Steinbachtal,14.06.2021,25m² Zimmer in 7er WG,Wohnungsgröße: 350m²,7er WG ( 6 Männer ),Bewohneralter: 19 bis 27 Jahre,Rauchen überall erlaubt,"Studenten-WG, Verbindung, keine Zweck-WG","Sprache/n: Deutsch, Englisch, Französisch",Mann zwischen 18 und 28 Jahren
https://www.wg-gesucht.de/wg-zimmer-in-Wurzburg-Sanderau.6119527.html,295€,400€,Felix-Dahn-Straße 97072 Würzburg Sanderau,01.08.2021,15m² Zimmer in 4er WG,Wohnungsgröße: 87m²,4er WG ( 1 Frau und 2 Männer ),Bewohneralter: 25 bis 30 Jahre,Rauchen auf dem Balkon erlaubt,gemischte WG,Sprache/n: Deutsch,Frau zwischen 22 und 30 Jahren
https://www.wg-gesucht.de/wg-zimmer-in-Wurzburg-Sanderau.8676706.html,449€,269€,Neubergstrasse 97072 Würzburg Sanderau,01.07.2021,21m² Zimmer in 2er WG,,2er WG ( 1 Mann ),,Rauchen nicht erwünscht,"Studenten-WG, Männer-WG, Business-WG, Berufstätigen-WG, keine Zweck-WG, Vegetarisch/Vegan",Sprache/n: Deutsch,Mann zwischen 20 und 40 Jahren
https://www.wg-gesucht.de/wg-zimmer-in-Wurzburg-Altstadt.8710436.html,421€,500€,Dürerstraße 97072 Würzburg Altstadt,01.09.2021,13m² Zimmer in 4er WG,Wohnungsgröße: 140m²,4er WG ( 2 Frauen und 1 Mann ),Bewohneralter: 21 bis 25 Jahre,Rauchen auf dem Balkon erlaubt,"keine Zweck-WG, gemischte WG, LGBTQIA+","Sprache/n: Deutsch, Englisch",Geschlecht egal zwischen 20 und 30 Jahren
https://www.wg-gesucht.de/wg-zimmer-in-Wurzburg-Altstadt.8599053.html,325€, ,Seelbergstraße 5 97072 Würzburg Altstadt,18.06.2021,19m² Zimmer in 3er WG,,3er WG ( 1 Frau und 1 Mann ),,"Studenten-WG, Berufstätigen-WG, keine Zweck-WG, gemischte WG",Sprache/n: Deutsch,Geschlecht egal, 
https://www.wg-gesucht.de/wg-zimmer-in-Wurzburg-Altstadt.7118055.html,401€,625€,Ziegelaustraße 2 97080 Würzburg Altstadt,16.08.2021,18m² Zimmer in 4er WG,Wohnungsgröße: 120m²,4er WG ( 2 Frauen und 1 Mann ),Bewohneralter: 27 bis 30 Jahre,Rauchen auf dem Balkon erlaubt,"Berufstätigen-WG, keine Zweck-WG, gemischte WG","Sprache/n: Deutsch, Englisch",Geschlecht egal zwischen 23 und 35 Jahren
https://www.wg-gesucht.de/wg-zimmer-in-Wurzburg-Grombuhl.8725270.html,412€,810€,Schiestlstraße 44 97080 Würzburg Grombühl,01.08.2021,16m² Zimmer in 2er WG,Wohnungsgröße: 57m²,2er WG ( 1 Frau ),Bewohneralter: ab 23 Jahre,Rauchen im Zimmer erlaubt,"Studenten-WG, Frauen-WG, keine Zweck-WG, LGBTQIA+",,Frau zwischen 20 und 30 Jahren
https://www.wg-gesucht.de/wg-zimmer-in-Wurzburg-Zellerau.7371931.html,335€,400€,Weißenburgstraße 97082 Würzburg Zellerau,16.07.2021,17m² Zimmer in 2er WG,,2er WG ( 1 Frau ),Bewohneralter: 20 bis 20 Jahre,Rauchen auf dem Balkon erlaubt,"Studenten-WG, Frauen-WG, keine Zweck-WG, gemischte WG","Sprache/n: Deutsch, Englisch",Geschlecht egal zwischen 18 und 28 Jahren
https://www.wg-gesucht.de/wg-zimmer-in-Wurzburg-Altstadt.8725156.html,291€,300€,Oberthürstr. 6 97070 Würzburg Altstadt,01.08.2021,16m² Zimmer in 2er WG,Wohnungsgröße: 57m²,2er WG ( 1 Frau ),Bewohneralter: ab 23 Jahre,"Studenten-WG, keine Zweck-WG, gemischte WG","Sprache/n: Deutsch, Englisch, Spanisch",Geschlecht egal ab 20 Jahren, 
https://www.wg-gesucht.de/wg-zimmer-in-Wurzburg-Steinbachtal.5165227.html,170€,120€,Mergentheimer Str. 50 97082 Würzburg Steinbachtal,13.06.2021,15m² Zimmer in 10er WG,Wohnungsgröße: 500m²,10er WG ( 6 Männer ),Bewohneralter: 18 bis 34 Jahre,Rauchen auf dem Balkon erlaubt,"Studenten-WG, Männer-WG, Verbindung, keine Zweck-WG, LGBTQIA+","Sprache/n: Deutsch, Englisch",Mann
https://www.wg-gesucht.de/wg-zimmer-in-Wurzburg-Heidingsfeld.8698842.html,405€,700€,Steigerfurtweg 97084 Würzburg Heidingsfeld,15.07.2021,10m² Zimmer in 4er WG,Wohnungsgröße: 100m²,4er WG ( 1 Frau und 1 Mann ),Bewohneralter: 26 bis 28 Jahre,Rauchen auf dem Balkon erlaubt,"Studenten-WG, Berufstätigen-WG, keine Zweck-WG, LGBTQIA+",Sprache/n: Deutsch,Geschlecht egal zwischen 18 und 35 Jahren
https://www.wg-gesucht.de/wg-zimmer-in-Wurzburg-Sanderau.8654049.html,475€,800€,Friedrich-Spee-Str. 19 97072 Würzburg Sanderau,01.07.2021,13m² Zimmer in 2er WG,Wohnungsgröße: 54m²,2er WG ( 1 Frau ),Bewohneralter: ab 24 Jahre,Rauchen nicht erwünscht,"Berufstätigen-WG, keine Zweck-WG","Sprache/n: Deutsch, Englisch",Divers
https://www.wg-gesucht.de/wg-zimmer-in-Wurzburg-Frauenland.8679827.html,222€,400€,Mönchbergstraße 27 97074 Würzburg Frauenland,01.07.2021,12m² Zimmer in 11er WG,,11er WG ( 3 Frauen und 7 Männer ),Bewohneralter: 19 bis 30 Jahre,Rauchen auf dem Balkon erlaubt,Studenten-WG,Sprache/n: Deutsch,Geschlecht egal zwischen 16 und 30 Jahren
https://www.wg-gesucht.de/wg-zimmer-in-Wurzburg-Frauenland.4564732.html,160€,500€,Salvatorstraße 16 97074 Würzburg Frauenland,13.06.2021,18m² Zimmer in 8er WG,,8er WG ( 6 Männer ),Bewohneralter: 19 bis 25 Jahre,Rauchen auf dem Balkon erlaubt,"Studenten-WG, Männer-WG, Verbindung, keine Zweck-WG","Sprache/n: Deutsch, Englisch",Mann zwischen 18 und 25 Jahren
https://www.wg-gesucht.de/wg-zimmer-in-Wurzburg-Grombuhl.8716244.html,365€,700€,Nürnberger Straße 18a 97076 Würzburg Grombühl,01.08.2021,16m² Zimmer in 2er WG,Wohnungsgröße: 54m²,2er WG ( 1 Mann ),Bewohneralter: ab 26 Jahre,Rauchen auf dem Balkon erlaubt,"Studenten-WG, Berufstätigen-WG, keine Zweck-WG, WG-Neugründung","Sprache/n: Deutsch, Englisch",Geschlecht egal zwischen 18 und 40 Jahren
https://www.wg-gesucht.de/wg-zimmer-in-Wurzburg-Frauenland.7546834.html,425€,650€,Seinsheimstraße 8 97074 Würzburg Frauenland,01.07.2021,15m² Zimmer in 2er WG,Wohnungsgröße: 55m²,2er WG ( 1 Frau ),Bewohneralter: ab 25 Jahre,Rauchen auf dem Balkon erlaubt,"Studenten-WG, keine Zweck-WG, gemischte WG",,Frau zwischen 23 und 35 Jahren
https://www.wg-gesucht.de/wg-zimmer-in-Wurzburg-Wurzburg.8715954.html,300€,500€,Rotscheibengasse 97070 Würzburg Würzburg,01.08.2021,22m² Zimmer in 3er WG,Wohnungsgröße: 75m²,3er WG ( 1 Frau und 1 Mann ),Bewohneralter: 23 bis 24 Jahre,Rauchen nicht erwünscht,"Studenten-WG, keine Zweck-WG","Sprache/n: Deutsch, Englisch",Geschlecht egal zwischen 18 und 35 Jahren
https://www.wg-gesucht.de/wg-zimmer-in-Wurzburg-Unterdurrbach.7349698.html,355€,750€,Hopfenberg 2 97080 Würzburg Unterdürrbach,01.08.2021,19m² Zimmer in 5er WG,Wohnungsgröße: 125m²,5er WG ( 4 Frauen ),Bewohneralter: 19 bis 24 Jahre,Rauchen auf dem Balkon erlaubt,"Studenten-WG, keine Zweck-WG, gemischte WG","Sprache/n: Deutsch, Englisch, Französisch",Mann zwischen 18 und 30 Jahren
https://www.wg-gesucht.de/wg-zimmer-in-Wurzburg-Altstadt.8335003.html,440€,764€,Sanderring 5 97070 Würzburg Altstadt,01.07.2021,14m² Zimmer in 2er WG,Wohnungsgröße: 62m²,2er WG ( 1 Mann ),Bewohneralter: ab 22 Jahre,Rauchen nicht erwünscht,"Studenten-WG, keine Zweck-WG","Sprache/n: Deutsch, Englisch",Geschlecht egal zwischen 20 und 27 Jahren
https://www.wg-gesucht.de/wg-zimmer-in-Wurzburg-Heidingsfeld.7966129.html,325€,504€,Münchgasse 4 97084 Würzburg Heidingsfeld,01.07.2021,13m² Zimmer in 3er WG,Wohnungsgröße: 95m²,3er WG ( 1 Frau und 1 Mann ),Bewohneralter: 20 bis 26 Jahre,Rauchen nicht erwünscht,"Studenten-WG, keine Zweck-WG, gemischte WG","Sprache/n: Deutsch, Englisch",Geschlecht egal zwischen 19 und 27 Jahren
https://www.wg-gesucht.de/wg-zimmer-in-Wurzburg-Sanderau.7040658.html,350€,650€,Konradstraße 19 97072 Würzburg Sanderau,01.08.2021,16m² Zimmer in 3er WG,Wohnungsgröße: 67m²,3er WG ( 1 Frau und 1 Mann ),Bewohneralter: 30 bis 35 Jahre,Rauchen auf dem Balkon erlaubt,"Berufstätigen-WG, keine Zweck-WG, gemischte WG",Sprache/n: Deutsch,Frau zwischen 25 und 38 Jahren
https://www.wg-gesucht.de/wg-zimmer-in-Wurzburg-Frauenland.8657865.html,390€,450€,Seinsheimstraße 3 97074 Würzburg Frauenland,15.06.2021,18m² Zimmer in 3er WG,,3er WG ( 1 Mann ),Bewohneralter: 23 bis 25 Jahre,Rauchen nicht erwünscht,"Studenten-WG, keine Zweck-WG, gemischte WG, LGBTQIA+, Internationals welcome","Sprache/n: Deutsch, Englisch",Geschlecht egal zwischen 18 und 30 Jahren
https://www.wg-gesucht.de/wg-zimmer-in-Wurzburg-Sanderau.8724769.html,300€,540€,Franz-Ludwig-Strasse 3 97072 Würzburg Sanderau,01.07.2021,12m² Zimmer in 6er WG,Wohnungsgröße: 120m²,6er WG ( 5 Männer ),Bewohneralter: 18 bis 26 Jahre,Rauchen nicht erwünscht,"Studenten-WG, Berufstätigen-WG, keine Zweck-WG, gemischte WG","Sprache/n: Deutsch, Englisch",Geschlecht egal zwischen 18 und 30 Jahren
https://www.wg-gesucht.de/wg-zimmer-in-Wurzburg-Steinbachtal.7479261.html,190€,190€,Mergentheimer Straße 32 97082 Würzburg Steinbachtal,01.10.2021,18m² Zimmer in 2er WG,,2er WG ( 1 Mann ),Bewohneralter: 18 bis 25 Jahre,"Studenten-WG, Verbindung",Sprache/n: Deutsch,Mann zwischen 18 und 25 Jahren, 
https://www.wg-gesucht.de/wg-zimmer-in-Wurzburg-Steinbachtal.2874162.html,150€,150€,Mergentheimer Straße 32 97082 Würzburg Steinbachtal,01.10.2021,15m² Zimmer in 4er WG,,4er WG ( 3 Männer ),Bewohneralter: 18 bis 25 Jahre,Rauchen auf dem Balkon erlaubt,"Studenten-WG, Verbindung",Sprache/n: Deutsch,Mann zwischen 18 und 27 Jahren
https://www.wg-gesucht.de/wg-zimmer-in-Wurzburg-Altstadt.6969828.html,460€,460€,Sanderstraße 29 97070 Würzburg Altstadt,15.06.2021,24m² Zimmer in 3er WG,Wohnungsgröße: 95m²,3er WG ( 2 Männer ),Bewohneralter: 21 bis 25 Jahre,Rauchen auf dem Balkon erlaubt,"Studenten-WG, Verbindung",Sprache/n: Deutsch,Mann zwischen 17 und 28 Jahren
https://www.wg-gesucht.de/wg-zimmer-in-Wurzburg-Zellerau.8691040.html,340€,510€,Neidertstraße 97082 Würzburg Zellerau,14.06.2021,11m² Zimmer in 5er WG,Wohnungsgröße: 150m²,5er WG ( 4 Männer ),Bewohneralter: 25 bis 29 Jahre,Rauchen auf dem Balkon erlaubt,keine Zweck-WG,Sprache/n: Deutsch,Geschlecht egal
https://www.wg-gesucht.de/wg-zimmer-in-Wurzburg-Steinbachtal.5194065.html,150€,450€,Judenbühlweg 7 97082 Würzburg Steinbachtal,13.06.2021,21m² Zimmer in 8er WG,,8er WG ( 5 Männer ),Bewohneralter: 19 bis 25 Jahre,Rauchen auf dem Balkon erlaubt,"Studenten-WG, Verbindung","Sprache/n: Deutsch, Englisch",Mann zwischen 18 und 28 Jahren
https://www.wg-gesucht.de/wg-zimmer-in-Wurzburg-Zellerau.6481740.html,400€,400€,Fasbenderstraße 23 97082 Würzburg Zellerau,01.08.2021,15m² Zimmer in 3er WG,Wohnungsgröße: 70m²,3er WG ( 2 Frauen ),Bewohneralter: 29 bis 33 Jahre,Rauchen auf dem Balkon erlaubt,"Studenten-WG, Berufstätigen-WG","Sprache/n: Deutsch, Englisch, Italienisch",Geschlecht egal zwischen 20 und 35 Jahren
https://www.wg-gesucht.de/wg-zimmer-in-Wurzburg-Zellerau.8724778.html,249€, ,Scherenbergstraße 97082 Würzburg Zellerau,12.06.2021,15m² Zimmer in 4er WG,Wohnungsgröße: 105m²,4er WG ( 1 Frau und 2 Männer ),Bewohneralter: 22 bis 30 Jahre,"Berufstätigen-WG, keine Zweck-WG",,Geschlecht egal, 
https://www.wg-gesucht.de/wg-zimmer-in-Wurzburg-Altstadt.8724005.html,470€,1050€,Bahnhofstraße 97070 Würzburg Altstadt,01.07.2021,22m² Zimmer in 3er WG,Wohnungsgröße: 104m²,3er WG ( 2 Männer ),,Studenten-WG,Sprache/n: Deutsch,Geschlecht egal, 
https://www.wg-gesucht.de/wg-zimmer-in-Wurzburg-Sanderau.8715314.html,483€, ,"Konradstraße, 13 97072 Würzburg Sanderau",01.08.2021,18m² Zimmer in 2er WG,Wohnungsgröße: 75m²,2er WG ( 1 Frau ),Bewohneralter: ab 22 Jahre,"Studenten-WG, Frauen-WG, keine Zweck-WG, gemischte WG","Sprache/n: Deutsch, Englisch",Geschlecht egal zwischen 18 und 26 Jahren, 
https://www.wg-gesucht.de/wg-zimmer-in-Wurzburg-Grombuhl.8649923.html,315€,443€,Grombühlstraße 30 97080 Würzburg Grombühl,01.07.2021,13m² Zimmer in 3er WG,Wohnungsgröße: 70m²,3er WG ( 1 Frau und 1 Mann ),Bewohneralter: 20 bis 23 Jahre,Rauchen nicht erwünscht,"Studenten-WG, keine Zweck-WG, gemischte WG",Sprache/n: Deutsch,Geschlecht egal zwischen 19 und 23 Jahren
https://www.wg-gesucht.de/wg-zimmer-in-Wurzburg-Sanderau.8689499.html,309€,458€,Adresse auf Anfrage 97072 Würzburg Sanderau,01.07.2021,14m² Zimmer in 4er WG,,4er WG ( 2 Frauen und 1 Mann ),,"keine Zweck-WG, gemischte WG","Sprache/n: Deutsch, Englisch, Italienisch",Geschlecht egal ab 20 Jahren, 
https://www.wg-gesucht.de/wg-zimmer-in-Wurzburg-Wurzburg.8708208.html,295€,465€,Kaiserstraße 33 97070 Würzburg Würzburg,01.07.2021,12m² Zimmer in 5er WG,Wohnungsgröße: 160m²,5er WG ( 3 Frauen und 1 Mann ),Bewohneralter: 21 bis 23 Jahre,"Studenten-WG, keine Zweck-WG","Sprache/n: Deutsch, Englisch, Spanisch, Französisch, Italienisch",Geschlecht egal zwischen 20 und 32 Jahren, 
https://www.wg-gesucht.de/wg-zimmer-in-Wurzburg-Altstadt.8654933.html,340€,690€,Konradstraße 17 97072 Würzburg Altstadt,01.07.2021,14m² Zimmer in 3er WG,,3er WG ( 2 Männer ),Bewohneralter: 26 bis 31 Jahre,Rauchen auf dem Balkon erlaubt,"Studenten-WG, Berufstätigen-WG, keine Zweck-WG, gemischte WG",Sprache/n: Deutsch,Geschlecht egal
https://www.wg-gesucht.de/wg-zimmer-in-Wurzburg-Altstadt.8114178.html,300€,350€,"Pommergasse, 1 97070 Würzburg Altstadt",26.06.2021,15m² Zimmer in 4er WG,,4er WG ( 3 Männer ),Bewohneralter: 22 bis 28 Jahre,Rauchen im Zimmer erlaubt,"Studenten-WG, keine Zweck-WG, gemischte WG","Sprache/n: Deutsch, Englisch",Geschlecht egal
https://www.wg-gesucht.de/wg-zimmer-in-Wurzburg-Altstadt-Sanderau.8679366.html,400€,500€,Bergmeistergasse 97070 Würzburg Altstadt/Sanderau,01.07.2021,30m² Zimmer in 3er WG,Wohnungsgröße: 110m²,3er WG ( 1 Frau und 1 Mann ),Bewohneralter: 25 bis 33 Jahre,Rauchen im Zimmer erlaubt,"Berufstätigen-WG, WG mit Kindern, keine Zweck-WG, gemischte WG, Vegetarisch/Vegan, LGBTQIA+, Internationals welcome","Sprache/n: Deutsch, Englisch",Geschlecht egal zwischen 23 und 40 Jahren
https://www.wg-gesucht.de/wg-zimmer-in-Wurzburg-Altstadt-Sanderau.8689808.html,400€,500€,Bergmeistergasse 97070 Würzburg Altstadt/Sanderau,01.07.2021,30m² Zimmer in 3er WG,Wohnungsgröße: 110m²,3er WG ( 1 Frau und 1 Mann ),Bewohneralter: 25 bis 33 Jahre,Rauchen im Zimmer erlaubt,"Berufstätigen-WG, WG mit Kindern, keine Zweck-WG, gemischte WG, Vegetarisch/Vegan, LGBTQIA+, Internationals welcome","Sprache/n: Deutsch, Englisch",Geschlecht egal zwischen 23 und 40 Jahren
https://www.wg-gesucht.de/wg-zimmer-in-Wurzburg-Sanderau.7899239.html,430€,800€,Randersackerer Str. 13 97072 Würzburg Sanderau,12.06.2021,14m² Zimmer in 3er WG,Wohnungsgröße: 69m²,3er WG ( 2 Frauen ),,Rauchen nicht erwünscht,"Studenten-WG, Berufstätigen-WG",,Geschlecht egal
https://www.wg-gesucht.de/wg-zimmer-in-Wurzburg-Sanderau.8722446.html,400€,500€,Sonnenstraße 97072 Würzburg Sanderau,01.08.2021,12m² Zimmer in 3er WG,Wohnungsgröße: 100m²,3er WG ( 1 Frau ),Bewohneralter: ab 34 Jahre,"Wohnen für Hilfe, inklusive WG, WG-Neugründung",,Geschlecht egal ab 20 Jahren, 
https://www.wg-gesucht.de/wg-zimmer-in-Wurzburg-Sanderau.8718387.html,360€,560€,Randersackerer Straße 24 97072 Würzburg Sanderau,01.07.2021,12m² Zimmer in 2er WG,Wohnungsgröße: 70m²,2er WG ( 1 Mann ),Bewohneralter: 21 bis 21 Jahre,Rauchen nicht erwünscht,Studenten-WG,Sprache/n: Deutsch,Geschlecht egal zwischen 18 und 24 Jahren
https://www.wg-gesucht.de/wg-zimmer-in-Wurzburg-Zellerau.8724100.html,344€,500€,Weißenburgstraße 35 97082 Würzburg Zellerau,15.08.2021,12m² Zimmer in 3er WG,,3er WG ( 2 Männer ),Bewohneralter: 26 bis 26 Jahre,Rauchen auf dem Balkon erlaubt,"gemischte WG, LGBTQIA+",Sprache/n: Deutsch,Geschlecht egal
https://www.wg-gesucht.de/wg-zimmer-in-Wurzburg-Altstadt.8260261.html,257€,200€,Hofstallstraße 4a 97070 Würzburg Altstadt,01.07.2021,10m² Zimmer in 7er WG,,7er WG ( 3 Frauen und 2 Männer ),Bewohneralter: 20 bis 23 Jahre,Studenten-WG,"Sprache/n: Deutsch, Englisch",Geschlecht egal zwischen 18 und 28 Jahren, 
https://www.wg-gesucht.de/wg-zimmer-in-Wurzburg-Altstadt.8722534.html,412€,600€,Theaterstraße 6 97070 Würzburg Altstadt,01.07.2021,15m² Zimmer in 3er WG,,3er WG ( 1 Frau und 1 Mann ),Bewohneralter: 20 bis 22 Jahre,Rauchen nicht erwünscht,"Studenten-WG, Berufstätigen-WG, gemischte WG, LGBTQIA+, Internationals welcome","Sprache/n: Deutsch, Englisch, Griechisch",Geschlecht egal
https://www.wg-gesucht.de/wg-zimmer-in-Wurzburg-Sanderau.8618484.html,410€,550€,Virchowstraße 7 97072 Würzburg Sanderau,01.07.2021,17m² Zimmer in 4er WG,Wohnungsgröße: 130m²,4er WG ( 2 Frauen und 1 Mann ),Bewohneralter: 21 bis 29 Jahre,"Studenten-WG, keine Zweck-WG, gemischte WG","Sprache/n: Deutsch, Englisch",Geschlecht egal zwischen 21 und 26 Jahren, 
https://www.wg-gesucht.de/wg-zimmer-in-Wurzburg-Sanderau.8724016.html,299€,800€,Friedrich-Ebert-Ring 97072 Würzburg Sanderau,01.08.2021,12m² Zimmer in 3er WG,,3er WG ( 1 Frau ),Bewohneralter: 22 bis 22 Jahre,Rauchen nicht erwünscht,"Studenten-WG, keine Zweck-WG","Sprache/n: Deutsch, Englisch",Geschlecht egal zwischen 20 und 28 Jahren
https://www.wg-gesucht.de/wg-zimmer-in-Wurzburg-Sanderau.8142907.html,449€,269€,Neubergstrasse 97072 Würzburg Sanderau,01.07.2021,21m² Zimmer in 2er WG,,2er WG ( 1 Mann ),,Rauchen nicht erwünscht,"Studenten-WG, Männer-WG, Business-WG, Berufstätigen-WG, keine Zweck-WG, Vegetarisch/Vegan",Sprache/n: Deutsch,Mann zwischen 20 und 40 Jahren
https://www.wg-gesucht.de/wg-zimmer-in-Wurzburg-Sanderau.8723978.html,380€,915€,Friedenstr.63 97072 Würzburg Sanderau,01.08.2021,16m² Zimmer in 3er WG,Wohnungsgröße: 94m²,3er WG ( 1 Frau und 1 Mann ),Bewohneralter: 25 bis 35 Jahre,Rauchen nicht erwünscht,"Studenten-WG, Berufstätigen-WG","Sprache/n: Deutsch, Englisch",Geschlecht egal zwischen 25 und 35 Jahren
https://www.wg-gesucht.de/wg-zimmer-in-Wurzburg-Grombuhl.5719671.html,371€,0€,Wagnerstr. 2 97080 Würzburg Grombühl,01.08.2021,15m² Zimmer in 2er WG,,2er WG ( 1 Mann ),Bewohneralter: 26 bis 26 Jahre,Rauchen nicht erwünscht,"Zweck-WG, Studenten-WG, Berufstätigen-WG","Sprache/n: Deutsch, Englisch",Mann zwischen 18 und 40 Jahren
https://www.wg-gesucht.de/wg-zimmer-in-Wurzburg-Lindleinsmuhle.7207214.html,400€,620€,Frankenstrasse 62 97078 Würzburg Lindleinsmühle,01.08.2021,34m² Zimmer in 6er WG,Wohnungsgröße: 169m²,6er WG ( 1 Frau und 2 Männer ),,Rauchen nicht erwünscht,"Studenten-WG, gemischte WG",Sprache/n: Deutsch,Geschlecht egal
https://www.wg-gesucht.de/wg-zimmer-in-Wurzburg-Frauenland.8695465.html,360€,400€,Barbarastraße 16 97074 Würzburg Frauenland,16.07.2021,19m² Zimmer in 3er WG,Wohnungsgröße: 80m²,3er WG ( 1 Frau und 1 Mann ),Bewohneralter: 23 bis 26 Jahre,Rauchen auf dem Balkon erlaubt,gemischte WG,,Geschlecht egal zwischen 18 und 30 Jahren
https://www.wg-gesucht.de/wg-zimmer-in-Wurzburg-Zellerau.8688440.html,249€, ,Scherenbergstraße 97082 Würzburg Zellerau,12.06.2021,15m² Zimmer in 4er WG,,4er WG ( 2 Frauen und 1 Mann ),Bewohneralter: 25 bis 30 Jahre,gemischte WG,Sprache/n: Deutsch,Geschlecht egal, 
https://www.wg-gesucht.de/wg-zimmer-in-Wurzburg-Wurzburg.8722191.html,335€,280€,Büttnerstraße 44 97070 Würzburg Würzburg,12.06.2021,18m² Zimmer in 3er WG,Wohnungsgröße: 19m²,3er WG ( 2 Frauen ),,Rauchen nicht erwünscht,"Studenten-WG, Frauen-WG, Berufstätigen-WG, keine Zweck-WG, gemischte WG",Sprache/n: Deutsch,Frau
https://www.wg-gesucht.de/wg-zimmer-in-Wurzburg-Grombuhl.8614172.html,354€,540€,Matterstockstraße 97080 Würzburg Grombühl,12.06.2021,20m² Zimmer in 2er WG,,2er WG ( 1 Frau ),Bewohneralter: 23 bis 25 Jahre,Rauchen nicht erwünscht,"Studenten-WG, Berufstätigen-WG, Azubi-WG, keine Zweck-WG",Sprache/n: Deutsch,Frau zwischen 20 und 29 Jahren
https://www.wg-gesucht.de/wg-zimmer-in-Wurzburg-Lindleinsmuhle.7186445.html,270€,360€,Frankenstrasse 62 97078 Würzburg Lindleinsmühle,01.08.2021,11m² Zimmer in 6er WG,Wohnungsgröße: 169m²,6er WG ( 3 Frauen und 2 Männer ),,Rauchen nicht erwünscht,Studenten-WG,Sprache/n: Deutsch,Geschlecht egal
https://www.wg-gesucht.de/wg-zimmer-in-Wurzburg-Altstadt.8721143.html,450€, ,Bronnbachergasse 10 97070 Würzburg Altstadt,01.07.2021,20m² Zimmer in 4er WG,Wohnungsgröße: 125m²,4er WG ( 3 Männer ),Bewohneralter: 26 bis 29 Jahre,Rauchen auf dem Balkon erlaubt,Studenten-WG,"Sprache/n: Deutsch, Englisch, Spanisch",Geschlecht egal
https://www.wg-gesucht.de/wg-zimmer-in-Wurzburg-Grombuhl.4859238.html,213€,350€,Rimparer Steig 4 97080 Würzburg Grombühl,15.09.2021,12m² Zimmer in 3er WG,Wohnungsgröße: 75m²,3er WG ( 1 Frau und 1 Mann ),Bewohneralter: 32 bis 39 Jahre,Rauchen nicht erwünscht,"Berufstätigen-WG, keine Zweck-WG, gemischte WG","Sprache/n: Deutsch, Englisch",Geschlecht egal zwischen 25 und 99 Jahren
https://www.wg-gesucht.de/wg-zimmer-in-Wurzburg-Altstadt.8618397.html,362€,750€,Hofstraße 10 97070 Würzburg Altstadt,12.06.2021,19m² Zimmer in 2er WG,,2er WG ( 1 Frau ),,Rauchen nicht erwünscht,"Studenten-WG, Frauen-WG",,Frau zwischen 18 und 30 Jahren
https://www.wg-gesucht.de/wg-zimmer-in-Wurzburg-Wurzburg.8649984.html,387€,0€,Friedenstraße 6 97072 Würzburg Würzburg,01.09.2021,27m² Zimmer in 6er WG,Wohnungsgröße: 209m²,6er WG ( 4 Frauen ),Bewohneralter: 22 bis 23 Jahre,Rauchen im Zimmer erlaubt,"Studenten-WG, keine Zweck-WG, gemischte WG","Sprache/n: Deutsch, Englisch",Geschlecht egal zwischen 18 und 35 Jahren
https://www.wg-gesucht.de/wg-zimmer-in-Wurzburg-Altstadt.8410367.html,351€,600€,"Neutorstraße, 5 97070 Würzburg Altstadt",01.07.2021,12m² Zimmer in 4er WG,Wohnungsgröße: 100m²,4er WG ( 3 Frauen ),Bewohneralter: 19 bis 25 Jahre,"Studenten-WG, keine Zweck-WG, gemischte WG","Sprache/n: Deutsch, Englisch, Spanisch, Französisch",Geschlecht egal, 
https://www.wg-gesucht.de/wg-zimmer-in-Wurzburg-Sanderau.8259356.html,500€, ,Arndtstraße 34 97072 Würzburg Sanderau,01.07.2021,14m² Zimmer in 2er WG,Wohnungsgröße: 83m²,2er WG ( 1 Mann ),,Rauchen auf dem Balkon erlaubt,"keine Zweck-WG, gemischte WG, Internationals welcome",,Geschlecht egal zwischen 21 und 29 Jahren
https://www.wg-gesucht.de/wg-zimmer-in-Wurzburg-Sanderau.8682359.html,405€,1210€,Scheffelstraße 9 97072 Würzburg Sanderau,16.07.2021,18m² Zimmer in 2er WG,Wohnungsgröße: 65m²,2er WG ( 1 Mann ),Bewohneralter: 25 bis 30 Jahre,Rauchen auf dem Balkon erlaubt,"Berufstätigen-WG, keine Zweck-WG, gemischte WG","Sprache/n: Deutsch, Englisch",Geschlecht egal zwischen 20 und 35 Jahren
https://www.wg-gesucht.de/wg-zimmer-in-Wurzburg-Heidingsfeld.8481221.html,355€,300€,Judenhof 4 97084 Würzburg Heidingsfeld,01.07.2021,16m² Zimmer in 4er WG,Wohnungsgröße: 130m²,4er WG ( 1 Frau und 2 Männer ),Bewohneralter: 22 bis 24 Jahre,Rauchen auf dem Balkon erlaubt,"Studenten-WG, Berufstätigen-WG, keine Zweck-WG, gemischte WG","Sprache/n: Deutsch, Englisch",Frau zwischen 20 und 30 Jahren
https://www.wg-gesucht.de/wg-zimmer-in-Wurzburg-Frauenland.8678532.html,460€,750€,Simon-Breu-Straße 97074 Würzburg Frauenland,01.07.2021,11m² Zimmer in 2er WG,Wohnungsgröße: 83m²,2er WG ( 1 Frau ),Bewohneralter: 28 bis 28 Jahre,Rauchen nicht erwünscht,"keine Zweck-WG, gemischte WG, LGBTQIA+, Internationals welcome","Sprache/n: Deutsch, Englisch",Geschlecht egal zwischen 25 und 35 Jahren
https://www.wg-gesucht.de/wg-zimmer-in-Wurzburg-Sanderau.8706897.html,290€,360€,Weingartenstr. 32 97072 Würzburg Sanderau,01.07.2021,12m² Zimmer in 4er WG,Wohnungsgröße: 80m²,4er WG ( 2 Männer ),Bewohneralter: 22 bis 27 Jahre,Rauchen auf dem Balkon erlaubt,"Studenten-WG, keine Zweck-WG","Sprache/n: Deutsch, Englisch",Frau
https://www.wg-gesucht.de/wg-zimmer-in-Wurzburg-Sanderau.8638869.html,356€,600€,Scheffelstraße 9 97072 Würzburg Sanderau,01.08.2021,15m² Zimmer in 2er WG,Wohnungsgröße: 65m²,2er WG ( 1 Frau ),Bewohneralter: ab 25 Jahre,keine Zweck-WG,"Sprache/n: Deutsch, Englisch",Geschlecht egal zwischen 22 und 30 Jahren, 
https://www.wg-gesucht.de/wg-zimmer-in-Wurzburg-Hoechberg.7913731.html,320€,470€,Seeweg 72a 97204 Würzburg Höchberg,01.08.2021,16m² Zimmer in 4er WG,,4er WG ( 2 Frauen und 1 Mann ),Bewohneralter: 23 bis 26 Jahre,Rauchen auf dem Balkon erlaubt,"Studenten-WG, Berufstätigen-WG, keine Zweck-WG, gemischte WG",Sprache/n: Deutsch,Geschlecht egal zwischen 23 und 30 Jahren
https://www.wg-gesucht.de/wg-zimmer-in-Wurzburg-Hoechberg.8697878.html,315€,460€,Seeweg 72a 97204 Würzburg Höchberg,01.08.2021,16m² Zimmer in 4er WG,Wohnungsgröße: 100m²,4er WG ( 2 Frauen und 1 Mann ),Bewohneralter: 23 bis 26 Jahre,Rauchen auf dem Balkon erlaubt,"Studenten-WG, Berufstätigen-WG, keine Zweck-WG, gemischte WG",Sprache/n: Deutsch,Geschlecht egal zwischen 23 und 30 Jahren
https://www.wg-gesucht.de/wg-zimmer-in-Wurzburg-Altstadt.8723194.html,430€,200€,Stephanstr 97070 Würzburg Altstadt,01.08.2021,12m² Zimmer in 3er WG,,3er WG ( 2 Frauen ),Bewohneralter: 23 bis 24 Jahre,Vegetarisch/Vegan,"Sprache/n: Deutsch, Englisch",Geschlecht egal, 
https://www.wg-gesucht.de/wg-zimmer-in-Wurzburg-Zellerau.7181250.html,310€,450€,"Georg-Eydel-Str., 21 97082 Würzburg Zellerau",01.08.2021,14m² Zimmer in 2er WG,,2er WG ( 1 Frau ),Bewohneralter: bis 23 Jahre,Rauchen nicht erwünscht,"Studenten-WG, keine Zweck-WG","Sprache/n: Deutsch, Englisch",Geschlecht egal zwischen 22 und 30 Jahren
https://www.wg-gesucht.de/wg-zimmer-in-Wurzburg-Grombuhl.8598985.html,370€,1100€,Brüknerstraße 97080 Würzburg Grombühl,01.07.2021,60m² Zimmer in 5er WG,,5er WG ( 1 Frau und 2 Männer ),Bewohneralter: bis 25 Jahre,"Studenten-WG, Berufstätigen-WG, keine Zweck-WG, gemischte WG","Sprache/n: Deutsch, Englisch, Französisch",Geschlecht egal bis 35 Jahren, 
https://www.wg-gesucht.de/wg-zimmer-in-Wurzburg-Altstadt.8723077.html,407€,450€,Karmelitenstr. 97070 Würzburg Altstadt,01.08.2021,18m² Zimmer in 2er WG,Wohnungsgröße: 65m²,2er WG ( 1 Frau ),Bewohneralter: ab 20 Jahre,Studenten-WG,,Frau, 
https://www.wg-gesucht.de/wg-zimmer-in-Wurzburg-Zellerau.7147297.html,271€,400€,Scherenbergstraße 97082 Würzburg Zellerau,01.07.2021,16m² Zimmer in 3er WG,Wohnungsgröße: 74m²,3er WG ( 1 Frau und 1 Mann ),Bewohneralter: 24 bis 31 Jahre,Rauchen im Zimmer erlaubt,"Zweck-WG, Studenten-WG, Berufstätigen-WG, keine Zweck-WG, gemischte WG","Sprache/n: Deutsch, Englisch",Geschlecht egal ab 22 Jahren
https://www.wg-gesucht.de/wg-zimmer-in-Wurzburg-Sanderau.8723010.html,370€,800€,Königsberger Straße 26 97072 Würzburg Sanderau,01.08.2021,10m² Zimmer in 3er WG,,3er WG ( 2 Frauen ),Bewohneralter: 26 bis 29 Jahre,Rauchen auf dem Balkon erlaubt,"Studenten-WG, keine Zweck-WG","Sprache/n: Deutsch, Englisch, Französisch",Geschlecht egal
https://www.wg-gesucht.de/wg-zimmer-in-Wurzburg-Sanderau.8717649.html,370€,800€,Königsberger Straße 26 97072 Würzburg Sanderau,01.08.2021,10m² Zimmer in 3er WG,,3er WG ( 2 Frauen ),Bewohneralter: 26 bis 28 Jahre,Rauchen auf dem Balkon erlaubt,"Studenten-WG, keine Zweck-WG","Sprache/n: Deutsch, Englisch, Französisch",Geschlecht egal
https://www.wg-gesucht.de/wg-zimmer-in-Wurzburg-Gerbrunn.8721384.html,291€,566€,Sieboldstraße 2 97218 Würzburg Gerbrunn,15.07.2021,15m² Zimmer in 4er WG,,4er WG ( 3 Männer ),Bewohneralter: 20 bis 25 Jahre,Rauchen auf dem Balkon erlaubt,"Studenten-WG, Berufstätigen-WG","Sprache/n: Deutsch, Englisch",Geschlecht egal
https://www.wg-gesucht.de/wg-zimmer-in-Wurzburg-Altstadt.6105319.html,340€,400€,Oberthürstraße 11a 97070 Würzburg Altstadt,01.08.2021,24m² Zimmer in 3er WG,Wohnungsgröße: 79m²,3er WG ( 2 Frauen ),Bewohneralter: 25 bis 28 Jahre,Rauchen nicht erwünscht,"Studenten-WG, Frauen-WG, keine Zweck-WG","Sprache/n: Deutsch, Englisch",Frau zwischen 22 und 30 Jahren
https://www.wg-gesucht.de/wg-zimmer-in-Wurzburg-Altstadt.8420674.html,300€,300€,Oberthürstraße 6 97070 Würzburg Altstadt,01.08.2021,16m² Zimmer in 2er WG,,2er WG ( 1 Frau ),Bewohneralter: ab 24 Jahre,Rauchen auf dem Balkon erlaubt,"gemischte WG, LGBTQIA+","Sprache/n: Deutsch, Englisch, Spanisch",Geschlecht egal zwischen 18 und 50 Jahren
https://www.wg-gesucht.de/wg-zimmer-in-Wurzburg-Altstadt.7973405.html,350€,400€,Untere Johannitergasse 7c 97070 Würzburg Altstadt,01.09.2021,14m² Zimmer in 2er WG,,2er WG,Bewohneralter: ab 20 Jahre,Rauchen nicht erwünscht,"Studenten-WG, keine Zweck-WG",,Geschlecht egal zwischen 18 und 30 Jahren
https://www.wg-gesucht.de/wg-zimmer-in-Wurzburg-Zellerau.8715560.html,402€, ,Bohlleitenweg 8 97082 Würzburg Zellerau,01.07.2021,16m² Zimmer in 4er WG,Wohnungsgröße: 100m²,4er WG ( 1 Frau und 2 Männer ),Bewohneralter: 20 bis 28 Jahre,Rauchen nicht erwünscht,"keine Zweck-WG, gemischte WG, Vegetarisch/Vegan, LGBTQIA+, Internationals welcome","Sprache/n: Englisch, Deutsch",Geschlecht egal zwischen 17 und 30 Jahren
https://www.wg-gesucht.de/wg-zimmer-in-Wurzburg-Sanderau.6080050.html,180€,300€,Sieboldstraße 12 97072 Würzburg Sanderau,11.06.2021,20m² Zimmer in 3er WG,,3er WG ( 2 Männer ),Bewohneralter: 18 bis 24 Jahre,Rauchen im Zimmer erlaubt,"Studenten-WG, Wohnheim",Sprache/n: Deutsch,Mann zwischen 16 und 28 Jahren
https://www.wg-gesucht.de/wg-zimmer-in-Wurzburg-Sanderau.5706458.html,190€,300€,Sieboldstraße 12 97072 Würzburg Sanderau,11.06.2021,20m² Zimmer in 5er WG,,5er WG ( 3 Männer ),Bewohneralter: 18 bis 29 Jahre,Rauchen im Zimmer erlaubt,"Studenten-WG, Männer-WG, Verbindung",Sprache/n: Deutsch,Mann zwischen 18 und 28 Jahren
https://www.wg-gesucht.de/wg-zimmer-in-Wurzburg-Sanderau.6951267.html,160€,300€,Sieboldstraße 12 97072 Würzburg Sanderau,11.06.2021,20m² Zimmer in 5er WG,,5er WG ( 3 Männer ),Bewohneralter: 18 bis 24 Jahre,Rauchen überall erlaubt,"Studenten-WG, Männer-WG, Wohnheim",Sprache/n: Deutsch,Mann zwischen 18 und 28 Jahren
https://www.wg-gesucht.de/wg-zimmer-in-Wurzburg-Sanderau.3560019.html,160€,300€,Sieboldstraße 12 97072 Würzburg Sanderau,11.06.2021,20m² Zimmer in 3er WG,,3er WG ( 2 Männer ),Bewohneralter: 21 bis 29 Jahre,Rauchen im Zimmer erlaubt,"Studenten-WG, Männer-WG",Sprache/n: Deutsch,Mann zwischen 17 und 26 Jahren
https://www.wg-gesucht.de/wg-zimmer-in-Wurzburg-Sanderau.7917819.html,445€,800€,Randersackerer Str. 13 97072 Würzburg Sanderau,01.07.2021,14m² Zimmer in 3er WG,Wohnungsgröße: 69m²,3er WG ( 2 Frauen ),Bewohneralter: 23 bis 23 Jahre,Rauchen nicht erwünscht,Studenten-WG,Sprache/n: Deutsch,Geschlecht egal zwischen 18 und 28 Jahren
https://www.wg-gesucht.de/wg-zimmer-in-Wurzburg-Sanderau-Altstadt.8659531.html,475€, ,Münzstr. 3 97070 Würzburg Sanderau/Altstadt,11.06.2021,20m² Zimmer in 3er WG,,3er WG ( 2 Männer ),Bewohneralter: 26 bis 31 Jahre,Rauchen auf dem Balkon erlaubt,"Studenten-WG, Berufstätigen-WG, gemischte WG","Sprache/n: Deutsch, Englisch",Geschlecht egal
https://www.wg-gesucht.de/wg-zimmer-in-Wurzburg-Altstadt.8583444.html,345€, ,Kroatengasse 11 97070 Würzburg Altstadt,01.09.2021,8m² Zimmer in 5er WG,Wohnungsgröße: 140m²,5er WG ( 2 Frauen und 2 Männer ),Bewohneralter: 21 bis 24 Jahre,Rauchen auf dem Balkon erlaubt,"Studenten-WG, Business-WG, keine Zweck-WG, gemischte WG, Plus-WG, inklusive WG","Sprache/n: Deutsch, Englisch, Türkisch, Tschechisch, Ungarisch",Geschlecht egal zwischen 18 und 28 Jahren
https://www.wg-gesucht.de/wg-zimmer-in-Wurzburg-Grombuhl.8601841.html,255€,380€,Grombühlstraße 32 97080 Würzburg Grombühl,13.06.2021,8m² Zimmer in 3er WG,,3er WG ( 2 Frauen ),Bewohneralter: 23 bis 24 Jahre,Rauchen nicht erwünscht,Studenten-WG,Sprache/n: Deutsch,Frau zwischen 20 und 30 Jahren
https://www.wg-gesucht.de/wg-zimmer-in-Wurzburg-Steinbachtal.6670056.html,575€,840€,Steinbachtal 10 97082 Würzburg Steinbachtal,01.09.2021,20m² Zimmer in 3er WG,Wohnungsgröße: 133m²,3er WG ( 2 Männer ),Bewohneralter: 30 bis 35 Jahre,Rauchen auf dem Balkon erlaubt,"Berufstätigen-WG, gemischte WG","Sprache/n: Deutsch, Englisch, Spanisch, Französisch",Geschlecht egal zwischen 20 und 40 Jahren
https://www.wg-gesucht.de/wg-zimmer-in-Wurzburg-Frauenland.8719641.html,680€,600€,Gerbrunner Weg 97074 Würzburg Frauenland,01.09.2021,30m² Zimmer in 7er WG,Wohnungsgröße: 350m²,7er WG ( 1 Frau und 1 Mann ),Bewohneralter: 30 bis 43 Jahre,Rauchen nicht erwünscht,"Berufstätigen-WG, WG mit Kindern, keine Zweck-WG, gemischte WG, Mehrgenerationen, WG-Neugründung",,Geschlecht egal zwischen 25 und 60 Jahren
https://www.wg-gesucht.de/wg-zimmer-in-Wurzburg-Altstadt.8700645.html,400€,500€,Schönleinstraße 9A 97080 Würzburg Altstadt,01.09.2021,20m² Zimmer in 3er WG,,3er WG ( 2 Frauen ),Bewohneralter: 20 bis 22 Jahre,Rauchen nicht erwünscht,Studenten-WG,"Sprache/n: Deutsch, Englisch",Frau zwischen 20 und 27 Jahren
https://www.wg-gesucht.de/wg-zimmer-in-Wurzburg-Frauenland.8722182.html,375€, ,Erthalstraße 22A 97074 Würzburg Frauenland,15.07.2021,20m² Zimmer in 3er WG,,3er WG ( 2 Frauen ),Bewohneralter: 20 bis 23 Jahre,Rauchen auf dem Balkon erlaubt,"Studenten-WG, keine Zweck-WG",Sprache/n: Deutsch,Geschlecht egal
https://www.wg-gesucht.de/wg-zimmer-in-Wurzburg-Heidingsfeld.8606636.html,410€, ,Schollergasse 97084 Würzburg Heidingsfeld,15.07.2021,23m² Zimmer in 4er WG,,4er WG ( 1 Frau und 2 Männer ),Bewohneralter: 18 bis 24 Jahre,Rauchen auf dem Balkon erlaubt,gemischte WG,Sprache/n: Deutsch,Geschlecht egal zwischen 18 und 28 Jahren
https://www.wg-gesucht.de/wg-zimmer-in-Wurzburg-Sanderau.8110281.html,455€, ,Tilsiter Straße 97072 Würzburg Sanderau,01.08.2021,26m² Zimmer in 2er WG,,2er WG ( 1 Frau ),Bewohneralter: 27 bis 27 Jahre,Rauchen nicht erwünscht,"Studenten-WG, keine Zweck-WG","Sprache/n: Deutsch, Englisch",Geschlecht egal zwischen 20 und 30 Jahren
https://www.wg-gesucht.de/wg-zimmer-in-Wurzburg-Zellerau.8707975.html,350€, ,Schere 97082 Würzburg Zellerau,15.08.2021,25m² Zimmer in 2er WG,,2er WG ( 1 Frau ),Bewohneralter: ab 28 Jahre,Rauchen auf dem Balkon erlaubt,"Studenten-WG, Berufstätigen-WG, gemischte WG","Sprache/n: Deutsch, Englisch",Geschlecht egal
https://www.wg-gesucht.de/wg-zimmer-in-Wurzburg-Sanderau.8643433.html,774€,0€,Friedenstraße 6 97072 Würzburg Sanderau,01.09.2021,53m² Zimmer in 6er WG,Wohnungsgröße: 209m²,6er WG ( 4 Frauen ),Bewohneralter: 22 bis 23 Jahre,Rauchen im Zimmer erlaubt,"Studenten-WG, keine Zweck-WG, gemischte WG","Sprache/n: Deutsch, Englisch",Geschlecht egal zwischen 18 und 35 Jahren
https://www.wg-gesucht.de/wg-zimmer-in-Wurzburg-Sanderau--Mainnaehe.8702053.html,412€,650€,Arndtstraße 97072 Würzburg Sanderau - Mainnähe,01.07.2021,20m² Zimmer in 3er WG,,3er WG ( 2 Frauen ),Bewohneralter: 20 bis 26 Jahre,Rauchen auf dem Balkon erlaubt,"gemischte WG, LGBTQIA+",,Geschlecht egal zwischen 20 und 28 Jahren
https://www.wg-gesucht.de/wg-zimmer-in-Wurzburg-Grombuhl.8713661.html,320€,320€,Schiestlstr. 12 97080 Würzburg Grombühl,01.07.2021,12m² Zimmer in 4er WG,Wohnungsgröße: 96m²,4er WG ( 2 Frauen und 1 Mann ),Bewohneralter: 19 bis 32 Jahre,Rauchen nicht erwünscht,"Studenten-WG, Berufstätigen-WG, keine Zweck-WG, gemischte WG","Sprache/n: Deutsch, Englisch",Geschlecht egal
https://www.wg-gesucht.de/wg-zimmer-in-Wurzburg-Steinbachtal.4346047.html,200€,25€,Nikolausstraße 21 97082 Würzburg Steinbachtal,14.06.2021,15m² Zimmer in 6er WG,Wohnungsgröße: 150m²,6er WG ( 3 Männer ),,"Studenten-WG, Männer-WG, Verbindung",Sprache/n: Deutsch,Mann, 
https://www.wg-gesucht.de/wg-zimmer-in-Wurzburg-Sanderau.8713592.html,451€,695€,Traubengasse 14 97072 Würzburg Sanderau,01.07.2021,16m² Zimmer in 2er WG,Wohnungsgröße: 65m²,2er WG ( 1 Frau ),Bewohneralter: ab 25 Jahre,Rauchen nicht erwünscht,"Studenten-WG, Berufstätigen-WG, keine Zweck-WG, gemischte WG","Sprache/n: Deutsch, Englisch",Geschlecht egal zwischen 20 und 33 Jahren
https://www.wg-gesucht.de/wg-zimmer-in-Wurzburg-Altstadt.8706342.html,310€, ,Kettengasse 16 97070 Würzburg Altstadt,21.07.2021,15m² Zimmer in 12er WG,Wohnungsgröße: 100m²,12er WG ( 6 Frauen und 5 Männer ),Bewohneralter: 21 bis 29 Jahre,Rauchen auf dem Balkon erlaubt,"Studenten-WG, keine Zweck-WG, gemischte WG","Sprache/n: Deutsch, Englisch, Arabisch, Spanisch, Französisch, Türkisch",Geschlecht egal
https://www.wg-gesucht.de/wg-zimmer-in-Wurzburg-Mainviertel.7842737.html,380€, ,Leistenstraße 17 97082 Würzburg Mainviertel,18.09.2021,16m² Zimmer in 4er WG,Wohnungsgröße: 100m²,4er WG ( 2 Frauen und 1 Mann ),Bewohneralter: 20 bis 25 Jahre,Rauchen nicht erwünscht,"Studenten-WG, keine Zweck-WG, LGBTQIA+","Sprache/n: Deutsch, Englisch, Schwedisch",Geschlecht egal zwischen 19 und 30 Jahren
https://www.wg-gesucht.de/wg-zimmer-in-Wurzburg-Altstadt.8720376.html,470€,1110€,Sanderstraße 6a Würzburg Altstadt,01.08.2021,16m² Zimmer in 4er WG,,4er WG ( 1 Frau und 2 Männer ),,"Studenten-WG, keine Zweck-WG, gemischte WG","Sprache/n: Deutsch, Englisch",Geschlecht egal, 
https://www.wg-gesucht.de/wg-zimmer-in-Wurzburg-Sanderau.5703087.html,150€,300€,Sanderglacisstr. 10 97072 Würzburg Sanderau,10.06.2021,20m² Zimmer in 6er WG,Wohnungsgröße: 600m²,6er WG ( 3 Männer ),Bewohneralter: 18 bis 26 Jahre,Rauchen überall erlaubt,"Studenten-WG, Männer-WG, Verbindung, keine Zweck-WG",Sprache/n: Deutsch,Mann zwischen 18 und 28 Jahren
https://www.wg-gesucht.de/wg-zimmer-in-Wurzburg-Zellerau.8662282.html,288€,530€,Schlossgasse 10 97082 Würzburg Zellerau,15.07.2021,12m² Zimmer in 3er WG,Wohnungsgröße: 50m²,3er WG ( 1 Frau und 1 Mann ),Bewohneralter: 21 bis 22 Jahre,"Studenten-WG, keine Zweck-WG, gemischte WG","Sprache/n: Deutsch, Englisch, Arabisch",Geschlecht egal, 
https://www.wg-gesucht.de/wg-zimmer-in-Wurzburg-Altstadt.8711921.html,360€, ,Semmelstraße 97070 Würzburg Altstadt,15.09.2021,9m² Zimmer in 2er WG,Wohnungsgröße: 60m²,2er WG ( 1 Frau ),,"Studenten-WG, keine Zweck-WG",,Geschlecht egal, 
https://www.wg-gesucht.de/wg-zimmer-in-Wurzburg-Altstadt.8663981.html,290€,500€,Kaiserstraße 97070 Würzburg Altstadt,01.07.2021,11m² Zimmer in 3er WG,Wohnungsgröße: 81m²,3er WG ( 1 Frau und 1 Mann ),Bewohneralter: 28 bis 29 Jahre,Rauchen nicht erwünscht,"Studenten-WG, keine Zweck-WG, gemischte WG","Sprache/n: Deutsch, Englisch",Geschlecht egal
https://www.wg-gesucht.de/wg-zimmer-in-Wurzburg-Lengfeld.8653613.html,290€,450€,Am Hölzlein 97076 Würzburg Lengfeld,01.08.2021,12m² Zimmer in 3er WG,Wohnungsgröße: 85m²,3er WG ( 1 Mann ),,Rauchen auf dem Balkon erlaubt,"Studenten-WG, Berufstätigen-WG, Azubi-WG, keine Zweck-WG, gemischte WG","Sprache/n: Deutsch, Englisch",Geschlecht egal zwischen 18 und 40 Jahren
https://www.wg-gesucht.de/wg-zimmer-in-Wurzburg-Lengfeld.7240006.html,310€,450€,Am Hölzlein / Pilziggrund 97076 Würzburg Lengfeld,01.07.2021,15m² Zimmer in 3er WG,Wohnungsgröße: 85m²,3er WG ( 1 Frau und 1 Mann ),,Rauchen auf dem Balkon erlaubt,"Studenten-WG, Berufstätigen-WG, Azubi-WG, keine Zweck-WG","Sprache/n: Deutsch, Englisch",Geschlecht egal
https://www.wg-gesucht.de/wg-zimmer-in-Wurzburg-Sanderau.8715090.html,399€,500€,Schießhausstraße 97072 Würzburg Sanderau,01.08.2021,16m² Zimmer in 4er WG,,4er WG ( 3 Frauen ),Bewohneralter: 21 bis 24 Jahre,Rauchen nicht erwünscht,"Studenten-WG, keine Zweck-WG","Sprache/n: Deutsch, Englisch",Geschlecht egal zwischen 18 und 30 Jahren
https://www.wg-gesucht.de/wg-zimmer-in-Wurzburg-Grombuhl.8639949.html,320€,320€,Schiestlstraße 12 97080 Würzburg Grombühl,14.06.2021,12m² Zimmer in 4er WG,,4er WG ( 2 Frauen und 1 Mann ),,Rauchen nicht erwünscht,"keine Zweck-WG, gemischte WG",,Geschlecht egal
https://www.wg-gesucht.de/wg-zimmer-in-Wurzburg-Sanderau.8721109.html,310€,600€,Arndtstraße 3 97072 Würzburg Sanderau,01.09.2021,10m² Zimmer in 4er WG,Wohnungsgröße: 90m²,4er WG ( 1 Frau und 2 Männer ),Bewohneralter: 21 bis 27 Jahre,Rauchen auf dem Balkon erlaubt,Studenten-WG,"Sprache/n: Deutsch, Englisch, Polnisch",Frau zwischen 20 und 28 Jahren
https://www.wg-gesucht.de/wg-zimmer-in-Wurzburg-Frauenland.8721116.html,260€,400€,Mönchbergstr. 27 97074 Würzburg Frauenland,01.07.2021,20m² Zimmer in 10er WG,,10er WG,Bewohneralter: 19 bis 26 Jahre,Rauchen auf dem Balkon erlaubt,"Studenten-WG, Wohnheim, LGBTQIA+, Internationals welcome",,Geschlecht egal
https://www.wg-gesucht.de/wg-zimmer-in-Wurzburg-Frauenland.8659609.html,430€,550€,Zweierweg 4 97074 Würzburg Frauenland,10.06.2021,20m² Zimmer in 6er WG,Wohnungsgröße: 180m²,6er WG ( 2 Frauen und 3 Männer ),Bewohneralter: 20 bis 24 Jahre,Rauchen auf dem Balkon erlaubt,"Studenten-WG, keine Zweck-WG, gemischte WG","Sprache/n: Deutsch, Englisch",Geschlecht egal zwischen 1 und 99 Jahren
https://www.wg-gesucht.de/wg-zimmer-in-Wurzburg-Altstadt.8720993.html,245€,370€,Altstadt 97070 Würzburg Altstadt,01.08.2021,10m² Zimmer in 2er WG,,2er WG ( 1 Frau ),Bewohneralter: bis 22 Jahre,Rauchen nicht erwünscht,Frauen-WG,Sprache/n: Deutsch,Frau
https://www.wg-gesucht.de/wg-zimmer-in-Wurzburg-Grombuhl.7486317.html,395€,300€,Enzelinstraße 97080 Würzburg Grombühl,01.07.2021,10m² Zimmer in 3er WG,Wohnungsgröße: 80m²,3er WG ( 2 Frauen ),Bewohneralter: 19 bis 22 Jahre,Rauchen auf dem Balkon erlaubt,"Studenten-WG, Frauen-WG, Azubi-WG, gemischte WG, funktionale WG",Sprache/n: Deutsch,Frau zwischen 18 und 28 Jahren
https://www.wg-gesucht.de/wg-zimmer-in-Wurzburg-Altstadt.7822755.html,520€,860€,Korngasse 12 97070 Würzburg Altstadt,01.09.2021,20m² Zimmer in 5er WG,Wohnungsgröße: 160m²,5er WG ( 1 Frau und 3 Männer ),Bewohneralter: 21 bis 30 Jahre,Rauchen auf dem Balkon erlaubt,"Studenten-WG, gemischte WG, LGBTQIA+","Sprache/n: Deutsch, Englisch, Polnisch",Geschlecht egal zwischen 20 und 30 Jahren
https://www.wg-gesucht.de/wg-zimmer-in-Wurzburg-Frauenland.8720570.html,340€,346€,Kantstraße 14 97074 Würzburg Frauenland,01.09.2021,19m² Zimmer in 3er WG,Wohnungsgröße: 78m²,3er WG ( 1 Frau und 1 Mann ),Bewohneralter: 21 bis 22 Jahre,Rauchen auf dem Balkon erlaubt,"Studenten-WG, keine Zweck-WG, gemischte WG, Vegetarisch/Vegan, LGBTQIA+, Internationals welcome","Sprache/n: Deutsch, Englisch",Geschlecht egal zwischen 19 und 25 Jahren
https://www.wg-gesucht.de/wg-zimmer-in-Wurzburg-Zellerau.6823256.html,400€,500€,Weißenburgstraße 97082 Würzburg Zellerau,15.07.2021,20m² Zimmer in 3er WG,,3er WG ( 2 Frauen ),Bewohneralter: 25 bis 28 Jahre,Rauchen nicht erwünscht,keine Zweck-WG,"Sprache/n: Deutsch, Englisch, Rumänisch",Geschlecht egal zwischen 25 und 35 Jahren
https://www.wg-gesucht.de/wg-zimmer-in-Wurzburg-Grombuhl.8706744.html,382€, ,Lindleinsmühle 97078 Würzburg Grombühl,01.07.2021,25m² Zimmer in 3er WG,,3er WG ( 2 Frauen ),Bewohneralter: 22 bis 24 Jahre,Rauchen nicht erwünscht,"Studenten-WG, keine Zweck-WG",Sprache/n: Deutsch,Geschlecht egal zwischen 20 und 25 Jahren
https://www.wg-gesucht.de/wg-zimmer-in-Wurzburg-Altstadt.8717505.html,262€,500€,Spiegelstraße 97070 Würzburg Altstadt,15.08.2021,16m² Zimmer in 3er WG,Wohnungsgröße: 70m²,3er WG ( 1 Frau und 1 Mann ),Bewohneralter: 20 bis 22 Jahre,Rauchen nicht erwünscht,"Studenten-WG, keine Zweck-WG","Sprache/n: Deutsch, Englisch",Geschlecht egal zwischen 20 und 30 Jahren
https://www.wg-gesucht.de/wg-zimmer-in-Wurzburg-Frauenland.8720243.html,310€, ,Annastraße 18 97072 Würzburg Frauenland,15.08.2021,25m² Zimmer in 3er WG,Wohnungsgröße: 90m²,3er WG,,gemischte WG,"Sprache/n: Deutsch, Englisch, Französisch",Geschlecht egal, 
https://www.wg-gesucht.de/wg-zimmer-in-Wurzburg-Sanderau.8720241.html,355€,500€,Kleiststraße 11 97072 Würzburg Sanderau,01.08.2021,16m² Zimmer in 3er WG,Wohnungsgröße: 76m²,3er WG ( 1 Frau und 1 Mann ),Bewohneralter: 18 bis 27 Jahre,Rauchen auf dem Balkon erlaubt,gemischte WG,Sprache/n: Deutsch,Geschlecht egal
https://www.wg-gesucht.de/wg-zimmer-in-Wurzburg-Altstadt.8707710.html,380€,400€,Heinestraße 14 97070 Würzburg Altstadt,01.08.2021,20m² Zimmer in 2er WG,Wohnungsgröße: 58m²,2er WG ( 1 Divers ),,Rauchen nicht erwünscht,"Studenten-WG, keine Zweck-WG, gemischte WG, LGBTQIA+, Internationals welcome","Sprache/n: Deutsch, Englisch",Geschlecht egal zwischen 18 und 30 Jahren
https://www.wg-gesucht.de/wg-zimmer-in-Wurzburg-Altstadt.8709717.html,350€,100€,Röntgenring 4 97070 Würzburg Altstadt,01.08.2021,15m² Zimmer in 3er WG,Wohnungsgröße: 81m²,3er WG ( 2 Frauen ),Bewohneralter: 23 bis 29 Jahre,Rauchen nicht erwünscht,"Studenten-WG, Berufstätigen-WG, keine Zweck-WG","Sprache/n: Deutsch, Englisch",Geschlecht egal zwischen 20 und 30 Jahren
https://www.wg-gesucht.de/wg-zimmer-in-Wurzburg-Frauenland.6401786.html,279€,316€,Scheffelstraße 3 97072 Würzburg Frauenland,01.07.2021,17m² Zimmer in 2er WG,,2er WG ( 1 Frau ),,"Studenten-WG, keine Zweck-WG, gemischte WG","Sprache/n: Deutsch, Englisch",Geschlecht egal, 
https://www.wg-gesucht.de/wg-zimmer-in-Wurzburg-Altstadt.8520056.html,400€,400€,Siligmüllerstraße 3 97072 Würzburg Altstadt,01.08.2021,14m² Zimmer in 2er WG,Wohnungsgröße: 55m²,2er WG ( 1 Frau ),,Rauchen nicht erwünscht,Studenten-WG,Sprache/n: Deutsch,Frau
https://www.wg-gesucht.de/wg-zimmer-in-Wurzburg-Frauenland.6568939.html,190€,380€,Edelstraße 11 97074 Würzburg Frauenland,14.06.2021,18m² Zimmer in 6er WG,,6er WG ( 5 Männer ),Bewohneralter: 18 bis 23 Jahre,Rauchen auf dem Balkon erlaubt,"Studenten-WG, keine Zweck-WG",Sprache/n: Deutsch,Mann zwischen 17 und 25 Jahren
https://www.wg-gesucht.de/wg-zimmer-in-Wurzburg-Lengfeld.5934928.html,500€, ,Am Sonnenhof 6 97076 Würzburg Lengfeld,10.06.2021,18m² Zimmer in 2er WG,Wohnungsgröße: 85m²,2er WG ( 1 Frau ),Bewohneralter: 25 bis 45 Jahre,Rauchen auf dem Balkon erlaubt,"Berufstätigen-WG, keine Zweck-WG","Sprache/n: Deutsch, Englisch",Geschlecht egal zwischen 20 und 45 Jahren
https://www.wg-gesucht.de/wg-zimmer-in-Wurzburg-Altstadt.8713950.html,310€, ,Semmelstraße 25 97070 Würzburg Altstadt,01.08.2021,17m² Zimmer in 3er WG,Wohnungsgröße: 79m²,3er WG ( 1 Frau ),Bewohneralter: ab 29 Jahre,Rauchen nicht erwünscht,gemischte WG,"Sprache/n: Deutsch, Englisch",Geschlecht egal zwischen 25 und 35 Jahren
https://www.wg-gesucht.de/wg-zimmer-in-Wurzburg-Frauenland.7551692.html,434€,800€,Ebertsklinge 32 97074 Würzburg Frauenland,01.08.2021,18m² Zimmer in 5er WG,Wohnungsgröße: 200m²,5er WG ( 1 Frau und 3 Männer ),Bewohneralter: 20 bis 28 Jahre,Rauchen auf dem Balkon erlaubt,"Studenten-WG, Berufstätigen-WG, keine Zweck-WG, gemischte WG","Sprache/n: Deutsch, Englisch",Geschlecht egal zwischen 18 und 33 Jahren
https://www.wg-gesucht.de/wg-zimmer-in-Wurzburg-Frauenland.8716103.html,434€,800€,Ebertsklinge 32 97074 Würzburg Frauenland,01.07.2021,18m² Zimmer in 5er WG,Wohnungsgröße: 200m²,5er WG ( 1 Frau und 3 Männer ),Bewohneralter: 21 bis 28 Jahre,Rauchen auf dem Balkon erlaubt,"Studenten-WG, Berufstätigen-WG, keine Zweck-WG, gemischte WG","Sprache/n: Deutsch, Englisch",Geschlecht egal zwischen 18 und 30 Jahren
https://www.wg-gesucht.de/wg-zimmer-in-Wurzburg-Zellerau.8719342.html,334€,510€,Ludwig-Weis-Straße 9 97082 Würzburg Zellerau,01.09.2021,10m² Zimmer in 3er WG,,3er WG ( 1 Mann ),Bewohneralter: 27 bis 27 Jahre,"Studenten-WG, keine Zweck-WG","Sprache/n: Deutsch, Englisch",Geschlecht egal zwischen 18 und 25 Jahren, 
https://www.wg-gesucht.de/wg-zimmer-in-Wurzburg-Altstadt.8707168.html,430€,400€,Kartause 97070 Würzburg Altstadt,15.08.2021,16m² Zimmer in 3er WG,Wohnungsgröße: 70m²,3er WG ( 2 Frauen ),Bewohneralter: 22 bis 23 Jahre,Rauchen nicht erwünscht,"Studenten-WG, keine Zweck-WG","Sprache/n: Deutsch, Englisch, Spanisch, Französisch",Geschlecht egal zwischen 18 und 30 Jahren
https://www.wg-gesucht.de/wg-zimmer-in-Wurzburg-Sanderau.8719763.html,277€,450€,Sonnenstraße 97072 Würzburg Sanderau,01.08.2021,12m² Zimmer in 3er WG,,3er WG ( 2 Frauen ),Bewohneralter: 21 bis 24 Jahre,Rauchen auf dem Balkon erlaubt,"Studenten-WG, keine Zweck-WG",Sprache/n: Deutsch,Mann zwischen 21 und 27 Jahren
https://www.wg-gesucht.de/wg-zimmer-in-Wurzburg-Frauenland.8700009.html,460€,900€,Seuffertstraße 97074 Würzburg Frauenland,01.08.2021,20m² Zimmer in 4er WG,Wohnungsgröße: 140m²,4er WG ( 3 Männer ),Bewohneralter: 22 bis 27 Jahre,Rauchen nicht erwünscht,Studenten-WG,Sprache/n: Deutsch,Geschlecht egal zwischen 18 und 28 Jahren
https://www.wg-gesucht.de/wg-zimmer-in-Wurzburg-Zellerau.7932385.html,395€, ,Neidertstr. 6 97082 Würzburg Zellerau,01.07.2021,18m² Zimmer in 2er WG,Wohnungsgröße: 100m²,2er WG ( 1 Frau ),,Rauchen auf dem Balkon erlaubt,"Zweck-WG, Berufstätigen-WG","Sprache/n: Deutsch, Englisch",Geschlecht egal
