URL,rent,deposit,address,date,line 1,line 2,line 3,line 4,line 5,line 6,line 7,line 8
https://www.wg-gesucht.de/wg-zimmer-in-Augsburg-Haunstetten.8727118.html,380€,305€,Spielfeldstraße 13 86179 Augsburg Haunstetten,01.08.2021,17m² Zimmer in 4er WG,,4er WG ( 3 Männer ),Bewohneralter: 20 bis 25 Jahre,Rauchen nicht erwünscht,Studenten-WG,Sprache/n: Deutsch,Geschlecht egal zwischen 20 und 25 Jahren
https://www.wg-gesucht.de/wg-zimmer-in-Augsburg-Innenstadt.7926516.html,297€,771€,"Lauterlech, 47 86152 Augsburg Innenstadt",01.10.2021,12m² Zimmer in 3er WG,Wohnungsgröße: 92m²,3er WG ( 1 Frau und 1 Mann ),,Rauchen im Zimmer erlaubt,gemischte WG,,Geschlecht egal
https://www.wg-gesucht.de/wg-zimmer-in-Augsburg-Haunstetten.6693152.html,390€,800€,Inningerstr. 2 86179 Augsburg Haunstetten,15.06.2021,15m² Zimmer in 3er WG,Wohnungsgröße: 92m²,3er WG ( 2 Männer ),,Rauchen auf dem Balkon erlaubt,"Berufstätigen-WG, gemischte WG","Sprache/n: Deutsch, Englisch",Geschlecht egal
https://www.wg-gesucht.de/wg-zimmer-in-Augsburg-Pfersee.8729336.html,320€, ,Ecke Leopoldstraße 86157 Augsburg Pfersee,01.08.2021,15m² Zimmer in 3er WG,Wohnungsgröße: 83m²,3er WG ( 2 Frauen ),Bewohneralter: bis 30 Jahre,Rauchen nicht erwünscht,"Frauen-WG, Berufstätigen-WG, WG mit Kindern, Vegetarisch/Vegan, LGBTQIA+, Wohnen für Hilfe","Sprache/n: Deutsch, Englisch",Frau ab 22 Jahren
https://www.wg-gesucht.de/wg-zimmer-in-Augsburg-Pfersee.6680841.html,400€,800€,Paul Heyse-Str 86157 Augsburg Pfersee,01.07.2021,12m² Zimmer in 3er WG,Wohnungsgröße: 56m²,3er WG ( 2 Männer ),Bewohneralter: 27 bis 35 Jahre,Rauchen nicht erwünscht,"Studenten-WG, Berufstätigen-WG, Internationals welcome","Sprache/n: Deutsch, Englisch",Geschlecht egal zwischen 19 und 35 Jahren
https://www.wg-gesucht.de/wg-zimmer-in-Augsburg-Innenstadt.7319900.html,295€,780€,Hanreiweg 86153 Augsburg Innenstadt,01.07.2021,12m² Zimmer in 3er WG,Wohnungsgröße: 68m²,3er WG ( 2 Männer ),Bewohneralter: 26 bis 30 Jahre,Rauchen nicht erwünscht,"Männer-WG, Berufstätigen-WG, gemischte WG, Internationals welcome","Sprache/n: Deutsch, Englisch, Spanisch",Geschlecht egal zwischen 21 und 30 Jahren
https://www.wg-gesucht.de/wg-zimmer-in-Augsburg-Innenstadt.6670467.html,339€,702€,Remboldstraße 86153 Augsburg Innenstadt,01.08.2021,15m² Zimmer in 4er WG,Wohnungsgröße: 100m²,4er WG ( 2 Frauen und 1 Mann ),Bewohneralter: 24 bis 27 Jahre,Rauchen auf dem Balkon erlaubt,"Studenten-WG, Berufstätigen-WG, keine Zweck-WG, gemischte WG","Sprache/n: Deutsch, Englisch, Französisch, Schwedisch",Geschlecht egal zwischen 21 und 31 Jahren
https://www.wg-gesucht.de/wg-zimmer-in-Augsburg-Oberhausen.6953201.html,370€,300€,Emilienstr. 4 86153 Augsburg Oberhausen,15.06.2021,24m² Zimmer in 2er WG,,2er WG ( 1 Mann ),Bewohneralter: 30 bis 35 Jahre,Rauchen im Zimmer erlaubt,Studenten-WG,"Sprache/n: Deutsch, Kroatisch",Mann zwischen 20 und 40 Jahren
https://www.wg-gesucht.de/wg-zimmer-in-Augsburg-Herrenbach.8075231.html,435€,1140€,Wilhelm-Hauffstraße 20 86161 Augsburg Herrenbach,01.09.2021,16m² Zimmer in 2er WG,Wohnungsgröße: 60m²,2er WG,,Rauchen nicht erwünscht,"Studenten-WG, Berufstätigen-WG",,Geschlecht egal
https://www.wg-gesucht.de/wg-zimmer-in-Augsburg-Herrenbach.8073199.html,465€,1230€,Wilhelm-Hauffstraße 20 86161 Augsburg Herrenbach,01.08.2021,21m² Zimmer in 2er WG,Wohnungsgröße: 60m²,2er WG,Bewohneralter: 26 bis 26 Jahre,Rauchen nicht erwünscht,"Studenten-WG, Berufstätigen-WG",,Geschlecht egal
https://www.wg-gesucht.de/wg-zimmer-in-Augsburg-Naehe-Zentrum.4842236.html,390€,500€,Äußere Uferstr. 3 86154 Augsburg Nähe Zentrum,01.09.2021,17m² Zimmer in 4er WG,Wohnungsgröße: 90m²,4er WG ( 1 Frau und 2 Männer ),Bewohneralter: 20 bis 36 Jahre,Rauchen auf dem Balkon erlaubt,"Berufstätigen-WG, keine Zweck-WG, gemischte WG","Sprache/n: Deutsch, Englisch",Geschlecht egal zwischen 18 und 35 Jahren
https://www.wg-gesucht.de/wg-zimmer-in-Augsburg-naehe-Zentrum.6143141.html,490€,660€,Felberstraße 19 86154 Augsburg nähe Zentrum,01.07.2021,16m² Zimmer in 4er WG,Wohnungsgröße: 101m²,4er WG ( 1 Frau und 2 Männer ),,Rauchen auf dem Balkon erlaubt,"Studenten-WG, keine Zweck-WG, gemischte WG","Sprache/n: Deutsch, Englisch",Geschlecht egal zwischen 18 und 35 Jahren
https://www.wg-gesucht.de/wg-zimmer-in-Augsburg-Naehe-Innenstadt.5690956.html,363€,470€,Kargstraße 14 86154 Augsburg Nähe Innenstadt,15.06.2021,11m² Zimmer in 4er WG,Wohnungsgröße: 84m²,4er WG ( 3 Männer ),Bewohneralter: 25 bis 28 Jahre,Rauchen nicht erwünscht,"Studenten-WG, Berufstätigen-WG, gemischte WG","Sprache/n: Deutsch, Englisch",Geschlecht egal zwischen 20 und 35 Jahren
https://www.wg-gesucht.de/wg-zimmer-in-Augsburg-Hochzoll.8067000.html,380€,1000€,Watzmannstr 86163 Augsburg Hochzoll,09.08.2021,10m² Zimmer in 4er WG,Wohnungsgröße: 59m²,4er WG ( 2 Frauen und 1 Mann ),Bewohneralter: 18 bis 20 Jahre,Rauchen nicht erwünscht,"Studenten-WG, Berufstätigen-WG, gemischte WG, Internationals welcome","Sprache/n: Deutsch, Englisch",Geschlecht egal zwischen 18 und 25 Jahren
https://www.wg-gesucht.de/wg-zimmer-in-Augsburg-Innenstadt.8716758.html,400€,400€,Äußeres Pfaffengäßchen 86152 Augsburg Innenstadt,15.06.2021,30m² Zimmer in 3er WG,Wohnungsgröße: 120m²,3er WG ( 1 Frau und 1 Mann ),Bewohneralter: 22 bis 29 Jahre,Rauchen nicht erwünscht,"keine Zweck-WG, gemischte WG, Vegetarisch/Vegan, LGBTQIA+, Internationals welcome","Sprache/n: Deutsch, Englisch, Französisch",Geschlecht egal
https://www.wg-gesucht.de/wg-zimmer-in-Augsburg-Innenstadt.8611960.html,438€,1200€,Langenmantelstraße 32 86153 Augsburg Innenstadt,15.06.2021,17m² Zimmer in 4er WG,Wohnungsgröße: 106m²,4er WG ( 2 Frauen ),Bewohneralter: 20 bis 21 Jahre,"keine Zweck-WG, gemischte WG, LGBTQIA+",,Geschlecht egal zwischen 18 und 30 Jahren, 
https://www.wg-gesucht.de/wg-zimmer-in-Augsburg-Oberhausen.8315162.html,515€,1000€,Nordendrofer Weg 86154 Augsburg Oberhausen,17.06.2021,18m² Zimmer in 6er WG,Wohnungsgröße: 270m²,6er WG ( 3 Männer ),Bewohneralter: 25 bis 45 Jahre,Rauchen auf dem Balkon erlaubt,"Studenten-WG, Berufstätigen-WG, keine Zweck-WG, gemischte WG","Sprache/n: Deutsch, Englisch",Geschlecht egal zwischen 18 und 35 Jahren
https://www.wg-gesucht.de/wg-zimmer-in-Augsburg-Innenstadt.8247081.html,393€,700€,Froelichstrasse 86150 Augsburg Innenstadt,15.06.2021,12m² Zimmer in 3er WG,,3er WG ( 2 Männer ),Bewohneralter: 26 bis 27 Jahre,Rauchen auf dem Balkon erlaubt,"keine Zweck-WG, gemischte WG","Sprache/n: Deutsch, Englisch, Spanisch",Geschlecht egal zwischen 21 und 35 Jahren
https://www.wg-gesucht.de/wg-zimmer-in-Augsburg-Haunstetten.3087391.html,304€,520€,Kopernikusstraße 86179 Augsburg Haunstetten,01.07.2021,11m² Zimmer in 6er WG,Wohnungsgröße: 160m²,6er WG ( 3 Frauen und 2 Männer ),Bewohneralter: 20 bis 28 Jahre,Rauchen nicht erwünscht,"Studenten-WG, keine Zweck-WG","Sprache/n: Deutsch, Englisch, Spanisch, Französisch",Geschlecht egal zwischen 21 und 25 Jahren
https://www.wg-gesucht.de/wg-zimmer-in-Augsburg-Innenstadt.6512953.html,478€,1140€,Klinkerberg 19 86152 Augsburg Innenstadt,16.06.2021,19m² Zimmer in 3er WG,Wohnungsgröße: 70m²,3er WG ( 1 Frau und 1 Mann ),Bewohneralter: 20 bis 25 Jahre,"Studenten-WG, Berufstätigen-WG, gemischte WG",,Geschlecht egal zwischen 20 und 35 Jahren, 
https://www.wg-gesucht.de/wg-zimmer-in-Augsburg-Kriegshaber.8622707.html,314€,600€,Neusässer Strasse 86356 Augsburg Kriegshaber,15.06.2021,15m² Zimmer in 6er WG,Wohnungsgröße: 120m²,6er WG ( 2 Frauen und 3 Männer ),Bewohneralter: 19 bis 22 Jahre,Rauchen auf dem Balkon erlaubt,"Studenten-WG, keine Zweck-WG, gemischte WG","Sprache/n: Deutsch, Englisch",Geschlecht egal zwischen 18 und 23 Jahren
https://www.wg-gesucht.de/wg-zimmer-in-Augsburg-Universitaetsviertel.8717933.html,363€,900€,Josef-Priller-Straße 32 86159 Augsburg Universitätsviertel,15.06.2021,10m² Zimmer in 3er WG,Wohnungsgröße: 40m²,3er WG ( 2 Männer ),Bewohneralter: 26 bis 36 Jahre,Rauchen nicht erwünscht,"Zweck-WG, Berufstätigen-WG",Sprache/n: Deutsch,Geschlecht egal zwischen 23 und 36 Jahren
https://www.wg-gesucht.de/wg-zimmer-in-Augsburg-Goeggingen.8656714.html,375€,560€,Wellenburgerstraße 23 86199 Augsburg Göggingen,14.06.2021,15m² Zimmer in 4er WG,Wohnungsgröße: 84m²,4er WG ( 1 Frau und 2 Männer ),Bewohneralter: 21 bis 23 Jahre,Rauchen auf dem Balkon erlaubt,"Studenten-WG, Berufstätigen-WG, gemischte WG, LGBTQIA+","Sprache/n: Deutsch, Englisch",Geschlecht egal
https://www.wg-gesucht.de/wg-zimmer-in-Augsburg-Haunstetten.8695386.html,365€,700€,Weddigenstraße 16 86179 Augsburg Haunstetten,01.08.2021,15m² Zimmer in 3er WG,Wohnungsgröße: 63m²,3er WG ( 2 Frauen ),Bewohneralter: 20 bis 22 Jahre,Studenten-WG,"Sprache/n: Deutsch, Englisch, Russisch",Geschlecht egal zwischen 18 und 25 Jahren, 
https://www.wg-gesucht.de/wg-zimmer-in-Augsburg-Innenstadt.8721657.html,353€,500€,Schaezlerstraße 86150 Augsburg Innenstadt,01.07.2021,15m² Zimmer in 5er WG,Wohnungsgröße: 190m²,5er WG ( 2 Frauen und 2 Männer ),Bewohneralter: 25 bis 33 Jahre,Rauchen nicht erwünscht,"Berufstätigen-WG, keine Zweck-WG, gemischte WG","Sprache/n: Deutsch, Englisch",Geschlecht egal zwischen 22 und 30 Jahren
https://www.wg-gesucht.de/wg-zimmer-in-Augsburg-Hochzoll.8709119.html,320€,800€,Friedberger Straße 86163 Augsburg Hochzoll,01.07.2021,13m² Zimmer in 3er WG,Wohnungsgröße: 90m²,3er WG ( 2 Frauen ),Bewohneralter: 23 bis 25 Jahre,Rauchen auf dem Balkon erlaubt,"Frauen-WG, keine Zweck-WG","Sprache/n: Deutsch, Englisch",Frau zwischen 19 und 26 Jahren
https://www.wg-gesucht.de/wg-zimmer-in-Augsburg-Lechhausen.8686416.html,600€,1400€,Stätzlinger Straße 86165 Augsburg Lechhausen,01.08.2021,10m² Zimmer in 2er WG,Wohnungsgröße: 100m²,2er WG,,"Frauen-WG, keine Zweck-WG, Vegetarisch/Vegan",,Frau zwischen 18 und 30 Jahren, 
https://www.wg-gesucht.de/wg-zimmer-in-Augsburg-Lechhausen.3994828.html,25€,0€,Katzbachstr. 13 86165 Augsburg Lechhausen,19.06.2021,15m² Zimmer in 2er WG,,2er WG ( 1 Frau ),,"Berufstätigen-WG, gemischte WG","Sprache/n: Deutsch, Englisch, Chinesisch, Polnisch, Ungarisch",Geschlecht egal, 
https://www.wg-gesucht.de/wg-zimmer-in-Augsburg-Haunstetten.5029005.html,262€,460€,Tegernseestr. 15 86179 Augsburg Haunstetten,01.07.2021,13m² Zimmer in 7er WG,Wohnungsgröße: 240m²,7er WG ( 3 Frauen und 3 Männer ),Bewohneralter: 21 bis 37 Jahre,Rauchen auf dem Balkon erlaubt,"Studenten-WG, Berufstätigen-WG, keine Zweck-WG, gemischte WG","Sprache/n: Deutsch, Englisch, Spanisch, Türkisch",Geschlecht egal zwischen 18 und 99 Jahren
https://www.wg-gesucht.de/wg-zimmer-in-Augsburg-Innenstadt.8724596.html,350€,300€,Predigerberg 86150 Augsburg Innenstadt,15.08.2021,16m² Zimmer in 3er WG,Wohnungsgröße: 70m²,3er WG ( 2 Frauen ),Bewohneralter: 23 bis 26 Jahre,Rauchen auf dem Balkon erlaubt,"Studenten-WG, keine Zweck-WG, gemischte WG, Internationals welcome","Sprache/n: Deutsch, Englisch",Geschlecht egal zwischen 19 und 28 Jahren
https://www.wg-gesucht.de/wg-zimmer-in-Augsburg-Innenstadt.8719895.html,494€,1240€,Johannes- Haag- Straße 86153 Augsburg Innenstadt,15.07.2021,12m² Zimmer in 3er WG,Wohnungsgröße: 105m²,3er WG ( 2 Frauen ),Bewohneralter: 24 bis 26 Jahre,Rauchen auf dem Balkon erlaubt,"Studenten-WG, Berufstätigen-WG, gemischte WG",Sprache/n: Deutsch,Geschlecht egal zwischen 22 und 30 Jahren
https://www.wg-gesucht.de/wg-zimmer-in-Augsburg-Innenstadt.8662546.html,455€,1140€,"Predigerberg, 14 86150 Augsburg Innenstadt",01.08.2021,19m² Zimmer in 3er WG,Wohnungsgröße: 90m²,3er WG ( 1 Frau und 1 Mann ),Bewohneralter: 22 bis 25 Jahre,Rauchen auf dem Balkon erlaubt,"Studenten-WG, Berufstätigen-WG, Azubi-WG, gemischte WG, LGBTQIA+, Internationals welcome","Sprache/n: Deutsch, Englisch, Italienisch, Schwedisch",Geschlecht egal zwischen 21 und 27 Jahren
https://www.wg-gesucht.de/wg-zimmer-in-Augsburg-Lechhausen.6843477.html,350€,1050€,Ernst-Moritz-Arndt-Str. 86167 Augsburg Lechhausen,01.08.2021,12m² Zimmer in 3er WG,Wohnungsgröße: 80m²,3er WG ( 1 Frau und 1 Mann ),Bewohneralter: 25 bis 28 Jahre,Rauchen nicht erwünscht,"Studenten-WG, Berufstätigen-WG, gemischte WG",Sprache/n: Deutsch,Geschlecht egal zwischen 20 und 30 Jahren
https://www.wg-gesucht.de/wg-zimmer-in-Augsburg-Universitaetsviertel.8722340.html,325€, ,Haunstetter Straße 103 86161 Augsburg Universitätsviertel,14.06.2021,18m² Zimmer in 3er WG,Wohnungsgröße: 70m²,3er WG ( 2 Männer ),Bewohneralter: 23 bis 26 Jahre,Rauchen auf dem Balkon erlaubt,Studenten-WG,"Sprache/n: Deutsch, Englisch",Geschlecht egal zwischen 18 und 30 Jahren
https://www.wg-gesucht.de/wg-zimmer-in-Augsburg-Biburg.7913580.html,450€,800€,Diedorfer Str. 86420 Augsburg Biburg,14.06.2021,30m² Zimmer in 2er WG,Wohnungsgröße: 104m²,2er WG ( 1 Frau ),,Rauchen nicht erwünscht,"Studenten-WG, Berufstätigen-WG, keine Zweck-WG, gemischte WG","Sprache/n: Deutsch, Englisch, Spanisch",Geschlecht egal zwischen 20 und 50 Jahren
https://www.wg-gesucht.de/wg-zimmer-in-Augsburg-Innenstadt.8715137.html,570€,1152€,Bäckergasse 17 86150 Augsburg Innenstadt,01.07.2021,22m² Zimmer in 2er WG,Wohnungsgröße: 80m²,2er WG ( 1 Frau ),Bewohneralter: bis 27 Jahre,Rauchen auf dem Balkon erlaubt,"Berufstätigen-WG, keine Zweck-WG, gemischte WG",Sprache/n: Deutsch,Geschlecht egal zwischen 20 und 35 Jahren
https://www.wg-gesucht.de/wg-zimmer-in-Augsburg-Oberhausen.8728676.html,365€, ,Mendelssohnstraße 2 86154 Augsburg Oberhausen,14.06.2021,15m² Zimmer in 3er WG,Wohnungsgröße: 65m²,3er WG ( 2 Frauen ),Bewohneralter: 21 bis 21 Jahre,Rauchen auf dem Balkon erlaubt,"Studenten-WG, keine Zweck-WG","Sprache/n: Deutsch, Englisch",Geschlecht egal zwischen 20 und 30 Jahren
https://www.wg-gesucht.de/wg-zimmer-in-Augsburg-Augsburg.8728614.html,360€,450€,"Elias-Holl-Platz, 6 86150 Augsburg Augsburg",01.08.2021,16m² Zimmer in 2er WG,Wohnungsgröße: 67m²,2er WG ( 1 Frau ),Bewohneralter: bis 27 Jahre,"Studenten-WG, Berufstätigen-WG, keine Zweck-WG",,Geschlecht egal zwischen 22 und 30 Jahren, 
https://www.wg-gesucht.de/wg-zimmer-in-Augsburg-Universitaetsviertel.4839235.html,395€,800€,Josef Priller Str 25 86159 Augsburg Universitätsviertel,01.08.2021,13m² Zimmer in 2er WG,,2er WG ( 1 Frau ),Bewohneralter: 20 bis 20 Jahre,Rauchen nicht erwünscht,Studenten-WG,"Sprache/n: Deutsch, Englisch",Geschlecht egal zwischen 18 und 26 Jahren
https://www.wg-gesucht.de/wg-zimmer-in-Augsburg-Innenstadt.6609671.html,385€,700€,Frauentorstr. 21 86152 Augsburg Innenstadt,01.07.2021,14m² Zimmer in 3er WG,Wohnungsgröße: 110m²,3er WG ( 1 Frau und 1 Mann ),Bewohneralter: 26 bis 46 Jahre,Rauchen auf dem Balkon erlaubt,"Berufstätigen-WG, keine Zweck-WG, gemischte WG","Sprache/n: Deutsch, Englisch, Hindi, Französisch",Geschlecht egal zwischen 1 und 99 Jahren
https://www.wg-gesucht.de/wg-zimmer-in-Augsburg-Innenstadt.8682254.html,555€,1094€,Karolinenstraße 19 86150 Augsburg Innenstadt,01.08.2021,25m² Zimmer in 3er WG,Wohnungsgröße: 110m²,3er WG ( 2 Männer ),Bewohneralter: 21 bis 22 Jahre,"Studenten-WG, gemischte WG","Sprache/n: Deutsch, Englisch, Französisch",Geschlecht egal ab 18 Jahren, 
https://www.wg-gesucht.de/wg-zimmer-in-Augsburg-Innenstadt.8718141.html,420€,840€,Remboldstr. 9 86153 Augsburg Innenstadt,01.07.2021,19m² Zimmer in 4er WG,Wohnungsgröße: 140m²,4er WG ( 3 Männer ),Bewohneralter: 30 bis 38 Jahre,Rauchen im Zimmer erlaubt,"Berufstätigen-WG, gemischte WG","Sprache/n: Deutsch, Englisch",Geschlecht egal zwischen 25 und 40 Jahren
https://www.wg-gesucht.de/wg-zimmer-in-Augsburg-Innenstadt.6948920.html,280€,230€,Altstadt 86150 Augsburg Innenstadt,01.07.2021,14m² Zimmer in 2er WG,Wohnungsgröße: 54m²,2er WG ( 1 Mann ),,"Studenten-WG, Berufstätigen-WG, gemischte WG","Sprache/n: Deutsch, Englisch, Spanisch, Französisch, Niederländisch, Italienisch",Geschlecht egal, 
https://www.wg-gesucht.de/wg-zimmer-in-Augsburg-Stadtjaegerviertel.8698681.html,492€,1140€,Klinkerberg 19 86152 Augsburg Stadtjägerviertel,14.06.2021,20m² Zimmer in 3er WG,Wohnungsgröße: 75m²,3er WG ( 1 Frau und 1 Mann ),Bewohneralter: 21 bis 22 Jahre,Rauchen nicht erwünscht,"Studenten-WG, Berufstätigen-WG, gemischte WG, LGBTQIA+","Sprache/n: Deutsch, Englisch",Geschlecht egal zwischen 18 und 30 Jahren
https://www.wg-gesucht.de/wg-zimmer-in-Augsburg-Universitaetsviertel.8317324.html,400€, ,Zeppelinstr 86159 Augsburg Universitätsviertel,20.06.2021,17m² Zimmer in 2er WG,Wohnungsgröße: 60m²,2er WG ( 1 Mann ),Bewohneralter: bis 35 Jahre,Rauchen auf dem Balkon erlaubt,"Studenten-WG, Berufstätigen-WG, keine Zweck-WG","Sprache/n: Deutsch, Englisch, Russisch",Geschlecht egal
https://www.wg-gesucht.de/wg-zimmer-in-Augsburg-Innenstadt.8369080.html,333€, ,Schwibbogenplatz 86153 Augsburg Innenstadt,01.07.2021,17m² Zimmer in 3er WG,,3er WG ( 1 Frau und 1 Mann ),Bewohneralter: 28 bis 28 Jahre,Rauchen nicht erwünscht,gemischte WG,"Sprache/n: Deutsch, Englisch",Geschlecht egal zwischen 24 und 32 Jahren
https://www.wg-gesucht.de/wg-zimmer-in-Augsburg-Goeggingen.8458435.html,472€,600€,Elisenstraße 6 86159 Augsburg Göggingen,01.07.2021,16m² Zimmer in 2er WG,Wohnungsgröße: 78m²,2er WG ( 1 Mann ),Bewohneralter: ab 27 Jahre,Rauchen nicht erwünscht,"Berufstätigen-WG, keine Zweck-WG, gemischte WG, WG-Neugründung","Sprache/n: Deutsch, Englisch",Geschlecht egal zwischen 23 und 32 Jahren
https://www.wg-gesucht.de/wg-zimmer-in-Augsburg-Innenstadt.8728100.html,434€,450€,Müllerstraße 14 86153 Augsburg Innenstadt,01.08.2021,23m² Zimmer in 3er WG,Wohnungsgröße: 88m²,3er WG ( 1 Frau und 1 Mann ),Bewohneralter: 22 bis 29 Jahre,Rauchen nicht erwünscht,"Studenten-WG, Berufstätigen-WG, keine Zweck-WG, gemischte WG","Sprache/n: Deutsch, Englisch",Geschlecht egal zwischen 18 und 30 Jahren
https://www.wg-gesucht.de/wg-zimmer-in-Augsburg-Jakobervorstadt-Nord.8397864.html,295€,560€,"Lauterlech, 47 86152 Augsburg Jakobervorstadt-Nord",01.08.2021,15m² Zimmer in 3er WG,Wohnungsgröße: 97m²,3er WG ( 1 Frau und 1 Mann ),Bewohneralter: 22 bis 23 Jahre,"Studenten-WG, gemischte WG","Sprache/n: Deutsch, Englisch",Geschlecht egal zwischen 20 und 27 Jahren, 
https://www.wg-gesucht.de/wg-zimmer-in-Augsburg-Universitaetsviertel.8402532.html,415€,900€,Willi-Stör Straße 7 86159 Augsburg Universitätsviertel,01.07.2021,16m² Zimmer in 2er WG,Wohnungsgröße: 62m²,2er WG ( 1 Frau ),Bewohneralter: 23 bis 23 Jahre,Rauchen nicht erwünscht,"Zweck-WG, Studenten-WG, Frauen-WG, Berufstätigen-WG","Sprache/n: Deutsch, Englisch, Französisch",Frau zwischen 18 und 27 Jahren
https://www.wg-gesucht.de/wg-zimmer-in-Augsburg-Pfersee.8727924.html,445€, ,Gollwitzerstraße 4 86157 Augsburg Pfersee,15.08.2021,16m² Zimmer in 2er WG,,2er WG ( 1 Frau ),Bewohneralter: ab 23 Jahre,Studenten-WG,,Geschlecht egal zwischen 17 und 29 Jahren, 
https://www.wg-gesucht.de/wg-zimmer-in-Augsburg-Domviertel.8669214.html,450€, ,Alte Gasse 86152 Augsburg Domviertel,26.06.2021,16m² Zimmer in 3er WG,Wohnungsgröße: 80m²,3er WG ( 2 Männer ),Bewohneralter: 21 bis 27 Jahre,Rauchen nicht erwünscht,"Berufstätigen-WG, gemischte WG","Sprache/n: Deutsch, Englisch, Ungarisch",Geschlecht egal zwischen 21 und 30 Jahren
https://www.wg-gesucht.de/wg-zimmer-in-Augsburg-Innenstadt.8727876.html,330€, ,Klinkerberg 86152 Augsburg Innenstadt,01.09.2021,14m² Zimmer in 2er WG,Wohnungsgröße: 56m²,2er WG ( 1 Frau ),,"Studenten-WG, gemischte WG",,Geschlecht egal, 
https://www.wg-gesucht.de/wg-zimmer-in-Augsburg-Haunstetten.3629268.html,450€,800€,Inningerstr. 2 86179 Augsburg Haunstetten,20.06.2021,19m² Zimmer in 3er WG,,3er WG ( 2 Männer ),Bewohneralter: 25 bis 30 Jahre,Rauchen nicht erwünscht,"Berufstätigen-WG, gemischte WG","Sprache/n: Deutsch, Italienisch",Geschlecht egal
https://www.wg-gesucht.de/wg-zimmer-in-Augsburg-Lechhausen.8685052.html,380€,500€,Hardenbergstraße 86165 Augsburg Lechhausen,01.07.2021,12m² Zimmer in 3er WG,Wohnungsgröße: 94m²,3er WG ( 2 Frauen ),Bewohneralter: 18 bis 25 Jahre,Rauchen im Zimmer erlaubt,"Studenten-WG, Frauen-WG","Sprache/n: Deutsch, Englisch",Frau zwischen 18 und 25 Jahren
https://www.wg-gesucht.de/wg-zimmer-in-Augsburg-Oberhausen.7562998.html,311€,540€,Seitzstraße 11 86154 Augsburg Oberhausen,01.08.2021,15m² Zimmer in 3er WG,Wohnungsgröße: 65m²,3er WG ( 2 Frauen ),Bewohneralter: 25 bis 30 Jahre,"Studenten-WG, Berufstätigen-WG, keine Zweck-WG, gemischte WG",Sprache/n: Deutsch,Geschlecht egal zwischen 25 und 30 Jahren, 
https://www.wg-gesucht.de/wg-zimmer-in-Augsburg-Bismarckviertel.8727464.html,490€,500€,Von der Tann Straße 42 86159 Augsburg Bismarckviertel,01.08.2021,21m² Zimmer in 3er WG,Wohnungsgröße: 83m²,3er WG ( 1 Frau und 1 Mann ),Bewohneralter: 22 bis 23 Jahre,"Studenten-WG, Berufstätigen-WG, keine Zweck-WG, gemischte WG","Sprache/n: Deutsch, Englisch, Spanisch",Geschlecht egal zwischen 20 und 35 Jahren, 
https://www.wg-gesucht.de/wg-zimmer-in-Augsburg-Haunstetten.8700533.html,280€,600€,Hötzelstr. 1 86179 Augsburg Haunstetten,01.07.2021,10m² Zimmer in 4er WG,Wohnungsgröße: 70m²,4er WG ( 3 Frauen ),Bewohneralter: 20 bis 23 Jahre,Rauchen nicht erwünscht,"Studenten-WG, Frauen-WG, keine Zweck-WG",Sprache/n: Deutsch,Frau zwischen 19 und 21 Jahren
https://www.wg-gesucht.de/wg-zimmer-in-Augsburg-Innenstadt.8698879.html,294€,800€,Dr.-Port-Straße 5 86153 Augsburg Innenstadt,15.09.2021,17m² Zimmer in 2er WG,Wohnungsgröße: 56m²,2er WG ( 1 Frau ),,Rauchen überall erlaubt,keine Zweck-WG,"Sprache/n: Deutsch, Englisch",Geschlecht egal
https://www.wg-gesucht.de/wg-zimmer-in-Augsburg-Haunstetten.8727265.html,332€,700€,Siebenbürgenstraße 15 86179 Augsburg Haunstetten,14.06.2021,18m² Zimmer in 4er WG,,4er WG ( 3 Frauen ),Bewohneralter: 21 bis 21 Jahre,Rauchen nicht erwünscht,"Studenten-WG, Frauen-WG, keine Zweck-WG",Sprache/n: Deutsch,Frau zwischen 18 und 27 Jahren
https://www.wg-gesucht.de/wg-zimmer-in-Augsburg-Innenstadt.8648518.html,360€,875€,Baumgartnerstr. 23 86161 Augsburg Innenstadt,01.08.2021,12m² Zimmer in 4er WG,Wohnungsgröße: 103m²,4er WG ( 2 Frauen und 1 Mann ),Bewohneralter: 27 bis 36 Jahre,gemischte WG,"Sprache/n: Deutsch, Englisch, Türkisch",Geschlecht egal ab 23 Jahren, 
https://www.wg-gesucht.de/wg-zimmer-in-Augsburg-Hochfeld.8666388.html,445€,945€,Haunstetter Straße 86161 Augsburg Hochfeld,01.07.2021,15m² Zimmer in 3er WG,Wohnungsgröße: 100m²,3er WG ( 1 Frau und 1 Mann ),Bewohneralter: 22 bis 32 Jahre,"keine Zweck-WG, gemischte WG","Sprache/n: Deutsch, Englisch",Geschlecht egal, 
https://www.wg-gesucht.de/wg-zimmer-in-Augsburg-Pfersee.8715064.html,451€,1170€,Arnulfstraße 45G 86157 Augsburg Pfersee,01.07.2021,13m² Zimmer in 5er WG,Wohnungsgröße: 140m²,5er WG ( 2 Frauen und 2 Männer ),Bewohneralter: 21 bis 24 Jahre,Rauchen auf dem Balkon erlaubt,"keine Zweck-WG, gemischte WG",Sprache/n: Deutsch,Geschlecht egal zwischen 18 und 30 Jahren
https://www.wg-gesucht.de/wg-zimmer-in-Augsburg-Haunstetten.8715852.html,307€,700€,Siebenbürgenstraße 15 86179 Augsburg Haunstetten,01.09.2021,11m² Zimmer in 4er WG,,4er WG ( 3 Frauen ),Bewohneralter: 21 bis 25 Jahre,Rauchen nicht erwünscht,"Studenten-WG, Frauen-WG, keine Zweck-WG",Sprache/n: Deutsch,Frau zwischen 18 und 27 Jahren
https://www.wg-gesucht.de/wg-zimmer-in-Augsburg-Innenstadt.8727105.html,470€,750€,Klinkerberg 33 86152 Augsburg Innenstadt,01.08.2021,23m² Zimmer in 4er WG,Wohnungsgröße: 121m²,4er WG ( 2 Frauen und 1 Mann ),Bewohneralter: 19 bis 25 Jahre,Rauchen auf dem Balkon erlaubt,"Studenten-WG, keine Zweck-WG","Sprache/n: Deutsch, Englisch",Geschlecht egal
https://www.wg-gesucht.de/wg-zimmer-in-Augsburg-Innenstadt.7383378.html,400€,600€,Frauentorstraße 9 86152 Augsburg Innenstadt,14.06.2021,17m² Zimmer in 2er WG,Wohnungsgröße: 140m²,2er WG ( 1 Mann ),Bewohneralter: 59 bis 59 Jahre,Rauchen auf dem Balkon erlaubt,"Zweck-WG, Business-WG, Berufstätigen-WG","Sprache/n: Deutsch, Englisch",Geschlecht egal zwischen 40 und 60 Jahren
https://www.wg-gesucht.de/wg-zimmer-in-Augsburg-Innenstadt.8046398.html,400€, ,Burgkmairstraße 86150 Augsburg Innenstadt,01.07.2021,20m² Zimmer in 5er WG,,5er WG ( 1 Frau und 3 Männer ),Bewohneralter: 23 bis 27 Jahre,"keine Zweck-WG, gemischte WG","Sprache/n: Deutsch, Englisch, Französisch",Frau ab 21 Jahren, 
https://www.wg-gesucht.de/wg-zimmer-in-Augsburg-Innenstadt.8690587.html,450€,400€,Neidhartstr. 86159 Augsburg Innenstadt,14.06.2021,15m² Zimmer in 2er WG,Wohnungsgröße: 72m²,2er WG ( 1 Frau ),Bewohneralter: 20 bis 40 Jahre,Rauchen auf dem Balkon erlaubt,"Frauen-WG, Berufstätigen-WG, gemischte WG","Sprache/n: Deutsch, Englisch",Geschlecht egal
https://www.wg-gesucht.de/wg-zimmer-in-Augsburg-Innenstadt.8650952.html,581€,1320€,Brückenstraße 86153 Augsburg Innenstadt,15.06.2021,23m² Zimmer in 3er WG,Wohnungsgröße: 115m²,3er WG ( 2 Frauen ),Bewohneralter: 23 bis 23 Jahre,"Studenten-WG, Berufstätigen-WG, keine Zweck-WG","Sprache/n: Deutsch, Englisch",Geschlecht egal zwischen 18 und 30 Jahren, 
https://www.wg-gesucht.de/wg-zimmer-in-Augsburg-Innenstadt.8711671.html,358€,700€,Volkhartstraße 8 86152 Augsburg Innenstadt,01.09.2021,20m² Zimmer in 3er WG,Wohnungsgröße: 80m²,3er WG ( 1 Frau ),Bewohneralter: 20 bis 22 Jahre,Rauchen nicht erwünscht,Frauen-WG,"Sprache/n: Deutsch, Englisch",Frau zwischen 18 und 27 Jahren
https://www.wg-gesucht.de/wg-zimmer-in-Augsburg-Bismarckviertel.6780379.html,500€,350€,Von-der-Tann-Straße 42 86159 Augsburg Bismarckviertel,01.08.2021,21m² Zimmer in 3er WG,Wohnungsgröße: 80m²,3er WG ( 1 Frau und 1 Mann ),Bewohneralter: 21 bis 23 Jahre,Rauchen nicht erwünscht,"Studenten-WG, Berufstätigen-WG, keine Zweck-WG, gemischte WG","Sprache/n: Deutsch, Englisch, Spanisch",Geschlecht egal zwischen 20 und 30 Jahren
https://www.wg-gesucht.de/wg-zimmer-in-Augsburg-Innenstadt.8720364.html,420€,500€,Gärtnerstraße 86153 Augsburg Innenstadt,15.07.2021,16m² Zimmer in 3er WG,Wohnungsgröße: 70m²,3er WG ( 2 Frauen ),Bewohneralter: 26 bis 27 Jahre,"Studenten-WG, keine Zweck-WG, gemischte WG",Sprache/n: Deutsch,Geschlecht egal zwischen 20 und 35 Jahren, 
https://www.wg-gesucht.de/wg-zimmer-in-Augsburg-Innenstadt.8726622.html,521€,783€,Bismarckstraße 9 1/2 86159 Augsburg Innenstadt,01.09.2021,24m² Zimmer in 3er WG,Wohnungsgröße: 87m²,3er WG ( 1 Frau und 1 Mann ),Bewohneralter: 23 bis 25 Jahre,"Studenten-WG, keine Zweck-WG, gemischte WG","Sprache/n: Deutsch, Englisch",Geschlecht egal, 
https://www.wg-gesucht.de/wg-zimmer-in-Augsburg-Jakobervorstadt.8726581.html,415€,660€,Schäfflerbachstraße 86153 Augsburg Jakobervorstadt,01.07.2021,14m² Zimmer in 2er WG,Wohnungsgröße: 65m²,2er WG ( 1 Frau ),Bewohneralter: ab 24 Jahre,Rauchen nicht erwünscht,"Studenten-WG, keine Zweck-WG","Sprache/n: Deutsch, Englisch, Französisch",Frau zwischen 21 und 28 Jahren
https://www.wg-gesucht.de/wg-zimmer-in-Augsburg-Innenstadt.8669448.html,301€,395€,Heinrich-von-Buz-Str 23 86153 Augsburg Innenstadt,01.07.2021,16m² Zimmer in 5er WG,Wohnungsgröße: 137m²,5er WG ( 2 Frauen und 2 Männer ),Bewohneralter: ab 19 Jahre,Rauchen nicht erwünscht,"Studenten-WG, keine Zweck-WG","Sprache/n: Deutsch, Englisch, Russisch",Geschlecht egal zwischen 18 und 25 Jahren
https://www.wg-gesucht.de/wg-zimmer-in-Augsburg-Spickel.3516931.html,397€,598€,Damaschkeplatz 5 86161 Augsburg Spickel,01.07.2021,13m² Zimmer in 4er WG,,4er WG ( 2 Frauen ),,Rauchen nicht erwünscht,"Studenten-WG, Berufstätigen-WG, keine Zweck-WG","Sprache/n: Deutsch, Englisch",Frau
https://www.wg-gesucht.de/wg-zimmer-in-Augsburg-Spickel.3430722.html,417€,638€,Damaschkeplatz 5 86161 Augsburg Spickel,01.07.2021,13m² Zimmer in 4er WG,,4er WG ( 2 Frauen ),,Rauchen auf dem Balkon erlaubt,"Studenten-WG, Berufstätigen-WG, keine Zweck-WG","Sprache/n: Deutsch, Englisch",Frau
https://www.wg-gesucht.de/wg-zimmer-in-Augsburg-Herrenbach.8725972.html,395€,580€,Eichendorffstrasse 56 86161 Augsburg Herrenbach,01.08.2021,15m² Zimmer in 3er WG,Wohnungsgröße: 90m²,3er WG ( 2 Männer ),Bewohneralter: 27 bis 28 Jahre,Rauchen auf dem Balkon erlaubt,"Studenten-WG, Berufstätigen-WG, keine Zweck-WG, gemischte WG",,Geschlecht egal zwischen 20 und 30 Jahren
https://www.wg-gesucht.de/wg-zimmer-in-Augsburg-auerhalbA-beiAichach.2414247.html,390€,50€,", Aichacher Str. 17, Sielenbach 86577 Augsburg auerhalbA.beiAichach",13.06.2021,17m² Zimmer in 6er WG,,6er WG ( 2 Frauen und 3 Männer ),Bewohneralter: 20 bis 40 Jahre,Rauchen nicht erwünscht,"Zweck-WG, Berufstätigen-WG, gemischte WG, Wohnen für Hilfe","Sprache/n: Deutsch, Englisch",Geschlecht egal zwischen 18 und 60 Jahren
https://www.wg-gesucht.de/wg-zimmer-in-Augsburg-Bahnhofs-Bismarckviertel.8713699.html,360€,700€,Hermanstraße 86150 Augsburg Bahnhofs-/Bismarckviertel,15.09.2021,13m² Zimmer in 4er WG,,4er WG ( 1 Frau und 2 Männer ),Bewohneralter: 22 bis 31 Jahre,gemischte WG,,Frau zwischen 20 und 30 Jahren, 
https://www.wg-gesucht.de/wg-zimmer-in-Augsburg-Innenstadt.7314150.html,360€,500€,Rosenaustrasse 12 86150 Augsburg Innenstadt,01.08.2021,15m² Zimmer in 3er WG,,3er WG ( 1 Frau und 1 Mann ),Bewohneralter: 22 bis 25 Jahre,Rauchen nicht erwünscht,"Studenten-WG, keine Zweck-WG, gemischte WG","Sprache/n: Deutsch, Englisch",Geschlecht egal zwischen 20 und 30 Jahren
https://www.wg-gesucht.de/wg-zimmer-in-Augsburg-Innenstadt.8707690.html,470€, ,Gärtnerstr. 19 86161 Augsburg Innenstadt,01.08.2021,22m² Zimmer in 4er WG,,4er WG ( 2 Frauen und 1 Mann ),Bewohneralter: 19 bis 24 Jahre,Rauchen auf dem Balkon erlaubt,"Studenten-WG, keine Zweck-WG",,Geschlecht egal zwischen 18 und 27 Jahren
https://www.wg-gesucht.de/wg-zimmer-in-Augsburg-Innenstadt.8725924.html,380€,300€,Gärtnerstraße 19 Augsburg Innenstadt,01.09.2021,14m² Zimmer in 4er WG,,4er WG ( 1 Frau und 2 Männer ),Bewohneralter: 19 bis 24 Jahre,Rauchen auf dem Balkon erlaubt,"Studenten-WG, keine Zweck-WG","Sprache/n: Deutsch, Englisch",Geschlecht egal zwischen 18 und 27 Jahren
https://www.wg-gesucht.de/wg-zimmer-in-Augsburg-Goeggingen.7786922.html,350€,300€,Bgm.-Miehle-Str. 86199 Augsburg Göggingen,01.08.2021,15m² Zimmer in 2er WG,,2er WG ( 1 Frau ),Bewohneralter: 21 bis 21 Jahre,Rauchen nicht erwünscht,"Studenten-WG, Frauen-WG, keine Zweck-WG, Vegetarisch/Vegan","Sprache/n: Deutsch, Englisch, Französisch",Frau zwischen 18 und 24 Jahren
https://www.wg-gesucht.de/wg-zimmer-in-Augsburg-Innenstadt.8716416.html,390€,750€,Rosenaustraße 45 86150 Augsburg Innenstadt,01.07.2021,17m² Zimmer in 4er WG,Wohnungsgröße: 85m²,4er WG ( 2 Frauen und 1 Mann ),Bewohneralter: 21 bis 24 Jahre,"Studenten-WG, keine Zweck-WG, gemischte WG",Sprache/n: Deutsch,Geschlecht egal zwischen 18 und 28 Jahren, 
https://www.wg-gesucht.de/wg-zimmer-in-Augsburg-Goeggingen.8718968.html,307€,500€,Wellenburgerstraße 23 86199 Augsburg Göggingen,13.06.2021,11m² Zimmer in 4er WG,Wohnungsgröße: 84m²,4er WG ( 1 Frau und 1 Mann ),Bewohneralter: 21 bis 23 Jahre,Rauchen im Zimmer erlaubt,"Studenten-WG, gemischte WG",Sprache/n: Deutsch,Geschlecht egal zwischen 20 und 28 Jahren
https://www.wg-gesucht.de/wg-zimmer-in-Augsburg-Innenstadt.8680492.html,335€, ,Heilig Kreuz Straße 30 86152 Augsburg Innenstadt,01.07.2021,10m² Zimmer in 2er WG,Wohnungsgröße: 66m²,2er WG ( 1 Frau ),Bewohneralter: 26 bis 26 Jahre,Rauchen auf dem Balkon erlaubt,keine Zweck-WG,"Sprache/n: Deutsch, Englisch",Geschlecht egal zwischen 22 und 37 Jahren
https://www.wg-gesucht.de/wg-zimmer-in-Augsburg-Haunstetten.8719123.html,152€, ,Ilsungstraße 5 86161 Augsburg Haunstetten,01.08.2021,6m² Zimmer in 4er WG,,4er WG ( 2 Frauen und 1 Mann ),Bewohneralter: 21 bis 24 Jahre,"Studenten-WG, Berufstätigen-WG, keine Zweck-WG",,Geschlecht egal zwischen 21 und 26 Jahren, 
https://www.wg-gesucht.de/wg-zimmer-in-Augsburg-Kriegshaber.6347673.html,402€,624€,Ulmerstr. 190 86156 Augsburg Kriegshaber,01.07.2021,13m² Zimmer in 2er WG,Wohnungsgröße: 56m²,2er WG ( 1 Frau ),,Rauchen nicht erwünscht,"Studenten-WG, keine Zweck-WG","Sprache/n: Deutsch, Englisch",Geschlecht egal bis 25 Jahren
https://www.wg-gesucht.de/wg-zimmer-in-Augsburg-Kriegshaber.8566845.html,474€,768€,Ulmerstr. 190 86156 Augsburg Kriegshaber,01.07.2021,16m² Zimmer in 6er WG,Wohnungsgröße: 180m²,6er WG ( 1 Frau und 4 Männer ),Bewohneralter: bis 27 Jahre,Rauchen auf dem Balkon erlaubt,"Studenten-WG, keine Zweck-WG","Sprache/n: Deutsch, Englisch",Geschlecht egal bis 25 Jahren
https://www.wg-gesucht.de/wg-zimmer-in-Augsburg-Bahnhofsviertel.8722720.html,480€,600€,Rosenaustraße 45 86150 Augsburg Bahnhofsviertel,15.07.2021,21m² Zimmer in 4er WG,Wohnungsgröße: 120m²,4er WG ( 2 Frauen und 1 Mann ),Bewohneralter: 20 bis 22 Jahre,Rauchen auf dem Balkon erlaubt,"Studenten-WG, Berufstätigen-WG, gemischte WG","Sprache/n: Deutsch, Englisch, Spanisch",Geschlecht egal
https://www.wg-gesucht.de/wg-zimmer-in-Augsburg-Innenstadt.7988220.html,320€,325€,"Prinzstraße, 7, 1/2 86153 Augsburg Innenstadt",01.08.2021,15m² Zimmer in 3er WG,Wohnungsgröße: 80m²,3er WG ( 2 Frauen ),Bewohneralter: 23 bis 25 Jahre,Rauchen nicht erwünscht,"Studenten-WG, Berufstätigen-WG, keine Zweck-WG, gemischte WG","Sprache/n: Deutsch, Englisch, Spanisch",Geschlecht egal zwischen 22 und 29 Jahren
https://www.wg-gesucht.de/wg-zimmer-in-Augsburg-Innenstadt.8705256.html,365€,800€,Lindenstraße 19 86153 Augsburg Innenstadt,01.07.2021,13m² Zimmer in 3er WG,Wohnungsgröße: 71m²,3er WG ( 1 Frau und 1 Mann ),Bewohneralter: 20 bis 20 Jahre,Rauchen auf dem Balkon erlaubt,"Studenten-WG, keine Zweck-WG, gemischte WG",Sprache/n: Deutsch,Geschlecht egal zwischen 18 und 25 Jahren
https://www.wg-gesucht.de/wg-zimmer-in-Augsburg-Innenstadt.8724665.html,341€,702€,Remboldstraße 13 86153 Augsburg Innenstadt,01.07.2021,16m² Zimmer in 4er WG,,4er WG ( 1 Frau und 2 Männer ),Bewohneralter: 22 bis 33 Jahre,Rauchen auf dem Balkon erlaubt,"Zweck-WG, Studenten-WG, Berufstätigen-WG, gemischte WG","Sprache/n: Deutsch, Englisch",Frau zwischen 21 und 30 Jahren
https://www.wg-gesucht.de/wg-zimmer-in-Augsburg-Innenstadt.5328042.html,380€,700€,Öglinstraße 4 86153 Augsburg Innenstadt,01.07.2021,13m² Zimmer in 3er WG,,3er WG ( 1 Frau und 1 Mann ),Bewohneralter: 23 bis 34 Jahre,Rauchen nicht erwünscht,"Studenten-WG, Berufstätigen-WG, gemischte WG","Sprache/n: Deutsch, Englisch",Geschlecht egal zwischen 23 und 34 Jahren
https://www.wg-gesucht.de/wg-zimmer-in-Augsburg-Gersthofen.7395528.html,399€,600€,Eichenlohweg 7 86368 Augsburg Gersthofen,15.07.2021,18m² Zimmer in 4er WG,,4er WG ( 1 Frau und 2 Männer ),Bewohneralter: 20 bis 28 Jahre,Rauchen nicht erwünscht,"Studenten-WG, gemischte WG","Sprache/n: Deutsch, Englisch",Mann zwischen 20 und 30 Jahren
https://www.wg-gesucht.de/wg-zimmer-in-Augsburg-Antonsviertel.7766896.html,470€,800€,Von-Paris-Straße 5 86159 Augsburg Antonsviertel,01.08.2021,14m² Zimmer in 3er WG,Wohnungsgröße: 71m²,3er WG ( 1 Frau und 1 Mann ),Bewohneralter: 20 bis 25 Jahre,Rauchen nicht erwünscht,"Studenten-WG, Azubi-WG, keine Zweck-WG, gemischte WG, LGBTQIA+, Internationals welcome","Sprache/n: Deutsch, Englisch",Geschlecht egal
https://www.wg-gesucht.de/wg-zimmer-in-Augsburg-Innenstadt.7632882.html,570€,1125€,Karolinenstr 4 86150 Augsburg Innenstadt,01.08.2021,25m² Zimmer in 2er WG,Wohnungsgröße: 82m²,2er WG ( 1 Mann ),,Rauchen auf dem Balkon erlaubt,"Studenten-WG, keine Zweck-WG, Internationals welcome","Sprache/n: Deutsch, Englisch",Geschlecht egal zwischen 19 und 28 Jahren
https://www.wg-gesucht.de/wg-zimmer-in-Augsburg-Goeggingen.8724278.html,450€,800€,Bürgermeister-Aurnhammerstraße 33 86199 Augsburg Göggingen,18.07.2021,20m² Zimmer in 11er WG,,11er WG ( 4 Frauen und 6 Männer ),Bewohneralter: 18 bis 25 Jahre,Rauchen auf dem Balkon erlaubt,"Studenten-WG, keine Zweck-WG, gemischte WG, LGBTQIA+, Internationals welcome","Sprache/n: Deutsch, Englisch",Geschlecht egal zwischen 18 und 28 Jahren
https://www.wg-gesucht.de/wg-zimmer-in-Augsburg-Inningen.8724124.html,380€,310€,"Wasserturmstraße, 9 86199 Augsburg Inningen",01.08.2021,13m² Zimmer in 6er WG,,6er WG ( 3 Frauen und 2 Männer ),Bewohneralter: 20 bis 30 Jahre,Studenten-WG,"Sprache/n: Deutsch, Englisch",Geschlecht egal, 
https://www.wg-gesucht.de/wg-zimmer-in-Augsburg-Innenstadt.8712178.html,410€,400€,Am Bogen 6 86152 Augsburg Innenstadt,15.07.2021,14m² Zimmer in 3er WG,Wohnungsgröße: 104m²,3er WG ( 2 Frauen ),Bewohneralter: 21 bis 22 Jahre,Studenten-WG,"Sprache/n: Deutsch, Englisch",Geschlecht egal, 
https://www.wg-gesucht.de/wg-zimmer-in-Augsburg-Inningen.8705669.html,380€,600€,Bobinger Straße 54 86199 Augsburg Inningen,01.07.2021,22m² Zimmer in 4er WG,,4er WG ( 3 Männer ),Bewohneralter: 21 bis 30 Jahre,"Berufstätigen-WG, Azubi-WG, keine Zweck-WG, gemischte WG, LGBTQIA+","Sprache/n: Deutsch, Englisch",Geschlecht egal ab 18 Jahren, 
https://www.wg-gesucht.de/wg-zimmer-in-Augsburg-Universitaetsviertel.7851538.html,410€,820€,Josef-Priller-Straße 25 86159 Augsburg Universitätsviertel,12.06.2021,14m² Zimmer in 2er WG,Wohnungsgröße: 42m²,2er WG ( 1 Frau ),Bewohneralter: ab 18 Jahre,Rauchen nicht erwünscht,"Studenten-WG, gemischte WG","Sprache/n: Deutsch, Englisch",Geschlecht egal
https://www.wg-gesucht.de/wg-zimmer-in-Augsburg-Innenstadt.7988915.html,455€,1140€,"Predigerberg, 14 86150 Augsburg Innenstadt",01.08.2021,19m² Zimmer in 3er WG,Wohnungsgröße: 90m²,3er WG ( 1 Frau und 1 Mann ),Bewohneralter: 24 bis 28 Jahre,Rauchen auf dem Balkon erlaubt,"Studenten-WG, Berufstätigen-WG, gemischte WG",,Geschlecht egal zwischen 20 und 35 Jahren
https://www.wg-gesucht.de/wg-zimmer-in-Augsburg-Innenstadt.8714738.html,399€,840€,Simpertstraße 9 86153 Augsburg Innenstadt,01.08.2021,12m² Zimmer in 3er WG,Wohnungsgröße: 97m²,3er WG ( 2 Männer ),Bewohneralter: 24 bis 26 Jahre,Rauchen auf dem Balkon erlaubt,"Studenten-WG, keine Zweck-WG",Sprache/n: Deutsch,Geschlecht egal zwischen 20 und 28 Jahren
https://www.wg-gesucht.de/wg-zimmer-in-Augsburg-Innenstadt.7905606.html,350€,367€,Pfärrle 14 86152 Augsburg Innenstadt,01.07.2021,14m² Zimmer in 2er WG,Wohnungsgröße: 85m²,2er WG ( 1 Mann ),Bewohneralter: 34 bis 34 Jahre,"Studenten-WG, Berufstätigen-WG","Sprache/n: Deutsch, Englisch",Geschlecht egal zwischen 22 und 36 Jahren, 
https://www.wg-gesucht.de/wg-zimmer-in-Augsburg-Baerenkeller.7472221.html,400€,620€,Asternweg 13 86156 Augsburg Bärenkeller,01.07.2021,13m² Zimmer in 7er WG,Wohnungsgröße: 180m²,7er WG ( 2 Frauen und 4 Männer ),Bewohneralter: 20 bis 35 Jahre,Rauchen nicht erwünscht,gemischte WG,,Geschlecht egal zwischen 20 und 39 Jahren
https://www.wg-gesucht.de/wg-zimmer-in-Augsburg-Goeggingen.6652286.html,395€,1100€,Oskar-von-Miller Straße 38 86199 Augsburg Göggingen,01.08.2021,16m² Zimmer in 3er WG,,3er WG ( 2 Frauen ),,Rauchen nicht erwünscht,"Studenten-WG, Berufstätigen-WG, gemischte WG","Sprache/n: Deutsch, Englisch",Geschlecht egal zwischen 20 und 30 Jahren
https://www.wg-gesucht.de/wg-zimmer-in-Augsburg-Haunstetten.7844034.html,350€,900€,Pflugstraße 25 86179 Augsburg Haunstetten,11.06.2021,13m² Zimmer in 5er WG,Wohnungsgröße: 86m²,5er WG ( 1 Frau und 3 Männer ),,"Studenten-WG, gemischte WG","Sprache/n: Deutsch, Englisch",Geschlecht egal, 
https://www.wg-gesucht.de/wg-zimmer-in-Augsburg-Innenstadt.8713281.html,500€,995€,Rugendasstr. 1 86153 Augsburg Innenstadt,15.09.2021,24m² Zimmer in 3er WG,Wohnungsgröße: 100m²,3er WG ( 1 Frau ),Bewohneralter: 23 bis 23 Jahre,Rauchen auf dem Balkon erlaubt,"Studenten-WG, keine Zweck-WG","Sprache/n: Deutsch, Englisch",Frau zwischen 20 und 30 Jahren
https://www.wg-gesucht.de/wg-zimmer-in-Augsburg-Innenstadt.8722825.html,460€,995€,Rugendasstraße 1 86153 Augsburg Innenstadt,01.10.2021,22m² Zimmer in 3er WG,Wohnungsgröße: 100m²,3er WG ( 1 Frau ),Bewohneralter: 23 bis 23 Jahre,Rauchen auf dem Balkon erlaubt,Studenten-WG,"Sprache/n: Deutsch, Englisch",Frau zwischen 20 und 30 Jahren
https://www.wg-gesucht.de/wg-zimmer-in-Augsburg-Oberhausen.7900928.html,446€,790€,Schißlerstraße 12A 86154 Augsburg Oberhausen,01.08.2021,20m² Zimmer in 5er WG,,5er WG ( 2 Frauen und 2 Männer ),Bewohneralter: 22 bis 29 Jahre,Rauchen auf dem Balkon erlaubt,"Berufstätigen-WG, keine Zweck-WG, gemischte WG",Sprache/n: Deutsch,Geschlecht egal zwischen 22 und 29 Jahren
https://www.wg-gesucht.de/wg-zimmer-in-Augsburg-Innenstadt.6816076.html,295€,250€,Kapuzinergasse 3 86150 Augsburg Innenstadt,11.06.2021,6m² Zimmer in 3er WG,Wohnungsgröße: 100m²,3er WG ( 1 Frau und 1 Mann ),Bewohneralter: 28 bis 37 Jahre,Rauchen auf dem Balkon erlaubt,"Berufstätigen-WG, keine Zweck-WG",Sprache/n: Deutsch,Geschlecht egal zwischen 25 und 40 Jahren
https://www.wg-gesucht.de/wg-zimmer-in-Augsburg-Universitaetsviertel.8722157.html,275€,820€,Professor-Messerschmitt-Straße 22 86159 Augsburg Universitätsviertel,01.07.2021,12m² Zimmer in 3er WG,Wohnungsgröße: 77m²,3er WG ( 1 Frau und 1 Mann ),Bewohneralter: 20 bis 21 Jahre,Rauchen nicht erwünscht,Studenten-WG,,Geschlecht egal zwischen 19 und 25 Jahren
https://www.wg-gesucht.de/wg-zimmer-in-Augsburg-Innenstadt.7979655.html,500€,1100€,Volkhartstraße 16 86152 Augsburg Innenstadt,01.08.2021,16m² Zimmer in 5er WG,Wohnungsgröße: 215m²,5er WG ( 2 Frauen und 2 Männer ),Bewohneralter: 21 bis 29 Jahre,Rauchen auf dem Balkon erlaubt,"Studenten-WG, Berufstätigen-WG, keine Zweck-WG, gemischte WG","Sprache/n: Deutsch, Englisch",Geschlecht egal zwischen 20 und 30 Jahren
https://www.wg-gesucht.de/wg-zimmer-in-Augsburg-Innenstadt.8474728.html,390€,683€,"Wertachbrucker-Tor-Straße, 9 86152 Augsburg Innenstadt",01.08.2021,25m² Zimmer in 4er WG,Wohnungsgröße: 129m²,4er WG ( 2 Frauen und 1 Mann ),Bewohneralter: 30 bis 34 Jahre,Rauchen auf dem Balkon erlaubt,"Berufstätigen-WG, keine Zweck-WG, gemischte WG","Sprache/n: Deutsch, Englisch",Geschlecht egal zwischen 27 und 35 Jahren
https://www.wg-gesucht.de/wg-zimmer-in-Augsburg-Lechhausen.8632710.html,300€, ,Schäfflerbachstraße 86153 Augsburg Lechhausen,01.09.2021,12m² Zimmer in 2er WG,Wohnungsgröße: 52m²,2er WG ( 1 Frau ),Bewohneralter: 21 bis 25 Jahre,Rauchen auf dem Balkon erlaubt,"Zweck-WG, Studenten-WG, Frauen-WG, Berufstätigen-WG, keine Zweck-WG, gemischte WG","Sprache/n: Deutsch, Englisch, Spanisch",Geschlecht egal zwischen 18 und 30 Jahren
https://www.wg-gesucht.de/wg-zimmer-in-Augsburg-Kriegshaber.4657054.html,280€,250€,Obere Osterfeldstr. 2 86156 Augsburg Kriegshaber,10.06.2021,16m² Zimmer in 2er WG,Wohnungsgröße: 60m²,2er WG ( 1 Frau ),,Rauchen nicht erwünscht,"Zweck-WG, Studenten-WG, Frauen-WG, Berufstätigen-WG, keine Zweck-WG","Sprache/n: Deutsch, Englisch, Arabisch, Türkisch",Frau
https://www.wg-gesucht.de/wg-zimmer-in-Augsburg-Innenstadt.8696304.html,340€,770€,Schießgrabenstraße 8A 86150 Augsburg Innenstadt,01.07.2021,13m² Zimmer in 3er WG,Wohnungsgröße: 73m²,3er WG ( 2 Frauen ),,"Studenten-WG, Frauen-WG, Berufstätigen-WG, gemischte WG, Internationals welcome","Sprache/n: Deutsch, Englisch, Französisch",Geschlecht egal, 
https://www.wg-gesucht.de/wg-zimmer-in-Augsburg-Aichach-Oberbernbach.8700321.html,500€, ,Bachfeldweg 4 86551 Augsburg Aichach Oberbernbach,01.07.2021,20m² Zimmer in 5er WG,Wohnungsgröße: 230m²,5er WG ( 1 Frau und 1 Mann ),Bewohneralter: 31 bis 35 Jahre,Rauchen auf dem Balkon erlaubt,"Berufstätigen-WG, WG mit Kindern, keine Zweck-WG, gemischte WG, Mehrgenerationen, Vegetarisch/Vegan, LGBTQIA+, Alleinerziehende, inklusive WG, WG-Neugründung","Sprache/n: Deutsch, Englisch",Mann
https://www.wg-gesucht.de/wg-zimmer-in-Augsburg-Innenstadt.8721535.html,310€,600€,Klinkerberg 25 86152 Augsburg Innenstadt,01.08.2021,105m² Zimmer in 4er WG,,4er WG,Bewohneralter: 21 bis 25 Jahre,Studenten-WG,"Sprache/n: Deutsch, Englisch, Spanisch",Geschlecht egal, 
https://www.wg-gesucht.de/wg-zimmer-in-Augsburg-Oberhausen.8312462.html,312€,465€,Donauwörther Straße 86154 Augsburg Oberhausen,01.09.2021,19m² Zimmer in 4er WG,Wohnungsgröße: 90m²,4er WG ( 2 Männer ),Bewohneralter: 22 bis 26 Jahre,Rauchen nicht erwünscht,"Studenten-WG, Berufstätigen-WG",Sprache/n: Deutsch,Geschlecht egal zwischen 18 und 30 Jahren
https://www.wg-gesucht.de/wg-zimmer-in-Augsburg-Lechhausen.8705983.html,380€,500€,Hardenbergstraße 12 86165 Augsburg Lechhausen,01.07.2021,13m² Zimmer in 3er WG,,3er WG ( 2 Frauen ),Bewohneralter: 19 bis 21 Jahre,Rauchen nicht erwünscht,"Studenten-WG, Frauen-WG, Berufstätigen-WG, keine Zweck-WG, gemischte WG, Internationals welcome","Sprache/n: Deutsch, Englisch, Spanisch, Portugiesisch",Geschlecht egal zwischen 18 und 26 Jahren
https://www.wg-gesucht.de/wg-zimmer-in-Augsburg-Antonsviertel.8721479.html,260€,375€,Gögginger Straße 7 86159 Augsburg Antonsviertel,15.07.2021,11m² Zimmer in 4er WG,Wohnungsgröße: 119m²,4er WG ( 1 Frau und 2 Männer ),Bewohneralter: 25 bis 27 Jahre,Rauchen nicht erwünscht,"keine Zweck-WG, gemischte WG","Sprache/n: Deutsch, Englisch",Geschlecht egal zwischen 22 und 30 Jahren
https://www.wg-gesucht.de/wg-zimmer-in-Augsburg-Pfersee.8706846.html,285€,200€,Färberstraße 15 86157 Augsburg Pfersee,01.08.2021,11m² Zimmer in 3er WG,Wohnungsgröße: 70m²,3er WG ( 2 Männer ),Bewohneralter: 23 bis 25 Jahre,"Studenten-WG, Berufstätigen-WG, keine Zweck-WG","Sprache/n: Deutsch, Englisch",Geschlecht egal zwischen 18 und 35 Jahren, 
https://www.wg-gesucht.de/wg-zimmer-in-Augsburg-Innenstadt.7354860.html,350€,600€,Wertachstraße 12 86153 Augsburg Innenstadt,01.07.2021,21m² Zimmer in 4er WG,Wohnungsgröße: 120m²,4er WG ( 1 Frau und 2 Männer ),Bewohneralter: 19 bis 26 Jahre,Rauchen nicht erwünscht,gemischte WG,"Sprache/n: Deutsch, Englisch",Geschlecht egal zwischen 19 und 28 Jahren
https://www.wg-gesucht.de/wg-zimmer-in-Augsburg-Pfersee.8720980.html,304€,630€,Stadtberger Str. 76 86157 Augsburg Pfersee,01.08.2021,14m² Zimmer in 3er WG,Wohnungsgröße: 89m²,3er WG ( 1 Frau und 1 Mann ),Bewohneralter: 21 bis 24 Jahre,Rauchen nicht erwünscht,"Studenten-WG, keine Zweck-WG","Sprache/n: Deutsch, Englisch",Geschlecht egal zwischen 19 und 29 Jahren
https://www.wg-gesucht.de/wg-zimmer-in-Augsburg-Oberhausen.8719206.html,230€,465€,Donauwörther Straße 86154 Augsburg Oberhausen,01.07.2021,12m² Zimmer in 4er WG,Wohnungsgröße: 90m²,4er WG ( 2 Männer ),Bewohneralter: 23 bis 26 Jahre,Rauchen nicht erwünscht,"Studenten-WG, Berufstätigen-WG",Sprache/n: Deutsch,Geschlecht egal zwischen 18 und 30 Jahren
https://www.wg-gesucht.de/wg-zimmer-in-Augsburg-Innenstadt.8720624.html,350€,520€,Karmelitengasse 9 86152 Augsburg Innenstadt,01.09.2021,17m² Zimmer in 5er WG,,5er WG ( 2 Frauen und 2 Männer ),Bewohneralter: 20 bis 25 Jahre,Rauchen nicht erwünscht,Studenten-WG,Sprache/n: Deutsch,Geschlecht egal
https://www.wg-gesucht.de/wg-zimmer-in-Augsburg-Innenstadt.8470261.html,360€,350€,Johannes-Haag-Straße 2 1/2 86153 Augsburg Innenstadt,01.09.2021,17m² Zimmer in 3er WG,Wohnungsgröße: 68m²,3er WG ( 2 Männer ),Bewohneralter: 20 bis 22 Jahre,Rauchen nicht erwünscht,"Studenten-WG, keine Zweck-WG, gemischte WG, LGBTQIA+, Internationals welcome",Sprache/n: Deutsch,Geschlecht egal
https://www.wg-gesucht.de/wg-zimmer-in-Augsburg-Innenstadt.8592771.html,490€,1000€,Müllerstraße 14 86153 Augsburg Innenstadt,10.06.2021,15m² Zimmer in 4er WG,Wohnungsgröße: 100m²,4er WG,,"Studenten-WG, Business-WG, Berufstätigen-WG, gemischte WG, WG-Neugründung",,Geschlecht egal, 
https://www.wg-gesucht.de/wg-zimmer-in-Augsburg-Innenstadt.8716539.html,273€,600€,Rosenaustraße 50 86150 Augsburg Innenstadt,16.07.2021,10m² Zimmer in 4er WG,Wohnungsgröße: 105m²,4er WG ( 3 Männer ),Bewohneralter: 24 bis 25 Jahre,Rauchen auf dem Balkon erlaubt,Studenten-WG,"Sprache/n: Deutsch, Englisch, Türkisch",Geschlecht egal zwischen 19 und 29 Jahren
https://www.wg-gesucht.de/wg-zimmer-in-Augsburg-Innenstadt.8284898.html,306€, ,Konrad Adenauer Allee 51 86150 Augsburg Innenstadt,01.09.2021,21m² Zimmer in 4er WG,Wohnungsgröße: 150m²,4er WG ( 2 Frauen und 1 Mann ),Bewohneralter: 19 bis 26 Jahre,Studenten-WG,"Sprache/n: Deutsch, Englisch",Geschlecht egal, 
https://www.wg-gesucht.de/wg-zimmer-in-Augsburg-Innenstadt.8707940.html,476€,1008€,Maximilianstraße 86150 Augsburg Innenstadt,06.08.2021,27m² Zimmer in 3er WG,Wohnungsgröße: 112m²,3er WG ( 1 Frau und 1 Mann ),Bewohneralter: 23 bis 24 Jahre,"Studenten-WG, keine Zweck-WG, gemischte WG","Sprache/n: Deutsch, Englisch",Geschlecht egal zwischen 20 und 25 Jahren, 
https://www.wg-gesucht.de/wg-zimmer-in-Augsburg-Hochfeld.8657611.html,315€,300€,Werderstraße 28 86159 Augsburg Hochfeld,15.06.2021,11m² Zimmer in 3er WG,Wohnungsgröße: 73m²,3er WG ( 2 Männer ),Bewohneralter: 22 bis 23 Jahre,Rauchen nicht erwünscht,Studenten-WG,Sprache/n: Deutsch,Geschlecht egal zwischen 18 und 30 Jahren
https://www.wg-gesucht.de/wg-zimmer-in-Augsburg-Antonsviertel.8719748.html,354€,367€,Gögginger Straße 54 86159 Augsburg Antonsviertel,01.09.2021,17m² Zimmer in 3er WG,Wohnungsgröße: 96m²,3er WG ( 1 Frau und 1 Mann ),Bewohneralter: 22 bis 23 Jahre,Rauchen nicht erwünscht,"Studenten-WG, keine Zweck-WG","Sprache/n: Deutsch, Englisch",Geschlecht egal zwischen 18 und 29 Jahren
https://www.wg-gesucht.de/wg-zimmer-in-Augsburg-Antonsviertel.8719749.html,354€,367€,"Gögginger Str., 54 86159 Augsburg Antonsviertel",01.09.2021,18m² Zimmer in 3er WG,Wohnungsgröße: 96m²,3er WG ( 1 Frau und 1 Mann ),Bewohneralter: 22 bis 23 Jahre,Rauchen nicht erwünscht,"Studenten-WG, keine Zweck-WG","Sprache/n: Deutsch, Englisch",Geschlecht egal zwischen 18 und 29 Jahren
https://www.wg-gesucht.de/wg-zimmer-in-Augsburg-Inningen.6800251.html,310€,310€,Wasserturm Straße 9 86199 Augsburg Inningen,01.08.2021,12m² Zimmer in 6er WG,Wohnungsgröße: 210m²,6er WG ( 3 Frauen und 2 Männer ),Bewohneralter: 18 bis 28 Jahre,Rauchen auf dem Balkon erlaubt,Studenten-WG,"Sprache/n: Deutsch, Englisch",Geschlecht egal zwischen 18 und 39 Jahren
https://www.wg-gesucht.de/wg-zimmer-in-Augsburg-Hochzoll.8381680.html,380€,660€,Friedberger Str. 160 86163 Augsburg Hochzoll,01.09.2021,15m² Zimmer in 5er WG,Wohnungsgröße: 112m²,5er WG ( 2 Frauen und 2 Männer ),Bewohneralter: 25 bis 32 Jahre,Rauchen nicht erwünscht,"Berufstätigen-WG, gemischte WG","Sprache/n: Deutsch, Englisch, Spanisch",Geschlecht egal zwischen 20 und 30 Jahren
https://www.wg-gesucht.de/wg-zimmer-in-Augsburg-Haunstetten.8718002.html,230€,300€,Bürgermeister-Ulrich-Straße 144b 86179 Augsburg Haunstetten,01.09.2021,17m² Zimmer in 3er WG,Wohnungsgröße: 57m²,3er WG ( 2 Männer ),Bewohneralter: 20 bis 24 Jahre,"Studenten-WG, Wohnheim",,Geschlecht egal zwischen 18 und 25 Jahren, 
https://www.wg-gesucht.de/wg-zimmer-in-Augsburg-Oberhausen.8709649.html,330€,780€,Hettenbachufer 86154 Augsburg Oberhausen,15.06.2021,12m² Zimmer in 5er WG,Wohnungsgröße: 120m²,5er WG ( 2 Frauen und 2 Männer ),Bewohneralter: 23 bis 26 Jahre,Rauchen überall erlaubt,gemischte WG,"Sprache/n: Deutsch, Englisch",Geschlecht egal
https://www.wg-gesucht.de/wg-zimmer-in-Augsburg-Oberhausen.8718932.html,400€,844€,Felber Str 86154 Augsburg Oberhausen,15.06.2021,18m² Zimmer in 5er WG,Wohnungsgröße: 52m²,5er WG,,"Studenten-WG, Berufstätigen-WG, keine Zweck-WG, gemischte WG","Sprache/n: Deutsch, Englisch",Geschlecht egal, 
https://www.wg-gesucht.de/wg-zimmer-in-Augsburg-Innenstadt.7528996.html,500€,1035€,Blumenstraße 7 86152 Augsburg Innenstadt,01.07.2021,16m² Zimmer in 4er WG,Wohnungsgröße: 150m²,4er WG ( 1 Frau und 2 Männer ),Bewohneralter: 31 bis 32 Jahre,"WG mit Kindern, keine Zweck-WG, gemischte WG","Sprache/n: Deutsch, Englisch",Geschlecht egal zwischen 25 und 40 Jahren, 
https://www.wg-gesucht.de/wg-zimmer-in-Augsburg-Goeggingen.8718654.html,375€,666€,Röntgenstraße 11 86199 Augsburg Göggingen,09.06.2021,13m² Zimmer in 3er WG,Wohnungsgröße: 110m²,3er WG ( 2 Männer ),Bewohneralter: 25 bis 25 Jahre,Rauchen auf dem Balkon erlaubt,"Studenten-WG, keine Zweck-WG","Sprache/n: Deutsch, Englisch, Türkisch",Geschlecht egal
https://www.wg-gesucht.de/wg-zimmer-in-Augsburg-Innenstadt.8717641.html,400€, ,Wolfsgäßchen 5c 86153 Augsburg Innenstadt,01.08.2021,15m² Zimmer in 2er WG,Wohnungsgröße: 60m²,2er WG ( 1 Frau ),,Rauchen auf dem Balkon erlaubt,"Studenten-WG, Berufstätigen-WG, Azubi-WG, keine Zweck-WG, Vegetarisch/Vegan, LGBTQIA+, Internationals welcome","Sprache/n: Deutsch, Englisch",Geschlecht egal zwischen 20 und 30 Jahren
https://www.wg-gesucht.de/wg-zimmer-in-Augsburg-Hochzoll.7822623.html,320€,560€,Friedberger Straße 160 86163 Augsburg Hochzoll,01.08.2021,10m² Zimmer in 5er WG,Wohnungsgröße: 112m²,5er WG ( 2 Frauen und 2 Männer ),Bewohneralter: 20 bis 23 Jahre,Rauchen auf dem Balkon erlaubt,gemischte WG,"Sprache/n: Deutsch, Englisch",Geschlecht egal zwischen 18 und 25 Jahren
https://www.wg-gesucht.de/wg-zimmer-in-Augsburg-Oberhausen.8717345.html,350€,700€,Neuhäuser str 86154 Augsburg Oberhausen,01.08.2021,13m² Zimmer in 3er WG,Wohnungsgröße: 83m²,3er WG ( 1 Mann ),Bewohneralter: 20 bis 26 Jahre,Rauchen auf dem Balkon erlaubt,gemischte WG,,Geschlecht egal zwischen 18 und 32 Jahren
https://www.wg-gesucht.de/wg-zimmer-in-Augsburg-Goeggingen.8449112.html,280€,280€,Allgäuer Straße 54 86199 Augsburg Göggingen,01.07.2021,17m² Zimmer in 13er WG,Wohnungsgröße: 200m²,13er WG ( 3 Frauen und 5 Männer ),Bewohneralter: 20 bis 39 Jahre,Rauchen nicht erwünscht,"Studenten-WG, gemischte WG","Sprache/n: Deutsch, Englisch",Geschlecht egal zwischen 20 und 30 Jahren
https://www.wg-gesucht.de/wg-zimmer-in-Augsburg-Haunstetten.8658916.html,333€,600€,Siebenbürgenstraße 15 86179 Augsburg Haunstetten,15.06.2021,18m² Zimmer in 4er WG,,4er WG ( 3 Frauen ),Bewohneralter: 19 bis 23 Jahre,Rauchen nicht erwünscht,"Studenten-WG, Frauen-WG, keine Zweck-WG",Sprache/n: Deutsch,Frau zwischen 17 und 30 Jahren
https://www.wg-gesucht.de/wg-zimmer-in-Augsburg-Innenstadt.8717001.html,372€, ,Wertachstraße 11 86153 Augsburg Innenstadt,01.07.2021,16m² Zimmer in 2er WG,Wohnungsgröße: 65m²,2er WG ( 1 Frau ),Bewohneralter: 21 bis 21 Jahre,Studenten-WG,Sprache/n: Deutsch,Geschlecht egal zwischen 18 und 27 Jahren, 
https://www.wg-gesucht.de/wg-zimmer-in-Augsburg-Haunstetten.6364307.html,380€,600€,Henri Dunant Straße 2 86179 Augsburg Haunstetten,01.07.2021,15m² Zimmer in 3er WG,Wohnungsgröße: 63m²,3er WG ( 1 Mann ),Bewohneralter: 20 bis 25 Jahre,"Studenten-WG, Berufstätigen-WG, gemischte WG","Sprache/n: Deutsch, Polnisch",Geschlecht egal, 
https://www.wg-gesucht.de/wg-zimmer-in-Augsburg-Antonsviertel.6066310.html,550€,635€,Morellstraße 1 86159 Augsburg Antonsviertel,01.08.2021,25m² Zimmer in 4er WG,Wohnungsgröße: 220m²,4er WG ( 3 Männer ),Bewohneralter: 25 bis 30 Jahre,Rauchen im Zimmer erlaubt,"Berufstätigen-WG, keine Zweck-WG, gemischte WG","Sprache/n: Deutsch, Englisch",Geschlecht egal zwischen 20 und 35 Jahren
https://www.wg-gesucht.de/wg-zimmer-in-Augsburg-Vogelsang-Lettenbach.7717143.html,380€, ,untere Lettenbergstrasse 86420 Augsburg Vogelsang/Lettenbach,11.07.2021,16m² Zimmer in 3er WG,Wohnungsgröße: 125m²,3er WG ( 1 Frau und 1 Mann ),Bewohneralter: 24 bis 52 Jahre,Rauchen auf dem Balkon erlaubt,"Berufstätigen-WG, keine Zweck-WG, gemischte WG","Sprache/n: Deutsch, Englisch, Spanisch, Französisch, Russisch",Frau zwischen 18 und 50 Jahren
https://www.wg-gesucht.de/wg-zimmer-in-Augsburg-Haunstetten.7945714.html,310€,500€,Olympiastr. 6 86179 Augsburg Haunstetten,01.07.2021,9m² Zimmer in 6er WG,Wohnungsgröße: 158m²,6er WG ( 1 Frau und 4 Männer ),Bewohneralter: 18 bis 29 Jahre,Rauchen nicht erwünscht,"Studenten-WG, Berufstätigen-WG, keine Zweck-WG, gemischte WG","Sprache/n: Deutsch, Englisch",Geschlecht egal
https://www.wg-gesucht.de/wg-zimmer-in-Augsburg-Herrenbach.8687262.html,350€,0€,Lotzbeckstraße 3 86161 Augsburg Herrenbach,01.07.2021,14m² Zimmer in 3er WG,Wohnungsgröße: 78m²,3er WG,,Rauchen nicht erwünscht,"Studenten-WG, Berufstätigen-WG, keine Zweck-WG, gemischte WG",,Geschlecht egal
https://www.wg-gesucht.de/wg-zimmer-in-Augsburg-Innenstadt.5250824.html,440€,650€,Hermanstr. 7 86150 Augsburg Innenstadt,01.07.2021,21m² Zimmer in 5er WG,Wohnungsgröße: 180m²,5er WG ( 2 Frauen und 2 Männer ),Bewohneralter: 25 bis 33 Jahre,Rauchen auf dem Balkon erlaubt,"Berufstätigen-WG, keine Zweck-WG, gemischte WG","Sprache/n: Deutsch, Englisch, Spanisch",Geschlecht egal zwischen 25 und 35 Jahren
https://www.wg-gesucht.de/wg-zimmer-in-Augsburg-Hochzoll.8648539.html,360€,900€,Friedberger Straße 110 86163 Augsburg Hochzoll,01.07.2021,17m² Zimmer in 3er WG,,3er WG ( 2 Männer ),Bewohneralter: 24 bis 25 Jahre,gemischte WG,"Sprache/n: Deutsch, Englisch, Spanisch",Geschlecht egal, 
https://www.wg-gesucht.de/wg-zimmer-in-Augsburg-Innenstadt.8713776.html,600€,600€,Schmiedgasse 86150 Augsburg Innenstadt,01.09.2021,15m² Zimmer in 2er WG,Wohnungsgröße: 75m²,2er WG,Bewohneralter: 23 bis 29 Jahre,Internationals welcome,"Sprache/n: Englisch, Deutsch, Französisch",Geschlecht egal zwischen 23 und 29 Jahren, 
https://www.wg-gesucht.de/wg-zimmer-in-Augsburg-Innenstadt.5996295.html,295€,400€,Werderstraße 17 86159 Augsburg Innenstadt,01.08.2021,12m² Zimmer in 4er WG,Wohnungsgröße: 95m²,4er WG ( 3 Männer ),Bewohneralter: 25 bis 28 Jahre,Rauchen im Zimmer erlaubt,"keine Zweck-WG, gemischte WG","Sprache/n: Deutsch, Englisch",Geschlecht egal zwischen 20 und 30 Jahren
https://www.wg-gesucht.de/wg-zimmer-in-Augsburg-Innenstadt.6493216.html,395€,690€,Jakoberstraße.27 86152 Augsburg Innenstadt,01.07.2021,15m² Zimmer in 3er WG,Wohnungsgröße: 121m²,3er WG ( 2 Männer ),Bewohneralter: 25 bis 26 Jahre,Rauchen im Zimmer erlaubt,"Studenten-WG, keine Zweck-WG, gemischte WG",Sprache/n: Deutsch,Geschlecht egal zwischen 21 und 29 Jahren
https://www.wg-gesucht.de/wg-zimmer-in-Augsburg-Haunstetten.8713107.html,300€,500€,Willibald-Popp-Str. 1 86179 Augsburg Haunstetten,01.09.2021,12m² Zimmer in 5er WG,Wohnungsgröße: 120m²,5er WG ( 2 Frauen und 2 Männer ),Bewohneralter: 24 bis 27 Jahre,Rauchen auf dem Balkon erlaubt,"keine Zweck-WG, gemischte WG, LGBTQIA+","Sprache/n: Deutsch, Englisch",Frau ab 18 Jahren
https://www.wg-gesucht.de/wg-zimmer-in-Augsburg-Hochfeld.8702221.html,485€,1035€,Alter Postweg 52a 86159 Augsburg Hochfeld,01.08.2021,17m² Zimmer in 2er WG,Wohnungsgröße: 58m²,2er WG ( 1 Frau ),Bewohneralter: 38 bis 38 Jahre,Rauchen nicht erwünscht,"Studenten-WG, Berufstätigen-WG","Sprache/n: Deutsch, Englisch, Chinesisch",Geschlecht egal zwischen 20 und 45 Jahren
https://www.wg-gesucht.de/wg-zimmer-in-Augsburg-Innenstadt.8712591.html,320€,0€,Holzbachstraße 27 86152 Augsburg Innenstadt,12.07.2021,13m² Zimmer in 3er WG,,3er WG ( 2 Männer ),,keine Zweck-WG,"Sprache/n: Deutsch, Englisch",Geschlecht egal, 
https://www.wg-gesucht.de/wg-zimmer-in-Augsburg-Oberhausen.8663016.html,380€,600€,Laugingerstr. 86154 Augsburg Oberhausen,01.07.2021,13m² Zimmer in 2er WG,Wohnungsgröße: 74m²,2er WG ( 1 Frau ),,Rauchen nicht erwünscht,"Studenten-WG, Berufstätigen-WG, Azubi-WG, keine Zweck-WG, gemischte WG","Sprache/n: Deutsch, Englisch",Geschlecht egal zwischen 20 und 35 Jahren
https://www.wg-gesucht.de/wg-zimmer-in-Augsburg-Hochzoll.8710488.html,370€,900€,Friedbergerstr. 110 86163 Augsburg Hochzoll,01.08.2021,17m² Zimmer in 3er WG,,3er WG ( 1 Frau und 1 Mann ),Bewohneralter: 25 bis 28 Jahre,Rauchen auf dem Balkon erlaubt,"Studenten-WG, keine Zweck-WG, gemischte WG, Internationals welcome","Sprache/n: Deutsch, Englisch",Geschlecht egal zwischen 22 und 30 Jahren
https://www.wg-gesucht.de/wg-zimmer-in-Augsburg-Hochfeld.5327176.html,450€,500€,Alter Postweg 58 86159 Augsburg Hochfeld,01.07.2021,12m² Zimmer in 2er WG,Wohnungsgröße: 53m²,2er WG ( 1 Mann ),Bewohneralter: 19 bis 33 Jahre,Rauchen auf dem Balkon erlaubt,Studenten-WG,"Sprache/n: Deutsch, Englisch, Spanisch, Französisch, Italienisch, Türkisch",Geschlecht egal zwischen 19 und 33 Jahren
https://www.wg-gesucht.de/wg-zimmer-in-Augsburg-Oberhausen.6481942.html,550€,500€,Schönbachstr 12 86154 Augsburg Oberhausen,20.06.2021,23m² Zimmer in 3er WG,Wohnungsgröße: 110m²,3er WG ( 2 Frauen ),Bewohneralter: 21 bis 24 Jahre,Rauchen nicht erwünscht,"Zweck-WG, Studenten-WG, Frauen-WG, Berufstätigen-WG, keine Zweck-WG, gemischte WG",Sprache/n: Deutsch,Frau zwischen 20 und 28 Jahren
https://www.wg-gesucht.de/wg-zimmer-in-Augsburg-Kriegshaber.3938541.html,333€,350€,Tunnelstrasse 71 86156 Augsburg Kriegshaber,05.06.2021,15m² Zimmer in 3er WG,Wohnungsgröße: 86m²,3er WG ( 2 Männer ),Bewohneralter: 24 bis 28 Jahre,Rauchen auf dem Balkon erlaubt,"Studenten-WG, Berufstätigen-WG, gemischte WG","Sprache/n: Deutsch, Englisch, Spanisch",Geschlecht egal zwischen 20 und 33 Jahren
https://www.wg-gesucht.de/wg-zimmer-in-Augsburg-Oberhausen.8710825.html,365€, ,Mendelssohnstr. 2 86153 Augsburg Oberhausen,15.06.2021,15m² Zimmer in 3er WG,Wohnungsgröße: 65m²,3er WG ( 2 Frauen ),Bewohneralter: 21 bis 21 Jahre,Rauchen auf dem Balkon erlaubt,"Studenten-WG, keine Zweck-WG","Sprache/n: Deutsch, Englisch",Geschlecht egal zwischen 20 und 30 Jahren
https://www.wg-gesucht.de/wg-zimmer-in-Augsburg-Bismarckviertel.7973489.html,350€, ,Werderstraße 21 86159 Augsburg Bismarckviertel,01.09.2021,13m² Zimmer in 2er WG,Wohnungsgröße: 89m²,2er WG ( 1 Frau ),,Rauchen nicht erwünscht,"Zweck-WG, Business-WG, Berufstätigen-WG, Internationals welcome","Sprache/n: Deutsch, Englisch",Frau
https://www.wg-gesucht.de/wg-zimmer-in-Augsburg-Innenstadt.8698948.html,446€,500€,Bäckergasse 17 86150 Augsburg Innenstadt,01.09.2021,20m² Zimmer in 3er WG,Wohnungsgröße: 85m²,3er WG ( 2 Frauen ),Bewohneralter: 20 bis 21 Jahre,Rauchen auf dem Balkon erlaubt,"Frauen-WG, keine Zweck-WG, LGBTQIA+, Internationals welcome","Sprache/n: Deutsch, Englisch",Frau zwischen 18 und 26 Jahren
https://www.wg-gesucht.de/wg-zimmer-in-Augsburg-Hochfeld.6786828.html,368€,0€,Von- Richthofen- Straße 38 86159 Augsburg Hochfeld,01.07.2021,16m² Zimmer in 3er WG,,3er WG ( 1 Frau und 1 Mann ),Bewohneralter: 24 bis 33 Jahre,Rauchen nicht erwünscht,"Studenten-WG, keine Zweck-WG, gemischte WG","Sprache/n: Deutsch, Englisch",Geschlecht egal zwischen 20 und 30 Jahren
https://www.wg-gesucht.de/wg-zimmer-in-Augsburg-Haunstetten.2338603.html,315€,600€,Hofgartenstraße 86179 Augsburg Haunstetten,01.07.2021,16m² Zimmer in 3er WG,,3er WG ( 2 Frauen ),Bewohneralter: 19 bis 21 Jahre,Rauchen nicht erwünscht,"Studenten-WG, Frauen-WG, keine Zweck-WG",,Frau zwischen 18 und 23 Jahren
https://www.wg-gesucht.de/wg-zimmer-in-Augsburg-Uni-Naehe.8684047.html,300€,600€,Siebenbürgenstr. 86179 Augsburg Uni-Nähe,01.07.2021,11m² Zimmer in 4er WG,,4er WG ( 3 Frauen ),Bewohneralter: 20 bis 23 Jahre,Rauchen nicht erwünscht,"Studenten-WG, Frauen-WG, keine Zweck-WG",,Frau zwischen 18 und 23 Jahren
https://www.wg-gesucht.de/wg-zimmer-in-Augsburg-Zusmarshausen.7675063.html,250€,0€,Pfarrer-Mundorff-Weg 86441 Augsburg Zusmarshausen,27.06.2021,25m² Zimmer in 3er WG,Wohnungsgröße: 100m²,3er WG ( 1 Frau und 1 Mann ),Bewohneralter: 25 bis 40 Jahre,Rauchen nicht erwünscht,"Zweck-WG, Studenten-WG, Frauen-WG, Berufstätigen-WG, keine Zweck-WG, gemischte WG",Sprache/n: Deutsch,Frau zwischen 20 und 50 Jahren
https://www.wg-gesucht.de/wg-zimmer-in-Augsburg-Naehe-Wertachbrucke.8673749.html,250€,0€,Schützenstraße 8 86153 Augsburg Nähe Wertachbrücke,01.11.2021,11m² Zimmer in 4er WG,Wohnungsgröße: 60m²,4er WG ( 1 Frau und 2 Männer ),Bewohneralter: bis 29 Jahre,Rauchen nicht erwünscht,"keine Zweck-WG, gemischte WG",,Frau bis 29 Jahren
